EESchema Schematic File Version 2
LIBS:power
LIBS:device
LIBS:transistors
LIBS:conn
LIBS:linear
LIBS:regul
LIBS:74xx
LIBS:cmos4000
LIBS:adc-dac
LIBS:memory
LIBS:xilinx
LIBS:microcontrollers
LIBS:dsp
LIBS:microchip
LIBS:analog_switches
LIBS:motorola
LIBS:texas
LIBS:intel
LIBS:audio
LIBS:interface
LIBS:digital-audio
LIBS:philips
LIBS:display
LIBS:cypress
LIBS:siliconi
LIBS:opto
LIBS:atmel
LIBS:contrib
LIBS:valves
LIBS:bandoMIDI_v1-1_lib
LIBS:bandoMIDI_v2-0-cache
EELAYER 25 0
EELAYER END
$Descr A4 11693 8268
encoding utf-8
Sheet 4 5
Title "BandoMIDI"
Date "2018-03-04"
Rev "A1"
Comp "HLB"
Comment1 ""
Comment2 ""
Comment3 ""
Comment4 ""
$EndDescr
$Comp
L C_Small C101
U 1 1 5A9DA5DA
P 1650 2550
F 0 "C101" H 1450 2650 50  0000 L CNN
F 1 "47nF" H 1400 2450 50  0000 L CNN
F 2 "Capacitors_SMD:C_0603_HandSoldering" H 1650 2550 50  0001 C CNN
F 3 "" H 1650 2550 50  0000 C CNN
	1    1650 2550
	1    0    0    -1  
$EndComp
Wire Wire Line
	1650 2150 1650 2450
Wire Wire Line
	1650 2400 1850 2400
Wire Wire Line
	1850 2700 1650 2700
Wire Wire Line
	1650 2650 1650 2750
$Comp
L +5VL #PWR1
U 1 1 5A9C6D6C
P 1650 2150
F 0 "#PWR1" H 1650 2000 50  0001 C CNN
F 1 "+5VL" H 1650 2290 50  0000 C CNN
F 2 "" H 1650 2150 50  0000 C CNN
F 3 "" H 1650 2150 50  0000 C CNN
	1    1650 2150
	1    0    0    -1  
$EndComp
Connection ~ 1650 2400
$Comp
L R_Small R101
U 1 1 5A9DA5E8
P 2550 2400
F 0 "R101" H 2600 2450 50  0000 L CNN
F 1 "1k2" H 2600 2350 50  0000 L CNN
F 2 "Resistors_SMD:R_0603_HandSoldering" H 2550 2400 50  0001 C CNN
F 3 "" H 2550 2400 50  0000 C CNN
	1    2550 2400
	1    0    0    -1  
$EndComp
Wire Wire Line
	2550 2500 2550 2550
Wire Wire Line
	2450 2550 2900 2550
Wire Wire Line
	2550 2300 2550 2200
$Comp
L GND #PWR2
U 1 1 5A9DA5EC
P 1650 2750
F 0 "#PWR2" H 1650 2500 50  0001 C CNN
F 1 "GND" H 1650 2600 50  0000 C CNN
F 2 "" H 1650 2750 50  0000 C CNN
F 3 "" H 1650 2750 50  0000 C CNN
	1    1650 2750
	1    0    0    -1  
$EndComp
Connection ~ 1650 2700
Wire Wire Line
	2550 2200 1650 2200
Connection ~ 1650 2200
Text GLabel 2900 2550 2    60   Input ~ 0
R_A_01
Connection ~ 2550 2550
Text GLabel 9700 2250 2    60   Input ~ 0
R_A_02
Wire Wire Line
	9600 2250 9700 2250
Text GLabel 9700 2150 2    60   Input ~ 0
R_A_01
Wire Wire Line
	9600 2150 9700 2150
Text GLabel 9700 2450 2    60   Input ~ 0
R_A_04
Wire Wire Line
	9600 2450 9700 2450
Text GLabel 9700 2350 2    60   Input ~ 0
R_A_03
Wire Wire Line
	9600 2350 9700 2350
Text GLabel 9700 2650 2    60   Input ~ 0
R_A_06
Wire Wire Line
	9600 2650 9700 2650
Text GLabel 9700 2550 2    60   Input ~ 0
R_A_05
Wire Wire Line
	9600 2550 9700 2550
NoConn ~ 9600 2750
NoConn ~ 9600 2850
$Comp
L C_Small C107
U 1 1 5A9DA5EE
P 10500 2400
F 0 "C107" H 10300 2500 50  0000 L CNN
F 1 "47nF" H 10250 2300 50  0000 L CNN
F 2 "Capacitors_SMD:C_0603_HandSoldering" H 10500 2400 50  0001 C CNN
F 3 "" H 10500 2400 50  0000 C CNN
	1    10500 2400
	1    0    0    -1  
$EndComp
$Comp
L +5VL #PWR17
U 1 1 5A9DA5F3
P 9100 1800
F 0 "#PWR17" H 9100 1650 50  0001 C CNN
F 1 "+5VL" H 9100 1940 50  0000 C CNN
F 2 "" H 9100 1800 50  0000 C CNN
F 3 "" H 9100 1800 50  0000 C CNN
	1    9100 1800
	1    0    0    -1  
$EndComp
$Comp
L GND #PWR18
U 1 1 5A9C752D
P 9100 3300
F 0 "#PWR18" H 9100 3050 50  0001 C CNN
F 1 "GND" H 9100 3150 50  0000 C CNN
F 2 "" H 9100 3300 50  0000 C CNN
F 3 "" H 9100 3300 50  0000 C CNN
	1    9100 3300
	1    0    0    -1  
$EndComp
Wire Wire Line
	9100 1800 9100 1850
Wire Wire Line
	9100 3250 9100 3300
$Comp
L +5VL #PWR23
U 1 1 5A9C77A8
P 10500 2250
F 0 "#PWR23" H 10500 2100 50  0001 C CNN
F 1 "+5VL" H 10500 2390 50  0000 C CNN
F 2 "" H 10500 2250 50  0000 C CNN
F 3 "" H 10500 2250 50  0000 C CNN
	1    10500 2250
	1    0    0    -1  
$EndComp
$Comp
L GND #PWR24
U 1 1 5A9DA604
P 10500 2550
F 0 "#PWR24" H 10500 2300 50  0001 C CNN
F 1 "GND" H 10500 2400 50  0000 C CNN
F 2 "" H 10500 2550 50  0000 C CNN
F 3 "" H 10500 2550 50  0000 C CNN
	1    10500 2550
	1    0    0    -1  
$EndComp
Wire Wire Line
	10500 2250 10500 2300
Wire Wire Line
	10500 2500 10500 2550
$Comp
L PCF8574TS/3 U107
U 1 1 5A9DA607
P 9100 2550
F 0 "U107" H 8750 3150 50  0000 L CNN
F 1 "PCF8574TS/3" H 9200 3150 50  0000 L CNN
F 2 "SMD_Packages:SSOP-20" H 9100 2550 50  0001 C CNN
F 3 "" H 9100 2550 50  0000 C CNN
	1    9100 2550
	1    0    0    -1  
$EndComp
$Comp
L R_Small R108
U 1 1 5A9DA615
P 8400 2000
F 0 "R108" H 8450 2050 50  0000 L CNN
F 1 "4k7" H 8450 1950 50  0000 L CNN
F 2 "Resistors_SMD:R_0603_HandSoldering" H 8400 2000 50  0001 C CNN
F 3 "" H 8400 2000 50  0000 C CNN
	1    8400 2000
	1    0    0    -1  
$EndComp
$Comp
L R_Small R107
U 1 1 5A9DA616
P 8150 2000
F 0 "R107" H 7900 2050 50  0000 L CNN
F 1 "4k7" H 8200 1950 50  0000 L CNN
F 2 "Resistors_SMD:R_0603_HandSoldering" H 8150 2000 50  0001 C CNN
F 3 "" H 8150 2000 50  0000 C CNN
	1    8150 2000
	1    0    0    -1  
$EndComp
$Comp
L +5VL #PWR16
U 1 1 5A9DA61B
P 8150 1800
F 0 "#PWR16" H 8150 1650 50  0001 C CNN
F 1 "+5VL" H 8150 1940 50  0000 C CNN
F 2 "" H 8150 1800 50  0000 C CNN
F 3 "" H 8150 1800 50  0000 C CNN
	1    8150 1800
	1    0    0    -1  
$EndComp
Wire Wire Line
	8150 1800 8150 1900
Wire Wire Line
	8400 1900 8400 1850
Wire Wire Line
	8400 1850 8150 1850
Connection ~ 8150 1850
Wire Wire Line
	8050 2150 8600 2150
Wire Wire Line
	8400 2150 8400 2100
Wire Wire Line
	8050 2250 8600 2250
Wire Wire Line
	8150 2250 8150 2100
$Comp
L TEST_1P W101
U 1 1 5A9DA620
P 9950 5300
F 0 "W101" H 9950 5570 50  0000 C CNN
F 1 "TEST_1P" H 9950 5500 50  0001 C CNN
F 2 "Wire_Pads:SolderWirePad_single_1mmDrill" H 10150 5300 50  0001 C CNN
F 3 "" H 10150 5300 50  0000 C CNN
	1    9950 5300
	0    1    1    0   
$EndComp
$Comp
L +5VL #PWR21
U 1 1 5A9DA627
P 9900 5300
F 0 "#PWR21" H 9900 5150 50  0001 C CNN
F 1 "+5VL" H 9900 5440 50  0000 C CNN
F 2 "" H 9900 5300 50  0000 C CNN
F 3 "" H 9900 5300 50  0000 C CNN
	1    9900 5300
	0    -1   -1   0   
$EndComp
$Comp
L GND #PWR22
U 1 1 5A9DA62A
P 9900 5500
F 0 "#PWR22" H 9900 5250 50  0001 C CNN
F 1 "GND" H 9900 5350 50  0000 C CNN
F 2 "" H 9900 5500 50  0000 C CNN
F 3 "" H 9900 5500 50  0000 C CNN
	1    9900 5500
	0    1    1    0   
$EndComp
$Comp
L TEST_1P W102
U 1 1 5A9DA62F
P 9950 5500
F 0 "W102" H 9950 5850 50  0000 C CNN
F 1 "TEST_1P" H 9950 5700 50  0001 C CNN
F 2 "Wire_Pads:SolderWirePad_single_1mmDrill" H 10150 5500 50  0001 C CNN
F 3 "" H 10150 5500 50  0000 C CNN
	1    9950 5500
	0    1    1    0   
$EndComp
Text GLabel 8050 2250 0    60   Input ~ 0
R_A_SDA
Text GLabel 8050 2150 0    60   Input ~ 0
R_A_SCL
Connection ~ 8400 2150
Connection ~ 8150 2250
Text GLabel 9900 5800 0    60   Input ~ 0
R_A_SDA
Text GLabel 9900 5650 0    60   Input ~ 0
R_A_SCL
Text GLabel 7200 3400 0    60   Output ~ 0
R_A_INT
Text GLabel 9900 5950 0    60   Output ~ 0
R_A_INT
$Comp
L TEST_1P W103
U 1 1 5A9DA636
P 9950 5650
F 0 "W103" H 9950 5920 50  0000 C CNN
F 1 "TEST_1P" H 9950 5850 50  0001 C CNN
F 2 "Wire_Pads:SolderWirePad_single_1mmDrill" H 10150 5650 50  0001 C CNN
F 3 "" H 10150 5650 50  0000 C CNN
	1    9950 5650
	0    1    1    0   
$EndComp
$Comp
L TEST_1P W104
U 1 1 5A9DA63B
P 9950 5800
F 0 "W104" H 9950 6150 50  0000 C CNN
F 1 "TEST_1P" H 9950 6000 50  0001 C CNN
F 2 "Wire_Pads:SolderWirePad_single_1mmDrill" H 10150 5800 50  0001 C CNN
F 3 "" H 10150 5800 50  0000 C CNN
	1    9950 5800
	0    1    1    0   
$EndComp
$Comp
L TEST_1P W105
U 1 1 5A9DA640
P 9950 5950
F 0 "W105" H 9950 6220 50  0000 C CNN
F 1 "TEST_1P" H 9950 6150 50  0001 C CNN
F 2 "Wire_Pads:SolderWirePad_single_1mmDrill" H 10150 5950 50  0001 C CNN
F 3 "" H 10150 5950 50  0000 C CNN
	1    9950 5950
	0    1    1    0   
$EndComp
Text GLabel 7750 4500 0    60   Input ~ 0
R_A_INT
$Comp
L +5VL #PWR15
U 1 1 5A9DA643
P 7850 4200
F 0 "#PWR15" H 7850 4050 50  0001 C CNN
F 1 "+5VL" H 7850 4340 50  0000 C CNN
F 2 "" H 7850 4200 50  0000 C CNN
F 3 "" H 7850 4200 50  0000 C CNN
	1    7850 4200
	1    0    0    -1  
$EndComp
Wire Wire Line
	7750 4500 7850 4500
Wire Wire Line
	7850 4500 7850 4450
Wire Wire Line
	9900 5950 9950 5950
Wire Wire Line
	9950 5800 9900 5800
Wire Wire Line
	9900 5650 9950 5650
Wire Wire Line
	9950 5500 9900 5500
Wire Wire Line
	9900 5300 9950 5300
Text Notes 7350 4800 0    60   ~ 0
INT is an open-drain output,\nit indeed requires a pullup R.
$Comp
L TLE496x U104
U 1 1 5A9DA648
P 4350 2550
F 0 "U104" H 4400 2800 60  0000 C CNN
F 1 "TLE49641MXTSA1" H 4700 2250 60  0000 C CNN
F 2 "TO_SOT_Packages_SMD:SOT-23" H 4350 2550 60  0001 C CNN
F 3 "" H 4350 2550 60  0000 C CNN
	1    4350 2550
	1    0    0    -1  
$EndComp
$Comp
L C_Small C104
U 1 1 5A9DA64E
P 3950 2550
F 0 "C104" H 3750 2650 50  0000 L CNN
F 1 "47nF" H 3700 2450 50  0000 L CNN
F 2 "Capacitors_SMD:C_0603_HandSoldering" H 3950 2550 50  0001 C CNN
F 3 "" H 3950 2550 50  0000 C CNN
	1    3950 2550
	1    0    0    -1  
$EndComp
Wire Wire Line
	3950 2150 3950 2450
Wire Wire Line
	3950 2400 4150 2400
Wire Wire Line
	4150 2700 3950 2700
Wire Wire Line
	3950 2650 3950 2750
$Comp
L +5VL #PWR7
U 1 1 5A9DA652
P 3950 2150
F 0 "#PWR7" H 3950 2000 50  0001 C CNN
F 1 "+5VL" H 3950 2290 50  0000 C CNN
F 2 "" H 3950 2150 50  0000 C CNN
F 3 "" H 3950 2150 50  0000 C CNN
	1    3950 2150
	1    0    0    -1  
$EndComp
Connection ~ 3950 2400
$Comp
L R_Small R104
U 1 1 5A9DA654
P 4850 2400
F 0 "R104" H 4900 2450 50  0000 L CNN
F 1 "1k2" H 4900 2350 50  0000 L CNN
F 2 "Resistors_SMD:R_0603_HandSoldering" H 4850 2400 50  0001 C CNN
F 3 "" H 4850 2400 50  0000 C CNN
	1    4850 2400
	1    0    0    -1  
$EndComp
Wire Wire Line
	4850 2500 4850 2550
Wire Wire Line
	4750 2550 5200 2550
Wire Wire Line
	4850 2300 4850 2200
$Comp
L GND #PWR8
U 1 1 5A9DA65B
P 3950 2750
F 0 "#PWR8" H 3950 2500 50  0001 C CNN
F 1 "GND" H 3950 2600 50  0000 C CNN
F 2 "" H 3950 2750 50  0000 C CNN
F 3 "" H 3950 2750 50  0000 C CNN
	1    3950 2750
	1    0    0    -1  
$EndComp
Connection ~ 3950 2700
Wire Wire Line
	4850 2200 3950 2200
Connection ~ 3950 2200
Text GLabel 5200 2550 2    60   Input ~ 0
R_A_02
Connection ~ 4850 2550
$Comp
L TLE496x U102
U 1 1 5A9DA661
P 2050 4150
F 0 "U102" H 2100 4400 60  0000 C CNN
F 1 "TLE49641MXTSA1" H 2400 3850 60  0000 C CNN
F 2 "TO_SOT_Packages_SMD:SOT-23" H 2050 4150 60  0001 C CNN
F 3 "" H 2050 4150 60  0000 C CNN
	1    2050 4150
	1    0    0    -1  
$EndComp
$Comp
L C_Small C102
U 1 1 5A9DA667
P 1650 4150
F 0 "C102" H 1450 4250 50  0000 L CNN
F 1 "47nF" H 1400 4050 50  0000 L CNN
F 2 "Capacitors_SMD:C_0603_HandSoldering" H 1650 4150 50  0001 C CNN
F 3 "" H 1650 4150 50  0000 C CNN
	1    1650 4150
	1    0    0    -1  
$EndComp
Wire Wire Line
	1650 3750 1650 4050
Wire Wire Line
	1650 4000 1850 4000
Wire Wire Line
	1850 4300 1650 4300
Wire Wire Line
	1650 4250 1650 4350
$Comp
L +5VL #PWR3
U 1 1 5A9DA668
P 1650 3750
F 0 "#PWR3" H 1650 3600 50  0001 C CNN
F 1 "+5VL" H 1650 3890 50  0000 C CNN
F 2 "" H 1650 3750 50  0000 C CNN
F 3 "" H 1650 3750 50  0000 C CNN
	1    1650 3750
	1    0    0    -1  
$EndComp
Connection ~ 1650 4000
$Comp
L R_Small R102
U 1 1 5A9DA670
P 2550 4000
F 0 "R102" H 2600 4050 50  0000 L CNN
F 1 "1k2" H 2600 3950 50  0000 L CNN
F 2 "Resistors_SMD:R_0603_HandSoldering" H 2550 4000 50  0001 C CNN
F 3 "" H 2550 4000 50  0000 C CNN
	1    2550 4000
	1    0    0    -1  
$EndComp
Wire Wire Line
	2550 4100 2550 4150
Wire Wire Line
	2450 4150 2900 4150
Wire Wire Line
	2550 3900 2550 3800
$Comp
L GND #PWR4
U 1 1 5A9DA672
P 1650 4350
F 0 "#PWR4" H 1650 4100 50  0001 C CNN
F 1 "GND" H 1650 4200 50  0000 C CNN
F 2 "" H 1650 4350 50  0000 C CNN
F 3 "" H 1650 4350 50  0000 C CNN
	1    1650 4350
	1    0    0    -1  
$EndComp
Connection ~ 1650 4300
Wire Wire Line
	2550 3800 1650 3800
Connection ~ 1650 3800
Text GLabel 2900 4150 2    60   Input ~ 0
R_A_03
Connection ~ 2550 4150
$Comp
L TLE496x U105
U 1 1 5A9DA677
P 4350 4150
F 0 "U105" H 4400 4400 60  0000 C CNN
F 1 "TLE49641MXTSA1" H 4700 3850 60  0000 C CNN
F 2 "TO_SOT_Packages_SMD:SOT-23" H 4350 4150 60  0001 C CNN
F 3 "" H 4350 4150 60  0000 C CNN
	1    4350 4150
	1    0    0    -1  
$EndComp
$Comp
L C_Small C105
U 1 1 5A9DA67C
P 3950 4150
F 0 "C105" H 3750 4250 50  0000 L CNN
F 1 "47nF" H 3700 4050 50  0000 L CNN
F 2 "Capacitors_SMD:C_0603_HandSoldering" H 3950 4150 50  0001 C CNN
F 3 "" H 3950 4150 50  0000 C CNN
	1    3950 4150
	1    0    0    -1  
$EndComp
Wire Wire Line
	3950 3750 3950 4050
Wire Wire Line
	3950 4000 4150 4000
Wire Wire Line
	4150 4300 3950 4300
Wire Wire Line
	3950 4250 3950 4350
$Comp
L +5VL #PWR9
U 1 1 5A9DA682
P 3950 3750
F 0 "#PWR9" H 3950 3600 50  0001 C CNN
F 1 "+5VL" H 3950 3890 50  0000 C CNN
F 2 "" H 3950 3750 50  0000 C CNN
F 3 "" H 3950 3750 50  0000 C CNN
	1    3950 3750
	1    0    0    -1  
$EndComp
Connection ~ 3950 4000
$Comp
L R_Small R105
U 1 1 5A9DA68A
P 4850 4000
F 0 "R105" H 4900 4050 50  0000 L CNN
F 1 "1k2" H 4900 3950 50  0000 L CNN
F 2 "Resistors_SMD:R_0603_HandSoldering" H 4850 4000 50  0001 C CNN
F 3 "" H 4850 4000 50  0000 C CNN
	1    4850 4000
	1    0    0    -1  
$EndComp
Wire Wire Line
	4850 4100 4850 4150
Wire Wire Line
	4750 4150 5200 4150
Wire Wire Line
	4850 3900 4850 3800
$Comp
L GND #PWR10
U 1 1 5A9DA68F
P 3950 4350
F 0 "#PWR10" H 3950 4100 50  0001 C CNN
F 1 "GND" H 3950 4200 50  0000 C CNN
F 2 "" H 3950 4350 50  0000 C CNN
F 3 "" H 3950 4350 50  0000 C CNN
	1    3950 4350
	1    0    0    -1  
$EndComp
Connection ~ 3950 4300
Wire Wire Line
	4850 3800 3950 3800
Connection ~ 3950 3800
Text GLabel 5200 4150 2    60   Input ~ 0
R_A_04
Connection ~ 4850 4150
$Comp
L TLE496x U103
U 1 1 5A9DA692
P 2050 5750
F 0 "U103" H 2100 6000 60  0000 C CNN
F 1 "TLE49641MXTSA1" H 2400 5450 60  0000 C CNN
F 2 "TO_SOT_Packages_SMD:SOT-23" H 2050 5750 60  0001 C CNN
F 3 "" H 2050 5750 60  0000 C CNN
	1    2050 5750
	1    0    0    -1  
$EndComp
$Comp
L C_Small C103
U 1 1 5A9DA699
P 1650 5750
F 0 "C103" H 1450 5850 50  0000 L CNN
F 1 "47nF" H 1400 5650 50  0000 L CNN
F 2 "Capacitors_SMD:C_0603_HandSoldering" H 1650 5750 50  0001 C CNN
F 3 "" H 1650 5750 50  0000 C CNN
	1    1650 5750
	1    0    0    -1  
$EndComp
Wire Wire Line
	1650 5350 1650 5650
Wire Wire Line
	1650 5600 1850 5600
Wire Wire Line
	1850 5900 1650 5900
Wire Wire Line
	1650 5850 1650 5950
$Comp
L +5VL #PWR5
U 1 1 5A9DA69B
P 1650 5350
F 0 "#PWR5" H 1650 5200 50  0001 C CNN
F 1 "+5VL" H 1650 5490 50  0000 C CNN
F 2 "" H 1650 5350 50  0000 C CNN
F 3 "" H 1650 5350 50  0000 C CNN
	1    1650 5350
	1    0    0    -1  
$EndComp
Connection ~ 1650 5600
$Comp
L R_Small R103
U 1 1 5A9DA69F
P 2550 5600
F 0 "R103" H 2600 5650 50  0000 L CNN
F 1 "1k2" H 2600 5550 50  0000 L CNN
F 2 "Resistors_SMD:R_0603_HandSoldering" H 2550 5600 50  0001 C CNN
F 3 "" H 2550 5600 50  0000 C CNN
	1    2550 5600
	1    0    0    -1  
$EndComp
Wire Wire Line
	2550 5700 2550 5750
Wire Wire Line
	2450 5750 2900 5750
Wire Wire Line
	2550 5500 2550 5400
$Comp
L GND #PWR6
U 1 1 5A9DA6A4
P 1650 5950
F 0 "#PWR6" H 1650 5700 50  0001 C CNN
F 1 "GND" H 1650 5800 50  0000 C CNN
F 2 "" H 1650 5950 50  0000 C CNN
F 3 "" H 1650 5950 50  0000 C CNN
	1    1650 5950
	1    0    0    -1  
$EndComp
Connection ~ 1650 5900
Wire Wire Line
	2550 5400 1650 5400
Connection ~ 1650 5400
Text GLabel 2900 5750 2    60   Input ~ 0
R_A_05
Connection ~ 2550 5750
$Comp
L TLE496x U106
U 1 1 5A9DA6AA
P 4350 5750
F 0 "U106" H 4400 6000 60  0000 C CNN
F 1 "TLE49641MXTSA1" H 4700 5450 60  0000 C CNN
F 2 "TO_SOT_Packages_SMD:SOT-23" H 4350 5750 60  0001 C CNN
F 3 "" H 4350 5750 60  0000 C CNN
	1    4350 5750
	1    0    0    -1  
$EndComp
$Comp
L C_Small C106
U 1 1 5A9DA6AC
P 3950 5750
F 0 "C106" H 3750 5850 50  0000 L CNN
F 1 "47nF" H 3700 5650 50  0000 L CNN
F 2 "Capacitors_SMD:C_0603_HandSoldering" H 3950 5750 50  0001 C CNN
F 3 "" H 3950 5750 50  0000 C CNN
	1    3950 5750
	1    0    0    -1  
$EndComp
Wire Wire Line
	3950 5350 3950 5650
Wire Wire Line
	3950 5600 4150 5600
Wire Wire Line
	4150 5900 3950 5900
Wire Wire Line
	3950 5850 3950 5950
$Comp
L +5VL #PWR11
U 1 1 5A9C9E53
P 3950 5350
F 0 "#PWR11" H 3950 5200 50  0001 C CNN
F 1 "+5VL" H 3950 5490 50  0000 C CNN
F 2 "" H 3950 5350 50  0000 C CNN
F 3 "" H 3950 5350 50  0000 C CNN
	1    3950 5350
	1    0    0    -1  
$EndComp
Connection ~ 3950 5600
$Comp
L R_Small R106
U 1 1 5A9C9E5A
P 4850 5600
F 0 "R106" H 4900 5650 50  0000 L CNN
F 1 "1k2" H 4900 5550 50  0000 L CNN
F 2 "Resistors_SMD:R_0603_HandSoldering" H 4850 5600 50  0001 C CNN
F 3 "" H 4850 5600 50  0000 C CNN
	1    4850 5600
	1    0    0    -1  
$EndComp
Wire Wire Line
	4850 5700 4850 5750
Wire Wire Line
	4750 5750 5200 5750
Wire Wire Line
	4850 5500 4850 5400
$Comp
L GND #PWR12
U 1 1 5A9DA6B2
P 3950 5950
F 0 "#PWR12" H 3950 5700 50  0001 C CNN
F 1 "GND" H 3950 5800 50  0000 C CNN
F 2 "" H 3950 5950 50  0000 C CNN
F 3 "" H 3950 5950 50  0000 C CNN
	1    3950 5950
	1    0    0    -1  
$EndComp
Connection ~ 3950 5900
Wire Wire Line
	4850 5400 3950 5400
Connection ~ 3950 5400
Text GLabel 5200 5750 2    60   Input ~ 0
R_A_06
Connection ~ 4850 5750
$Comp
L PWR_FLAG #FLG2
U 1 1 5A9DA6B6
P 9500 4250
F 0 "#FLG2" H 9500 4345 50  0001 C CNN
F 1 "PWR_FLAG" H 9500 4430 50  0000 C CNN
F 2 "" H 9500 4250 50  0000 C CNN
F 3 "" H 9500 4250 50  0000 C CNN
	1    9500 4250
	1    0    0    -1  
$EndComp
$Comp
L PWR_FLAG #FLG1
U 1 1 5A9DA6B9
P 9200 4100
F 0 "#FLG1" H 9200 4195 50  0001 C CNN
F 1 "PWR_FLAG" H 9200 4280 50  0000 C CNN
F 2 "" H 9200 4100 50  0000 C CNN
F 3 "" H 9200 4100 50  0000 C CNN
	1    9200 4100
	-1   0    0    1   
$EndComp
$Comp
L +5VL #PWR19
U 1 1 5A9DA6BF
P 9200 4050
F 0 "#PWR19" H 9200 3900 50  0001 C CNN
F 1 "+5VL" H 9200 4190 50  0000 C CNN
F 2 "" H 9200 4050 50  0000 C CNN
F 3 "" H 9200 4050 50  0000 C CNN
	1    9200 4050
	1    0    0    -1  
$EndComp
$Comp
L GND #PWR20
U 1 1 5A9DA6C2
P 9500 4300
F 0 "#PWR20" H 9500 4050 50  0001 C CNN
F 1 "GND" H 9500 4150 50  0000 C CNN
F 2 "" H 9500 4300 50  0000 C CNN
F 3 "" H 9500 4300 50  0000 C CNN
	1    9500 4300
	1    0    0    -1  
$EndComp
Wire Wire Line
	9200 4050 9200 4100
Wire Wire Line
	9500 4250 9500 4300
Text Notes 1000 1400 0    236  ~ 0
RA
$Comp
L R_Small R109
U 1 1 5A9DA6C7
P 7850 4350
F 0 "R109" H 7900 4400 50  0000 L CNN
F 1 "1k2" H 7900 4300 50  0000 L CNN
F 2 "Resistors_SMD:R_0603_HandSoldering" H 7850 4350 50  0001 C CNN
F 3 "" H 7850 4350 50  0000 C CNN
	1    7850 4350
	1    0    0    -1  
$EndComp
Wire Wire Line
	7850 4250 7850 4200
$Comp
L GS3 GS101
U 1 1 5A9E7FD9
P 7050 2050
F 0 "GS101" H 7100 2250 50  0000 C CNN
F 1 "GS3" H 7100 1851 50  0000 C CNN
F 2 "Connect:GS3" V 7138 1976 50  0001 C CNN
F 3 "" H 7050 2050 50  0000 C CNN
	1    7050 2050
	1    0    0    -1  
$EndComp
Wire Wire Line
	8600 2550 7200 2550
Wire Wire Line
	8600 2450 7300 2450
Wire Wire Line
	7300 2450 7300 2050
Wire Wire Line
	7300 2050 7200 2050
Wire Wire Line
	8600 2650 7300 2650
Wire Wire Line
	7300 2650 7300 3050
Wire Wire Line
	7300 3050 7200 3050
Wire Wire Line
	7200 3400 7450 3400
Wire Wire Line
	7450 3400 7450 2950
Wire Wire Line
	7450 2950 8600 2950
$Comp
L +5VL #PWR13
U 1 1 5A9E80BE
P 6550 1850
F 0 "#PWR13" H 6550 1700 50  0001 C CNN
F 1 "+5VL" H 6550 1990 50  0000 C CNN
F 2 "" H 6550 1850 50  0000 C CNN
F 3 "" H 6550 1850 50  0000 C CNN
	1    6550 1850
	1    0    0    -1  
$EndComp
$Comp
L GND #PWR14
U 1 1 5A9E8126
P 6650 3200
F 0 "#PWR14" H 6650 2950 50  0001 C CNN
F 1 "GND" H 6650 3050 50  0000 C CNN
F 2 "" H 6650 3200 50  0000 C CNN
F 3 "" H 6650 3200 50  0000 C CNN
	1    6650 3200
	1    0    0    -1  
$EndComp
Wire Wire Line
	6900 3150 6650 3150
Wire Wire Line
	6650 2150 6650 3200
Wire Wire Line
	6900 2650 6650 2650
Connection ~ 6650 3150
Wire Wire Line
	6900 2150 6650 2150
Connection ~ 6650 2650
Wire Wire Line
	6900 1950 6550 1950
Wire Wire Line
	6550 1850 6550 2950
Wire Wire Line
	6550 2450 6900 2450
Connection ~ 6550 1950
Wire Wire Line
	6550 2950 6900 2950
Connection ~ 6550 2450
$Comp
L GS3 GS102
U 1 1 5A9E8799
P 7050 2550
F 0 "GS102" H 7100 2750 50  0000 C CNN
F 1 "GS3" H 7100 2351 50  0000 C CNN
F 2 "Connect:GS3" V 7138 2476 50  0001 C CNN
F 3 "" H 7050 2550 50  0000 C CNN
	1    7050 2550
	1    0    0    -1  
$EndComp
$Comp
L GS3 GS103
U 1 1 5A9E8815
P 7050 3050
F 0 "GS103" H 7100 3250 50  0000 C CNN
F 1 "GS3" H 7100 2851 50  0000 C CNN
F 2 "Connect:GS3" V 7138 2976 50  0001 C CNN
F 3 "" H 7050 3050 50  0000 C CNN
	1    7050 3050
	1    0    0    -1  
$EndComp
$Comp
L TLE496x U101
U 1 1 5A9DA5D9
P 2050 2550
F 0 "U101" H 2100 2800 60  0000 C CNN
F 1 "TLE49641MXTSA1" H 2400 2250 60  0000 C CNN
F 2 "TO_SOT_Packages_SMD:SOT-23" H 2050 2550 60  0001 C CNN
F 3 "" H 2050 2550 60  0000 C CNN
	1    2050 2550
	1    0    0    -1  
$EndComp
$EndSCHEMATC
