EESchema Schematic File Version 2
LIBS:power
LIBS:device
LIBS:transistors
LIBS:conn
LIBS:linear
LIBS:regul
LIBS:74xx
LIBS:cmos4000
LIBS:adc-dac
LIBS:memory
LIBS:xilinx
LIBS:microcontrollers
LIBS:dsp
LIBS:microchip
LIBS:analog_switches
LIBS:motorola
LIBS:texas
LIBS:intel
LIBS:audio
LIBS:interface
LIBS:digital-audio
LIBS:philips
LIBS:display
LIBS:cypress
LIBS:siliconi
LIBS:opto
LIBS:atmel
LIBS:contrib
LIBS:valves
LIBS:bandoMIDI_v1-1_lib
LIBS:bandoMIDI_v2-0-cache
EELAYER 25 0
EELAYER END
$Descr A4 11693 8268
encoding utf-8
Sheet 3 5
Title "BandoMIDI"
Date "2018-03-04"
Rev "A1"
Comp "HLB"
Comment1 ""
Comment2 ""
Comment3 ""
Comment4 ""
$EndDescr
$Comp
L TLE496x U8
U 1 1 5A9C6B64
P 2050 2550
F 0 "U8" H 2100 2800 60  0000 C CNN
F 1 "TLE49641MXTSA1" H 2400 2250 60  0000 C CNN
F 2 "TO_SOT_Packages_SMD:SOT-23" H 2050 2550 60  0001 C CNN
F 3 "" H 2050 2550 60  0000 C CNN
	1    2050 2550
	1    0    0    -1  
$EndComp
$Comp
L C_Small C8
U 1 1 5A9DA5DE
P 1650 2550
F 0 "C8" H 1450 2650 50  0000 L CNN
F 1 "47nF" H 1400 2450 50  0000 L CNN
F 2 "Capacitors_SMD:C_0603_HandSoldering" H 1650 2550 50  0001 C CNN
F 3 "" H 1650 2550 50  0000 C CNN
	1    1650 2550
	1    0    0    -1  
$EndComp
$Comp
L +5VL #PWR25
U 1 1 5A9DA5E3
P 1650 2150
F 0 "#PWR25" H 1650 2000 50  0001 C CNN
F 1 "+5VL" H 1650 2290 50  0000 C CNN
F 2 "" H 1650 2150 50  0000 C CNN
F 3 "" H 1650 2150 50  0000 C CNN
	1    1650 2150
	1    0    0    -1  
$EndComp
$Comp
L R_Small R10
U 1 1 5A9DA5E4
P 2550 2400
F 0 "R10" H 2600 2450 50  0000 L CNN
F 1 "1k2" H 2600 2350 50  0000 L CNN
F 2 "Resistors_SMD:R_0603_HandSoldering" H 2550 2400 50  0001 C CNN
F 3 "" H 2550 2400 50  0000 C CNN
	1    2550 2400
	1    0    0    -1  
$EndComp
$Comp
L GND #PWR26
U 1 1 5A9DA5ED
P 1650 2750
F 0 "#PWR26" H 1650 2500 50  0001 C CNN
F 1 "GND" H 1650 2600 50  0000 C CNN
F 2 "" H 1650 2750 50  0000 C CNN
F 3 "" H 1650 2750 50  0000 C CNN
	1    1650 2750
	1    0    0    -1  
$EndComp
Text GLabel 2900 2550 2    60   Input ~ 0
L_B_01
Text GLabel 9500 2150 2    60   Input ~ 0
L_B_02
Text GLabel 9500 2050 2    60   Input ~ 0
L_B_01
Text GLabel 9500 2350 2    60   Input ~ 0
L_B_04
Text GLabel 9500 2250 2    60   Input ~ 0
L_B_03
Text GLabel 9500 2450 2    60   Input ~ 0
L_B_05
NoConn ~ 9400 2650
NoConn ~ 9400 2750
$Comp
L C_Small C13
U 1 1 5A9DA5F0
P 10300 2300
F 0 "C13" H 10100 2400 50  0000 L CNN
F 1 "47nF" H 10050 2200 50  0000 L CNN
F 2 "Capacitors_SMD:C_0603_HandSoldering" H 10300 2300 50  0001 C CNN
F 3 "" H 10300 2300 50  0000 C CNN
	1    10300 2300
	1    0    0    -1  
$EndComp
$Comp
L +5VL #PWR38
U 1 1 5A9DA5F4
P 8900 1700
F 0 "#PWR38" H 8900 1550 50  0001 C CNN
F 1 "+5VL" H 8900 1840 50  0000 C CNN
F 2 "" H 8900 1700 50  0000 C CNN
F 3 "" H 8900 1700 50  0000 C CNN
	1    8900 1700
	1    0    0    -1  
$EndComp
$Comp
L GND #PWR39
U 1 1 5A9DA5F8
P 8900 3200
F 0 "#PWR39" H 8900 2950 50  0001 C CNN
F 1 "GND" H 8900 3050 50  0000 C CNN
F 2 "" H 8900 3200 50  0000 C CNN
F 3 "" H 8900 3200 50  0000 C CNN
	1    8900 3200
	1    0    0    -1  
$EndComp
$Comp
L +5VL #PWR44
U 1 1 5A9DA5FE
P 10300 2150
F 0 "#PWR44" H 10300 2000 50  0001 C CNN
F 1 "+5VL" H 10300 2290 50  0000 C CNN
F 2 "" H 10300 2150 50  0000 C CNN
F 3 "" H 10300 2150 50  0000 C CNN
	1    10300 2150
	1    0    0    -1  
$EndComp
$Comp
L GND #PWR45
U 1 1 5A9DA602
P 10300 2450
F 0 "#PWR45" H 10300 2200 50  0001 C CNN
F 1 "GND" H 10300 2300 50  0000 C CNN
F 2 "" H 10300 2450 50  0000 C CNN
F 3 "" H 10300 2450 50  0000 C CNN
	1    10300 2450
	1    0    0    -1  
$EndComp
$Comp
L PCF8574TS/3 U13
U 1 1 5A9DA60A
P 8900 2450
F 0 "U13" H 8550 3050 50  0000 L CNN
F 1 "PCF8574TS/3" H 9000 3050 50  0000 L CNN
F 2 "SMD_Packages:SSOP-20" H 8900 2450 50  0001 C CNN
F 3 "" H 8900 2450 50  0000 C CNN
	1    8900 2450
	1    0    0    -1  
$EndComp
$Comp
L R_Small R16
U 1 1 5A9DA611
P 8200 1900
F 0 "R16" H 8250 1950 50  0000 L CNN
F 1 "4k7" H 8250 1850 50  0000 L CNN
F 2 "Resistors_SMD:R_0603_HandSoldering" H 8200 1900 50  0001 C CNN
F 3 "" H 8200 1900 50  0000 C CNN
	1    8200 1900
	1    0    0    -1  
$EndComp
$Comp
L R_Small R15
U 1 1 5A9DA61A
P 7950 1900
F 0 "R15" H 8000 1950 50  0000 L CNN
F 1 "4k7" H 8000 1850 50  0000 L CNN
F 2 "Resistors_SMD:R_0603_HandSoldering" H 7950 1900 50  0001 C CNN
F 3 "" H 7950 1900 50  0000 C CNN
	1    7950 1900
	1    0    0    -1  
$EndComp
$Comp
L +5VL #PWR37
U 1 1 5A9DA61F
P 7950 1700
F 0 "#PWR37" H 7950 1550 50  0001 C CNN
F 1 "+5VL" H 7950 1840 50  0000 C CNN
F 2 "" H 7950 1700 50  0000 C CNN
F 3 "" H 7950 1700 50  0000 C CNN
	1    7950 1700
	1    0    0    -1  
$EndComp
$Comp
L TEST_1P W6
U 1 1 5A9DA623
P 9100 5300
F 0 "W6" H 9100 5570 50  0000 C CNN
F 1 "TEST_1P" H 9100 5500 50  0001 C CNN
F 2 "Wire_Pads:SolderWirePad_single_1mmDrill" H 9300 5300 50  0001 C CNN
F 3 "" H 9300 5300 50  0000 C CNN
	1    9100 5300
	0    1    1    0   
$EndComp
$Comp
L +5VL #PWR40
U 1 1 5A9C8A6D
P 9050 5300
F 0 "#PWR40" H 9050 5150 50  0001 C CNN
F 1 "+5VL" H 9050 5440 50  0000 C CNN
F 2 "" H 9050 5300 50  0000 C CNN
F 3 "" H 9050 5300 50  0000 C CNN
	1    9050 5300
	0    -1   -1   0   
$EndComp
$Comp
L GND #PWR41
U 1 1 5A9C8A90
P 9050 5500
F 0 "#PWR41" H 9050 5250 50  0001 C CNN
F 1 "GND" H 9050 5350 50  0000 C CNN
F 2 "" H 9050 5500 50  0000 C CNN
F 3 "" H 9050 5500 50  0000 C CNN
	1    9050 5500
	0    1    1    0   
$EndComp
$Comp
L TEST_1P W7
U 1 1 5A9C8AB3
P 9100 5500
F 0 "W7" H 9100 5770 50  0000 C CNN
F 1 "TEST_1P" H 9100 5700 50  0001 C CNN
F 2 "Wire_Pads:SolderWirePad_single_1mmDrill" H 9300 5500 50  0001 C CNN
F 3 "" H 9300 5500 50  0000 C CNN
	1    9100 5500
	0    1    1    0   
$EndComp
Text GLabel 7850 2150 0    60   Input ~ 0
L_B_SDA
Text GLabel 7850 2050 0    60   Input ~ 0
L_B_SCL
Text GLabel 9050 5800 0    60   Input ~ 0
L_B_SDA
Text GLabel 9050 5650 0    60   Input ~ 0
L_B_SCL
Text GLabel 9050 5950 0    60   Output ~ 0
L_B_INT
$Comp
L TEST_1P W8
U 1 1 5A9DA638
P 9100 5650
F 0 "W8" H 9100 5920 50  0000 C CNN
F 1 "TEST_1P" H 9100 5850 50  0001 C CNN
F 2 "Wire_Pads:SolderWirePad_single_1mmDrill" H 9300 5650 50  0001 C CNN
F 3 "" H 9300 5650 50  0000 C CNN
	1    9100 5650
	0    1    1    0   
$EndComp
$Comp
L TEST_1P W9
U 1 1 5A9DA63A
P 9100 5800
F 0 "W9" H 9100 6070 50  0000 C CNN
F 1 "TEST_1P" H 9100 6000 50  0001 C CNN
F 2 "Wire_Pads:SolderWirePad_single_1mmDrill" H 9300 5800 50  0001 C CNN
F 3 "" H 9300 5800 50  0000 C CNN
	1    9100 5800
	0    1    1    0   
$EndComp
$Comp
L TEST_1P W10
U 1 1 5A9DA63F
P 9100 5950
F 0 "W10" H 9100 6220 50  0000 C CNN
F 1 "TEST_1P" H 9100 6150 50  0001 C CNN
F 2 "Wire_Pads:SolderWirePad_single_1mmDrill" H 9300 5950 50  0001 C CNN
F 3 "" H 9300 5950 50  0000 C CNN
	1    9100 5950
	0    1    1    0   
$EndComp
$Comp
L TLE496x U11
U 1 1 5A9C9A85
P 4350 2550
F 0 "U11" H 4400 2800 60  0000 C CNN
F 1 "TLE49641MXTSA1" H 4700 2250 60  0000 C CNN
F 2 "TO_SOT_Packages_SMD:SOT-23" H 4350 2550 60  0001 C CNN
F 3 "" H 4350 2550 60  0000 C CNN
	1    4350 2550
	1    0    0    -1  
$EndComp
$Comp
L C_Small C11
U 1 1 5A9C9A8B
P 3950 2550
F 0 "C11" H 3750 2650 50  0000 L CNN
F 1 "47nF" H 3700 2450 50  0000 L CNN
F 2 "Capacitors_SMD:C_0603_HandSoldering" H 3950 2550 50  0001 C CNN
F 3 "" H 3950 2550 50  0000 C CNN
	1    3950 2550
	1    0    0    -1  
$EndComp
$Comp
L +5VL #PWR31
U 1 1 5A9DA651
P 3950 2150
F 0 "#PWR31" H 3950 2000 50  0001 C CNN
F 1 "+5VL" H 3950 2290 50  0000 C CNN
F 2 "" H 3950 2150 50  0000 C CNN
F 3 "" H 3950 2150 50  0000 C CNN
	1    3950 2150
	1    0    0    -1  
$EndComp
$Comp
L R_Small R13
U 1 1 5A9DA657
P 4850 2400
F 0 "R13" H 4900 2450 50  0000 L CNN
F 1 "1k2" H 4900 2350 50  0000 L CNN
F 2 "Resistors_SMD:R_0603_HandSoldering" H 4850 2400 50  0001 C CNN
F 3 "" H 4850 2400 50  0000 C CNN
	1    4850 2400
	1    0    0    -1  
$EndComp
$Comp
L GND #PWR32
U 1 1 5A9DA65C
P 3950 2750
F 0 "#PWR32" H 3950 2500 50  0001 C CNN
F 1 "GND" H 3950 2600 50  0000 C CNN
F 2 "" H 3950 2750 50  0000 C CNN
F 3 "" H 3950 2750 50  0000 C CNN
	1    3950 2750
	1    0    0    -1  
$EndComp
Text GLabel 5200 2550 2    60   Input ~ 0
L_B_02
$Comp
L TLE496x U9
U 1 1 5A9C9BD0
P 2050 4150
F 0 "U9" H 2100 4400 60  0000 C CNN
F 1 "TLE49641MXTSA1" H 2400 3850 60  0000 C CNN
F 2 "TO_SOT_Packages_SMD:SOT-23" H 2050 4150 60  0001 C CNN
F 3 "" H 2050 4150 60  0000 C CNN
	1    2050 4150
	1    0    0    -1  
$EndComp
$Comp
L C_Small C9
U 1 1 5A9DA665
P 1650 4150
F 0 "C9" H 1450 4250 50  0000 L CNN
F 1 "47nF" H 1400 4050 50  0000 L CNN
F 2 "Capacitors_SMD:C_0603_HandSoldering" H 1650 4150 50  0001 C CNN
F 3 "" H 1650 4150 50  0000 C CNN
	1    1650 4150
	1    0    0    -1  
$EndComp
$Comp
L +5VL #PWR27
U 1 1 5A9C9BE0
P 1650 3750
F 0 "#PWR27" H 1650 3600 50  0001 C CNN
F 1 "+5VL" H 1650 3890 50  0000 C CNN
F 2 "" H 1650 3750 50  0000 C CNN
F 3 "" H 1650 3750 50  0000 C CNN
	1    1650 3750
	1    0    0    -1  
$EndComp
$Comp
L R_Small R11
U 1 1 5A9DA671
P 2550 4000
F 0 "R11" H 2600 4050 50  0000 L CNN
F 1 "1k2" H 2600 3950 50  0000 L CNN
F 2 "Resistors_SMD:R_0603_HandSoldering" H 2550 4000 50  0001 C CNN
F 3 "" H 2550 4000 50  0000 C CNN
	1    2550 4000
	1    0    0    -1  
$EndComp
$Comp
L GND #PWR28
U 1 1 5A9DA673
P 1650 4350
F 0 "#PWR28" H 1650 4100 50  0001 C CNN
F 1 "GND" H 1650 4200 50  0000 C CNN
F 2 "" H 1650 4350 50  0000 C CNN
F 3 "" H 1650 4350 50  0000 C CNN
	1    1650 4350
	1    0    0    -1  
$EndComp
Text GLabel 2900 4150 2    60   Input ~ 0
L_B_03
$Comp
L TLE496x U12
U 1 1 5A9DA678
P 4350 4150
F 0 "U12" H 4400 4400 60  0000 C CNN
F 1 "TLE49641MXTSA1" H 4700 3850 60  0000 C CNN
F 2 "TO_SOT_Packages_SMD:SOT-23" H 4350 4150 60  0001 C CNN
F 3 "" H 4350 4150 60  0000 C CNN
	1    4350 4150
	1    0    0    -1  
$EndComp
$Comp
L C_Small C12
U 1 1 5A9DA67E
P 3950 4150
F 0 "C12" H 3750 4250 50  0000 L CNN
F 1 "47nF" H 3700 4050 50  0000 L CNN
F 2 "Capacitors_SMD:C_0603_HandSoldering" H 3950 4150 50  0001 C CNN
F 3 "" H 3950 4150 50  0000 C CNN
	1    3950 4150
	1    0    0    -1  
$EndComp
$Comp
L +5VL #PWR33
U 1 1 5A9DA683
P 3950 3750
F 0 "#PWR33" H 3950 3600 50  0001 C CNN
F 1 "+5VL" H 3950 3890 50  0000 C CNN
F 2 "" H 3950 3750 50  0000 C CNN
F 3 "" H 3950 3750 50  0000 C CNN
	1    3950 3750
	1    0    0    -1  
$EndComp
$Comp
L R_Small R14
U 1 1 5A9DA689
P 4850 4000
F 0 "R14" H 4900 4050 50  0000 L CNN
F 1 "1k2" H 4900 3950 50  0000 L CNN
F 2 "Resistors_SMD:R_0603_HandSoldering" H 4850 4000 50  0001 C CNN
F 3 "" H 4850 4000 50  0000 C CNN
	1    4850 4000
	1    0    0    -1  
$EndComp
$Comp
L GND #PWR34
U 1 1 5A9DA68D
P 3950 4350
F 0 "#PWR34" H 3950 4100 50  0001 C CNN
F 1 "GND" H 3950 4200 50  0000 C CNN
F 2 "" H 3950 4350 50  0000 C CNN
F 3 "" H 3950 4350 50  0000 C CNN
	1    3950 4350
	1    0    0    -1  
$EndComp
Text GLabel 5200 4150 2    60   Input ~ 0
L_B_04
$Comp
L TLE496x U10
U 1 1 5A9DA693
P 2050 5750
F 0 "U10" H 2100 6000 60  0000 C CNN
F 1 "TLE49641MXTSA1" H 2400 5450 60  0000 C CNN
F 2 "TO_SOT_Packages_SMD:SOT-23" H 2050 5750 60  0001 C CNN
F 3 "" H 2050 5750 60  0000 C CNN
	1    2050 5750
	1    0    0    -1  
$EndComp
$Comp
L C_Small C10
U 1 1 5A9DA697
P 1650 5750
F 0 "C10" H 1450 5850 50  0000 L CNN
F 1 "47nF" H 1400 5650 50  0000 L CNN
F 2 "Capacitors_SMD:C_0603_HandSoldering" H 1650 5750 50  0001 C CNN
F 3 "" H 1650 5750 50  0000 C CNN
	1    1650 5750
	1    0    0    -1  
$EndComp
$Comp
L +5VL #PWR29
U 1 1 5A9DA69E
P 1650 5350
F 0 "#PWR29" H 1650 5200 50  0001 C CNN
F 1 "+5VL" H 1650 5490 50  0000 C CNN
F 2 "" H 1650 5350 50  0000 C CNN
F 3 "" H 1650 5350 50  0000 C CNN
	1    1650 5350
	1    0    0    -1  
$EndComp
$Comp
L R_Small R12
U 1 1 5A9DA6A1
P 2550 5600
F 0 "R12" H 2600 5650 50  0000 L CNN
F 1 "1k2" H 2600 5550 50  0000 L CNN
F 2 "Resistors_SMD:R_0603_HandSoldering" H 2550 5600 50  0001 C CNN
F 3 "" H 2550 5600 50  0000 C CNN
	1    2550 5600
	1    0    0    -1  
$EndComp
$Comp
L GND #PWR30
U 1 1 5A9DA6A5
P 1650 5950
F 0 "#PWR30" H 1650 5700 50  0001 C CNN
F 1 "GND" H 1650 5800 50  0000 C CNN
F 2 "" H 1650 5950 50  0000 C CNN
F 3 "" H 1650 5950 50  0000 C CNN
	1    1650 5950
	1    0    0    -1  
$EndComp
Text GLabel 2900 5750 2    60   Input ~ 0
L_B_05
$Comp
L PWR_FLAG #FLG4
U 1 1 5A9DA6B3
P 9500 4250
F 0 "#FLG4" H 9500 4345 50  0001 C CNN
F 1 "PWR_FLAG" H 9500 4430 50  0000 C CNN
F 2 "" H 9500 4250 50  0000 C CNN
F 3 "" H 9500 4250 50  0000 C CNN
	1    9500 4250
	1    0    0    -1  
$EndComp
$Comp
L PWR_FLAG #FLG3
U 1 1 5A9DA6B8
P 9200 4100
F 0 "#FLG3" H 9200 4195 50  0001 C CNN
F 1 "PWR_FLAG" H 9200 4280 50  0000 C CNN
F 2 "" H 9200 4100 50  0000 C CNN
F 3 "" H 9200 4100 50  0000 C CNN
	1    9200 4100
	-1   0    0    1   
$EndComp
$Comp
L +5VL #PWR42
U 1 1 5A9DA6C0
P 9200 4050
F 0 "#PWR42" H 9200 3900 50  0001 C CNN
F 1 "+5VL" H 9200 4190 50  0000 C CNN
F 2 "" H 9200 4050 50  0000 C CNN
F 3 "" H 9200 4050 50  0000 C CNN
	1    9200 4050
	1    0    0    -1  
$EndComp
$Comp
L GND #PWR43
U 1 1 5A9DA6C3
P 9500 4300
F 0 "#PWR43" H 9500 4050 50  0001 C CNN
F 1 "GND" H 9500 4150 50  0000 C CNN
F 2 "" H 9500 4300 50  0000 C CNN
F 3 "" H 9500 4300 50  0000 C CNN
	1    9500 4300
	1    0    0    -1  
$EndComp
Text Notes 1050 1400 0    236  ~ 0
LB
NoConn ~ 9400 2550
Text GLabel 7750 3250 0    60   Output ~ 0
L_B_INT
$Comp
L GS3 GS4
U 1 1 5A9E7AD3
P 6900 1950
F 0 "GS4" H 6950 2150 50  0000 C CNN
F 1 "GS3" H 6950 1751 50  0000 C CNN
F 2 "Connect:GS3" V 6988 1876 50  0001 C CNN
F 3 "" H 6900 1950 50  0000 C CNN
	1    6900 1950
	1    0    0    -1  
$EndComp
$Comp
L GS3 GS5
U 1 1 5A9E7BBD
P 6900 2450
F 0 "GS5" H 6950 2650 50  0000 C CNN
F 1 "GS3" H 6950 2251 50  0000 C CNN
F 2 "Connect:GS3" V 6988 2376 50  0001 C CNN
F 3 "" H 6900 2450 50  0000 C CNN
	1    6900 2450
	1    0    0    -1  
$EndComp
$Comp
L GS3 GS6
U 1 1 5A9E7C21
P 6900 2950
F 0 "GS6" H 6950 3150 50  0000 C CNN
F 1 "GS3" H 6950 2751 50  0000 C CNN
F 2 "Connect:GS3" V 6988 2876 50  0001 C CNN
F 3 "" H 6900 2950 50  0000 C CNN
	1    6900 2950
	1    0    0    -1  
$EndComp
Wire Wire Line
	1650 2150 1650 2450
Wire Wire Line
	1650 2400 1850 2400
Wire Wire Line
	1850 2700 1650 2700
Wire Wire Line
	1650 2650 1650 2750
Connection ~ 1650 2400
Wire Wire Line
	2550 2500 2550 2550
Wire Wire Line
	2450 2550 2900 2550
Wire Wire Line
	2550 2300 2550 2200
Connection ~ 1650 2700
Wire Wire Line
	2550 2200 1650 2200
Connection ~ 1650 2200
Connection ~ 2550 2550
Wire Wire Line
	9400 2150 9500 2150
Wire Wire Line
	9400 2050 9500 2050
Wire Wire Line
	9400 2350 9500 2350
Wire Wire Line
	9400 2250 9500 2250
Wire Wire Line
	9400 2450 9500 2450
Wire Wire Line
	8900 1700 8900 1750
Wire Wire Line
	8900 3150 8900 3200
Wire Wire Line
	10300 2150 10300 2200
Wire Wire Line
	10300 2400 10300 2450
Wire Wire Line
	7950 1700 7950 1800
Wire Wire Line
	8200 1800 8200 1750
Wire Wire Line
	8200 1750 7950 1750
Connection ~ 7950 1750
Wire Wire Line
	7850 2050 8400 2050
Wire Wire Line
	8200 2050 8200 2000
Wire Wire Line
	7850 2150 8400 2150
Wire Wire Line
	7950 2150 7950 2000
Connection ~ 8200 2050
Connection ~ 7950 2150
Wire Wire Line
	9050 5950 9100 5950
Wire Wire Line
	9100 5800 9050 5800
Wire Wire Line
	9050 5650 9100 5650
Wire Wire Line
	9100 5500 9050 5500
Wire Wire Line
	9050 5300 9100 5300
Wire Wire Line
	3950 2150 3950 2450
Wire Wire Line
	3950 2400 4150 2400
Wire Wire Line
	4150 2700 3950 2700
Wire Wire Line
	3950 2650 3950 2750
Connection ~ 3950 2400
Wire Wire Line
	4850 2500 4850 2550
Wire Wire Line
	4750 2550 5200 2550
Wire Wire Line
	4850 2300 4850 2200
Connection ~ 3950 2700
Wire Wire Line
	4850 2200 3950 2200
Connection ~ 3950 2200
Connection ~ 4850 2550
Wire Wire Line
	1650 3750 1650 4050
Wire Wire Line
	1650 4000 1850 4000
Wire Wire Line
	1850 4300 1650 4300
Wire Wire Line
	1650 4250 1650 4350
Connection ~ 1650 4000
Wire Wire Line
	2550 4100 2550 4150
Wire Wire Line
	2450 4150 2900 4150
Wire Wire Line
	2550 3900 2550 3800
Connection ~ 1650 4300
Wire Wire Line
	2550 3800 1650 3800
Connection ~ 1650 3800
Connection ~ 2550 4150
Wire Wire Line
	3950 3750 3950 4050
Wire Wire Line
	3950 4000 4150 4000
Wire Wire Line
	4150 4300 3950 4300
Wire Wire Line
	3950 4250 3950 4350
Connection ~ 3950 4000
Wire Wire Line
	4850 4100 4850 4150
Wire Wire Line
	4750 4150 5200 4150
Wire Wire Line
	4850 3900 4850 3800
Connection ~ 3950 4300
Wire Wire Line
	4850 3800 3950 3800
Connection ~ 3950 3800
Connection ~ 4850 4150
Wire Wire Line
	1650 5350 1650 5650
Wire Wire Line
	1650 5600 1850 5600
Wire Wire Line
	1850 5900 1650 5900
Wire Wire Line
	1650 5850 1650 5950
Connection ~ 1650 5600
Wire Wire Line
	2550 5700 2550 5750
Wire Wire Line
	2450 5750 2900 5750
Wire Wire Line
	2550 5500 2550 5400
Connection ~ 1650 5900
Wire Wire Line
	2550 5400 1650 5400
Connection ~ 1650 5400
Connection ~ 2550 5750
Wire Wire Line
	9200 4050 9200 4100
Wire Wire Line
	9500 4250 9500 4300
Wire Wire Line
	8400 2450 7050 2450
Wire Wire Line
	8400 2350 7150 2350
Wire Wire Line
	7150 2350 7150 1950
Wire Wire Line
	7150 1950 7050 1950
Wire Wire Line
	8400 2550 7150 2550
Wire Wire Line
	7150 2550 7150 2950
Wire Wire Line
	7150 2950 7050 2950
Wire Wire Line
	7750 3250 7900 3250
Wire Wire Line
	7900 3250 7900 2850
Wire Wire Line
	7900 2850 8400 2850
$Comp
L +5VL #PWR35
U 1 1 5A9E81D1
P 6350 1800
F 0 "#PWR35" H 6350 1650 50  0001 C CNN
F 1 "+5VL" H 6350 1940 50  0000 C CNN
F 2 "" H 6350 1800 50  0000 C CNN
F 3 "" H 6350 1800 50  0000 C CNN
	1    6350 1800
	1    0    0    -1  
$EndComp
$Comp
L GND #PWR36
U 1 1 5A9E822D
P 6650 3150
F 0 "#PWR36" H 6650 2900 50  0001 C CNN
F 1 "GND" H 6650 3000 50  0000 C CNN
F 2 "" H 6650 3150 50  0000 C CNN
F 3 "" H 6650 3150 50  0000 C CNN
	1    6650 3150
	1    0    0    -1  
$EndComp
Wire Wire Line
	6650 2050 6650 3150
Wire Wire Line
	6650 3050 6750 3050
Wire Wire Line
	6650 2550 6750 2550
Connection ~ 6650 3050
Wire Wire Line
	6650 2050 6750 2050
Connection ~ 6650 2550
Wire Wire Line
	6350 1800 6350 2850
Wire Wire Line
	6350 1850 6750 1850
Wire Wire Line
	6350 2350 6750 2350
Connection ~ 6350 1850
Wire Wire Line
	6350 2850 6750 2850
Connection ~ 6350 2350
$EndSCHEMATC
