EESchema Schematic File Version 2
LIBS:power
LIBS:device
LIBS:transistors
LIBS:conn
LIBS:linear
LIBS:regul
LIBS:74xx
LIBS:cmos4000
LIBS:adc-dac
LIBS:memory
LIBS:xilinx
LIBS:microcontrollers
LIBS:dsp
LIBS:microchip
LIBS:analog_switches
LIBS:motorola
LIBS:texas
LIBS:intel
LIBS:audio
LIBS:interface
LIBS:digital-audio
LIBS:philips
LIBS:display
LIBS:cypress
LIBS:siliconi
LIBS:opto
LIBS:atmel
LIBS:contrib
LIBS:valves
LIBS:bandoMIDI_v1-1_lib
LIBS:bandoMIDI_v1-1_right_hand-cache
EELAYER 25 0
EELAYER END
$Descr A4 11693 8268
encoding utf-8
Sheet 3 3
Title "BandoMIDI"
Date "2018-03-04"
Rev "A1"
Comp "HLB"
Comment1 ""
Comment2 ""
Comment3 ""
Comment4 ""
$EndDescr
$Comp
L TLE496x U8
U 1 1 5A9C6B64
P 2050 2200
F 0 "U8" H 2100 2450 60  0000 C CNN
F 1 "TLE49641MXTSA1" H 2400 1900 60  0000 C CNN
F 2 "TO_SOT_Packages_SMD:SOT-23" H 2050 2200 60  0001 C CNN
F 3 "" H 2050 2200 60  0000 C CNN
	1    2050 2200
	1    0    0    -1  
$EndComp
$Comp
L C_Small C8
U 1 1 5A9DA5DE
P 1650 2200
F 0 "C8" H 1450 2300 50  0000 L CNN
F 1 "47nF" H 1400 2100 50  0000 L CNN
F 2 "Capacitors_SMD:C_0603_HandSoldering" H 1650 2200 50  0001 C CNN
F 3 "" H 1650 2200 50  0000 C CNN
	1    1650 2200
	1    0    0    -1  
$EndComp
$Comp
L +5VL #PWR25
U 1 1 5A9DA5E3
P 1650 1800
F 0 "#PWR25" H 1650 1650 50  0001 C CNN
F 1 "+5VL" H 1650 1940 50  0000 C CNN
F 2 "" H 1650 1800 50  0000 C CNN
F 3 "" H 1650 1800 50  0000 C CNN
	1    1650 1800
	1    0    0    -1  
$EndComp
$Comp
L R_Small R10
U 1 1 5A9DA5E4
P 2550 2050
F 0 "R10" H 2600 2100 50  0000 L CNN
F 1 "1k2" H 2600 2000 50  0000 L CNN
F 2 "Resistors_SMD:R_0603_HandSoldering" H 2550 2050 50  0001 C CNN
F 3 "" H 2550 2050 50  0000 C CNN
	1    2550 2050
	1    0    0    -1  
$EndComp
$Comp
L GND #PWR26
U 1 1 5A9DA5ED
P 1650 2400
F 0 "#PWR26" H 1650 2150 50  0001 C CNN
F 1 "GND" H 1650 2250 50  0000 C CNN
F 2 "" H 1650 2400 50  0000 C CNN
F 3 "" H 1650 2400 50  0000 C CNN
	1    1650 2400
	1    0    0    -1  
$EndComp
Text GLabel 2900 2200 2    60   Input ~ 0
R_B_01
Text GLabel 9500 2150 2    60   Input ~ 0
R_B_02
Text GLabel 9500 2050 2    60   Input ~ 0
R_B_01
Text GLabel 9500 2350 2    60   Input ~ 0
R_B_04
Text GLabel 9500 2250 2    60   Input ~ 0
R_B_03
Text GLabel 9500 2450 2    60   Input ~ 0
R_B_05
NoConn ~ 9400 2750
$Comp
L C_Small C13
U 1 1 5A9DA5F0
P 10300 2300
F 0 "C13" H 10100 2400 50  0000 L CNN
F 1 "47nF" H 10050 2200 50  0000 L CNN
F 2 "Capacitors_SMD:C_0603_HandSoldering" H 10300 2300 50  0001 C CNN
F 3 "" H 10300 2300 50  0000 C CNN
	1    10300 2300
	1    0    0    -1  
$EndComp
$Comp
L +5VL #PWR42
U 1 1 5A9DA5F4
P 8900 1700
F 0 "#PWR42" H 8900 1550 50  0001 C CNN
F 1 "+5VL" H 8900 1840 50  0000 C CNN
F 2 "" H 8900 1700 50  0000 C CNN
F 3 "" H 8900 1700 50  0000 C CNN
	1    8900 1700
	1    0    0    -1  
$EndComp
$Comp
L GND #PWR43
U 1 1 5A9DA5F8
P 8900 3200
F 0 "#PWR43" H 8900 2950 50  0001 C CNN
F 1 "GND" H 8900 3050 50  0000 C CNN
F 2 "" H 8900 3200 50  0000 C CNN
F 3 "" H 8900 3200 50  0000 C CNN
	1    8900 3200
	1    0    0    -1  
$EndComp
$Comp
L +5VL #PWR48
U 1 1 5A9DA5FE
P 10300 2150
F 0 "#PWR48" H 10300 2000 50  0001 C CNN
F 1 "+5VL" H 10300 2290 50  0000 C CNN
F 2 "" H 10300 2150 50  0000 C CNN
F 3 "" H 10300 2150 50  0000 C CNN
	1    10300 2150
	1    0    0    -1  
$EndComp
$Comp
L GND #PWR49
U 1 1 5A9DA602
P 10300 2450
F 0 "#PWR49" H 10300 2200 50  0001 C CNN
F 1 "GND" H 10300 2300 50  0000 C CNN
F 2 "" H 10300 2450 50  0000 C CNN
F 3 "" H 10300 2450 50  0000 C CNN
	1    10300 2450
	1    0    0    -1  
$EndComp
$Comp
L PCF8574TS/3 U13
U 1 1 5A9DA60A
P 8900 2450
F 0 "U13" H 8550 3050 50  0000 L CNN
F 1 "PCF8574TS/3" H 9000 3050 50  0000 L CNN
F 2 "SMD_Packages:SSOP-20" H 8900 2450 50  0001 C CNN
F 3 "" H 8900 2450 50  0000 C CNN
	1    8900 2450
	1    0    0    -1  
$EndComp
$Comp
L R_Small R16
U 1 1 5A9DA611
P 8200 1900
F 0 "R16" H 8250 1950 50  0000 L CNN
F 1 "4k7" H 8250 1850 50  0000 L CNN
F 2 "Resistors_SMD:R_0603_HandSoldering" H 8200 1900 50  0001 C CNN
F 3 "" H 8200 1900 50  0000 C CNN
	1    8200 1900
	1    0    0    -1  
$EndComp
$Comp
L R_Small R15
U 1 1 5A9DA61A
P 7950 1900
F 0 "R15" H 8000 1950 50  0000 L CNN
F 1 "4k7" H 8000 1850 50  0000 L CNN
F 2 "Resistors_SMD:R_0603_HandSoldering" H 7950 1900 50  0001 C CNN
F 3 "" H 7950 1900 50  0000 C CNN
	1    7950 1900
	1    0    0    -1  
$EndComp
$Comp
L +5VL #PWR41
U 1 1 5A9DA61F
P 7950 1700
F 0 "#PWR41" H 7950 1550 50  0001 C CNN
F 1 "+5VL" H 7950 1840 50  0000 C CNN
F 2 "" H 7950 1700 50  0000 C CNN
F 3 "" H 7950 1700 50  0000 C CNN
	1    7950 1700
	1    0    0    -1  
$EndComp
$Comp
L TEST_1P W6
U 1 1 5A9DA623
P 9100 5300
F 0 "W6" H 9100 5570 50  0000 C CNN
F 1 "TEST_1P" H 9100 5500 50  0001 C CNN
F 2 "Wire_Pads:SolderWirePad_single_1mmDrill" H 9300 5300 50  0001 C CNN
F 3 "" H 9300 5300 50  0000 C CNN
	1    9100 5300
	0    1    1    0   
$EndComp
$Comp
L +5VL #PWR44
U 1 1 5A9C8A6D
P 9050 5300
F 0 "#PWR44" H 9050 5150 50  0001 C CNN
F 1 "+5VL" H 9050 5440 50  0000 C CNN
F 2 "" H 9050 5300 50  0000 C CNN
F 3 "" H 9050 5300 50  0000 C CNN
	1    9050 5300
	0    -1   -1   0   
$EndComp
$Comp
L GND #PWR45
U 1 1 5A9C8A90
P 9050 5500
F 0 "#PWR45" H 9050 5250 50  0001 C CNN
F 1 "GND" H 9050 5350 50  0000 C CNN
F 2 "" H 9050 5500 50  0000 C CNN
F 3 "" H 9050 5500 50  0000 C CNN
	1    9050 5500
	0    1    1    0   
$EndComp
$Comp
L TEST_1P W7
U 1 1 5A9C8AB3
P 9100 5500
F 0 "W7" H 9100 5770 50  0000 C CNN
F 1 "TEST_1P" H 9100 5700 50  0001 C CNN
F 2 "Wire_Pads:SolderWirePad_single_1mmDrill" H 9300 5500 50  0001 C CNN
F 3 "" H 9300 5500 50  0000 C CNN
	1    9100 5500
	0    1    1    0   
$EndComp
Text GLabel 7850 2150 0    60   Input ~ 0
R_B_SDA
Text GLabel 7850 2050 0    60   Input ~ 0
R_B_SCL
Text GLabel 9050 5800 0    60   Input ~ 0
R_B_SDA
Text GLabel 9050 5650 0    60   Input ~ 0
R_B_SCL
Text GLabel 9050 5950 0    60   Output ~ 0
R_B_INT
$Comp
L TEST_1P W8
U 1 1 5A9DA638
P 9100 5650
F 0 "W8" H 9100 5920 50  0000 C CNN
F 1 "TEST_1P" H 9100 5850 50  0001 C CNN
F 2 "Wire_Pads:SolderWirePad_single_1mmDrill" H 9300 5650 50  0001 C CNN
F 3 "" H 9300 5650 50  0000 C CNN
	1    9100 5650
	0    1    1    0   
$EndComp
$Comp
L TEST_1P W9
U 1 1 5A9DA63A
P 9100 5800
F 0 "W9" H 9100 6070 50  0000 C CNN
F 1 "TEST_1P" H 9100 6000 50  0001 C CNN
F 2 "Wire_Pads:SolderWirePad_single_1mmDrill" H 9300 5800 50  0001 C CNN
F 3 "" H 9300 5800 50  0000 C CNN
	1    9100 5800
	0    1    1    0   
$EndComp
$Comp
L TEST_1P W10
U 1 1 5A9DA63F
P 9100 5950
F 0 "W10" H 9100 6220 50  0000 C CNN
F 1 "TEST_1P" H 9100 6150 50  0001 C CNN
F 2 "Wire_Pads:SolderWirePad_single_1mmDrill" H 9300 5950 50  0001 C CNN
F 3 "" H 9300 5950 50  0000 C CNN
	1    9100 5950
	0    1    1    0   
$EndComp
$Comp
L TLE496x U11
U 1 1 5A9C9A85
P 4350 2200
F 0 "U11" H 4400 2450 60  0000 C CNN
F 1 "TLE49641MXTSA1" H 4700 1900 60  0000 C CNN
F 2 "TO_SOT_Packages_SMD:SOT-23" H 4350 2200 60  0001 C CNN
F 3 "" H 4350 2200 60  0000 C CNN
	1    4350 2200
	1    0    0    -1  
$EndComp
$Comp
L C_Small C11
U 1 1 5A9C9A8B
P 3950 2200
F 0 "C11" H 3750 2300 50  0000 L CNN
F 1 "47nF" H 3700 2100 50  0000 L CNN
F 2 "Capacitors_SMD:C_0603_HandSoldering" H 3950 2200 50  0001 C CNN
F 3 "" H 3950 2200 50  0000 C CNN
	1    3950 2200
	1    0    0    -1  
$EndComp
$Comp
L +5VL #PWR33
U 1 1 5A9DA651
P 3950 1800
F 0 "#PWR33" H 3950 1650 50  0001 C CNN
F 1 "+5VL" H 3950 1940 50  0000 C CNN
F 2 "" H 3950 1800 50  0000 C CNN
F 3 "" H 3950 1800 50  0000 C CNN
	1    3950 1800
	1    0    0    -1  
$EndComp
$Comp
L R_Small R13
U 1 1 5A9DA657
P 4850 2050
F 0 "R13" H 4900 2100 50  0000 L CNN
F 1 "1k2" H 4900 2000 50  0000 L CNN
F 2 "Resistors_SMD:R_0603_HandSoldering" H 4850 2050 50  0001 C CNN
F 3 "" H 4850 2050 50  0000 C CNN
	1    4850 2050
	1    0    0    -1  
$EndComp
$Comp
L GND #PWR34
U 1 1 5A9DA65C
P 3950 2400
F 0 "#PWR34" H 3950 2150 50  0001 C CNN
F 1 "GND" H 3950 2250 50  0000 C CNN
F 2 "" H 3950 2400 50  0000 C CNN
F 3 "" H 3950 2400 50  0000 C CNN
	1    3950 2400
	1    0    0    -1  
$EndComp
Text GLabel 5200 2200 2    60   Input ~ 0
R_B_02
$Comp
L TLE496x U9
U 1 1 5A9C9BD0
P 2050 3800
F 0 "U9" H 2100 4050 60  0000 C CNN
F 1 "TLE49641MXTSA1" H 2400 3500 60  0000 C CNN
F 2 "TO_SOT_Packages_SMD:SOT-23" H 2050 3800 60  0001 C CNN
F 3 "" H 2050 3800 60  0000 C CNN
	1    2050 3800
	1    0    0    -1  
$EndComp
$Comp
L C_Small C9
U 1 1 5A9DA665
P 1650 3800
F 0 "C9" H 1450 3900 50  0000 L CNN
F 1 "47nF" H 1400 3700 50  0000 L CNN
F 2 "Capacitors_SMD:C_0603_HandSoldering" H 1650 3800 50  0001 C CNN
F 3 "" H 1650 3800 50  0000 C CNN
	1    1650 3800
	1    0    0    -1  
$EndComp
$Comp
L +5VL #PWR27
U 1 1 5A9C9BE0
P 1650 3400
F 0 "#PWR27" H 1650 3250 50  0001 C CNN
F 1 "+5VL" H 1650 3540 50  0000 C CNN
F 2 "" H 1650 3400 50  0000 C CNN
F 3 "" H 1650 3400 50  0000 C CNN
	1    1650 3400
	1    0    0    -1  
$EndComp
$Comp
L R_Small R11
U 1 1 5A9DA671
P 2550 3650
F 0 "R11" H 2600 3700 50  0000 L CNN
F 1 "1k2" H 2600 3600 50  0000 L CNN
F 2 "Resistors_SMD:R_0603_HandSoldering" H 2550 3650 50  0001 C CNN
F 3 "" H 2550 3650 50  0000 C CNN
	1    2550 3650
	1    0    0    -1  
$EndComp
$Comp
L GND #PWR28
U 1 1 5A9DA673
P 1650 4000
F 0 "#PWR28" H 1650 3750 50  0001 C CNN
F 1 "GND" H 1650 3850 50  0000 C CNN
F 2 "" H 1650 4000 50  0000 C CNN
F 3 "" H 1650 4000 50  0000 C CNN
	1    1650 4000
	1    0    0    -1  
$EndComp
Text GLabel 2900 3800 2    60   Input ~ 0
R_B_03
$Comp
L TLE496x U12
U 1 1 5A9DA678
P 4350 3800
F 0 "U12" H 4400 4050 60  0000 C CNN
F 1 "TLE49641MXTSA1" H 4700 3500 60  0000 C CNN
F 2 "TO_SOT_Packages_SMD:SOT-23" H 4350 3800 60  0001 C CNN
F 3 "" H 4350 3800 60  0000 C CNN
	1    4350 3800
	1    0    0    -1  
$EndComp
$Comp
L C_Small C12
U 1 1 5A9DA67E
P 3950 3800
F 0 "C12" H 3750 3900 50  0000 L CNN
F 1 "47nF" H 3700 3700 50  0000 L CNN
F 2 "Capacitors_SMD:C_0603_HandSoldering" H 3950 3800 50  0001 C CNN
F 3 "" H 3950 3800 50  0000 C CNN
	1    3950 3800
	1    0    0    -1  
$EndComp
$Comp
L +5VL #PWR35
U 1 1 5A9DA683
P 3950 3400
F 0 "#PWR35" H 3950 3250 50  0001 C CNN
F 1 "+5VL" H 3950 3540 50  0000 C CNN
F 2 "" H 3950 3400 50  0000 C CNN
F 3 "" H 3950 3400 50  0000 C CNN
	1    3950 3400
	1    0    0    -1  
$EndComp
$Comp
L R_Small R14
U 1 1 5A9DA689
P 4850 3650
F 0 "R14" H 4900 3700 50  0000 L CNN
F 1 "1k2" H 4900 3600 50  0000 L CNN
F 2 "Resistors_SMD:R_0603_HandSoldering" H 4850 3650 50  0001 C CNN
F 3 "" H 4850 3650 50  0000 C CNN
	1    4850 3650
	1    0    0    -1  
$EndComp
$Comp
L GND #PWR36
U 1 1 5A9DA68D
P 3950 4000
F 0 "#PWR36" H 3950 3750 50  0001 C CNN
F 1 "GND" H 3950 3850 50  0000 C CNN
F 2 "" H 3950 4000 50  0000 C CNN
F 3 "" H 3950 4000 50  0000 C CNN
	1    3950 4000
	1    0    0    -1  
$EndComp
Text GLabel 5200 3800 2    60   Input ~ 0
R_B_04
$Comp
L TLE496x U10
U 1 1 5A9DA693
P 2050 5400
F 0 "U10" H 2100 5650 60  0000 C CNN
F 1 "TLE49641MXTSA1" H 2400 5100 60  0000 C CNN
F 2 "TO_SOT_Packages_SMD:SOT-23" H 2050 5400 60  0001 C CNN
F 3 "" H 2050 5400 60  0000 C CNN
	1    2050 5400
	1    0    0    -1  
$EndComp
$Comp
L C_Small C10
U 1 1 5A9DA697
P 1650 5400
F 0 "C10" H 1450 5500 50  0000 L CNN
F 1 "47nF" H 1400 5300 50  0000 L CNN
F 2 "Capacitors_SMD:C_0603_HandSoldering" H 1650 5400 50  0001 C CNN
F 3 "" H 1650 5400 50  0000 C CNN
	1    1650 5400
	1    0    0    -1  
$EndComp
$Comp
L +5VL #PWR29
U 1 1 5A9DA69E
P 1650 5000
F 0 "#PWR29" H 1650 4850 50  0001 C CNN
F 1 "+5VL" H 1650 5140 50  0000 C CNN
F 2 "" H 1650 5000 50  0000 C CNN
F 3 "" H 1650 5000 50  0000 C CNN
	1    1650 5000
	1    0    0    -1  
$EndComp
$Comp
L R_Small R12
U 1 1 5A9DA6A1
P 2550 5250
F 0 "R12" H 2600 5300 50  0000 L CNN
F 1 "1k2" H 2600 5200 50  0000 L CNN
F 2 "Resistors_SMD:R_0603_HandSoldering" H 2550 5250 50  0001 C CNN
F 3 "" H 2550 5250 50  0000 C CNN
	1    2550 5250
	1    0    0    -1  
$EndComp
$Comp
L GND #PWR30
U 1 1 5A9DA6A5
P 1650 5600
F 0 "#PWR30" H 1650 5350 50  0001 C CNN
F 1 "GND" H 1650 5450 50  0000 C CNN
F 2 "" H 1650 5600 50  0000 C CNN
F 3 "" H 1650 5600 50  0000 C CNN
	1    1650 5600
	1    0    0    -1  
$EndComp
Text GLabel 2900 5400 2    60   Input ~ 0
R_B_05
$Comp
L PWR_FLAG #FLG4
U 1 1 5A9DA6B3
P 9500 4250
F 0 "#FLG4" H 9500 4345 50  0001 C CNN
F 1 "PWR_FLAG" H 9500 4430 50  0000 C CNN
F 2 "" H 9500 4250 50  0000 C CNN
F 3 "" H 9500 4250 50  0000 C CNN
	1    9500 4250
	1    0    0    -1  
$EndComp
$Comp
L PWR_FLAG #FLG3
U 1 1 5A9DA6B8
P 9200 4100
F 0 "#FLG3" H 9200 4195 50  0001 C CNN
F 1 "PWR_FLAG" H 9200 4280 50  0000 C CNN
F 2 "" H 9200 4100 50  0000 C CNN
F 3 "" H 9200 4100 50  0000 C CNN
	1    9200 4100
	-1   0    0    1   
$EndComp
$Comp
L +5VL #PWR46
U 1 1 5A9DA6C0
P 9200 4050
F 0 "#PWR46" H 9200 3900 50  0001 C CNN
F 1 "+5VL" H 9200 4190 50  0000 C CNN
F 2 "" H 9200 4050 50  0000 C CNN
F 3 "" H 9200 4050 50  0000 C CNN
	1    9200 4050
	1    0    0    -1  
$EndComp
$Comp
L GND #PWR47
U 1 1 5A9DA6C3
P 9500 4300
F 0 "#PWR47" H 9500 4050 50  0001 C CNN
F 1 "GND" H 9500 4150 50  0000 C CNN
F 2 "" H 9500 4300 50  0000 C CNN
F 3 "" H 9500 4300 50  0000 C CNN
	1    9500 4300
	1    0    0    -1  
$EndComp
Text Notes 1050 1400 0    236  ~ 0
RB
Text GLabel 7750 3250 0    60   Output ~ 0
R_B_INT
$Comp
L GS3 GS4
U 1 1 5A9E7AD3
P 6900 1950
F 0 "GS4" H 6950 2150 50  0000 C CNN
F 1 "GS3" H 6950 1751 50  0000 C CNN
F 2 "Connect:GS3" V 6988 1876 50  0001 C CNN
F 3 "" H 6900 1950 50  0000 C CNN
	1    6900 1950
	1    0    0    -1  
$EndComp
$Comp
L GS3 GS5
U 1 1 5A9E7BBD
P 6900 2450
F 0 "GS5" H 6950 2650 50  0000 C CNN
F 1 "GS3" H 6950 2251 50  0000 C CNN
F 2 "Connect:GS3" V 6988 2376 50  0001 C CNN
F 3 "" H 6900 2450 50  0000 C CNN
	1    6900 2450
	1    0    0    -1  
$EndComp
$Comp
L GS3 GS6
U 1 1 5A9E7C21
P 6900 2950
F 0 "GS6" H 6950 3150 50  0000 C CNN
F 1 "GS3" H 6950 2751 50  0000 C CNN
F 2 "Connect:GS3" V 6988 2876 50  0001 C CNN
F 3 "" H 6900 2950 50  0000 C CNN
	1    6900 2950
	1    0    0    -1  
$EndComp
Wire Wire Line
	1650 1800 1650 2100
Wire Wire Line
	1650 2050 1850 2050
Wire Wire Line
	1850 2350 1650 2350
Wire Wire Line
	1650 2300 1650 2400
Connection ~ 1650 2050
Wire Wire Line
	2550 2150 2550 2200
Wire Wire Line
	2450 2200 2900 2200
Wire Wire Line
	2550 1950 2550 1850
Connection ~ 1650 2350
Wire Wire Line
	2550 1850 1650 1850
Connection ~ 1650 1850
Connection ~ 2550 2200
Wire Wire Line
	9400 2150 9500 2150
Wire Wire Line
	9400 2050 9500 2050
Wire Wire Line
	9400 2350 9500 2350
Wire Wire Line
	9400 2250 9500 2250
Wire Wire Line
	9400 2450 9500 2450
Wire Wire Line
	8900 1700 8900 1750
Wire Wire Line
	8900 3150 8900 3200
Wire Wire Line
	10300 2150 10300 2200
Wire Wire Line
	10300 2400 10300 2450
Wire Wire Line
	7950 1700 7950 1800
Wire Wire Line
	8200 1800 8200 1750
Wire Wire Line
	8200 1750 7950 1750
Connection ~ 7950 1750
Wire Wire Line
	7850 2050 8400 2050
Wire Wire Line
	8200 2050 8200 2000
Wire Wire Line
	7850 2150 8400 2150
Wire Wire Line
	7950 2150 7950 2000
Connection ~ 8200 2050
Connection ~ 7950 2150
Wire Wire Line
	9050 5950 9100 5950
Wire Wire Line
	9100 5800 9050 5800
Wire Wire Line
	9050 5650 9100 5650
Wire Wire Line
	9100 5500 9050 5500
Wire Wire Line
	9050 5300 9100 5300
Wire Wire Line
	3950 1800 3950 2100
Wire Wire Line
	3950 2050 4150 2050
Wire Wire Line
	4150 2350 3950 2350
Wire Wire Line
	3950 2300 3950 2400
Connection ~ 3950 2050
Wire Wire Line
	4850 2150 4850 2200
Wire Wire Line
	4750 2200 5200 2200
Wire Wire Line
	4850 1950 4850 1850
Connection ~ 3950 2350
Wire Wire Line
	4850 1850 3950 1850
Connection ~ 3950 1850
Connection ~ 4850 2200
Wire Wire Line
	1650 3400 1650 3700
Wire Wire Line
	1650 3650 1850 3650
Wire Wire Line
	1850 3950 1650 3950
Wire Wire Line
	1650 3900 1650 4000
Connection ~ 1650 3650
Wire Wire Line
	2550 3750 2550 3800
Wire Wire Line
	2450 3800 2900 3800
Wire Wire Line
	2550 3550 2550 3450
Connection ~ 1650 3950
Wire Wire Line
	2550 3450 1650 3450
Connection ~ 1650 3450
Connection ~ 2550 3800
Wire Wire Line
	3950 3400 3950 3700
Wire Wire Line
	3950 3650 4150 3650
Wire Wire Line
	4150 3950 3950 3950
Wire Wire Line
	3950 3900 3950 4000
Connection ~ 3950 3650
Wire Wire Line
	4850 3750 4850 3800
Wire Wire Line
	4750 3800 5200 3800
Wire Wire Line
	4850 3550 4850 3450
Connection ~ 3950 3950
Wire Wire Line
	4850 3450 3950 3450
Connection ~ 3950 3450
Connection ~ 4850 3800
Wire Wire Line
	1650 5000 1650 5300
Wire Wire Line
	1650 5250 1850 5250
Wire Wire Line
	1850 5550 1650 5550
Wire Wire Line
	1650 5500 1650 5600
Connection ~ 1650 5250
Wire Wire Line
	2550 5350 2550 5400
Wire Wire Line
	2450 5400 2900 5400
Wire Wire Line
	2550 5150 2550 5050
Connection ~ 1650 5550
Wire Wire Line
	2550 5050 1650 5050
Connection ~ 1650 5050
Connection ~ 2550 5400
Wire Wire Line
	9200 4050 9200 4100
Wire Wire Line
	9500 4250 9500 4300
Wire Wire Line
	8400 2450 7050 2450
Wire Wire Line
	8400 2350 7150 2350
Wire Wire Line
	7150 2350 7150 1950
Wire Wire Line
	7150 1950 7050 1950
Wire Wire Line
	8400 2550 7150 2550
Wire Wire Line
	7150 2550 7150 2950
Wire Wire Line
	7150 2950 7050 2950
Wire Wire Line
	7750 3250 7900 3250
Wire Wire Line
	7900 3250 7900 2850
Wire Wire Line
	7900 2850 8400 2850
$Comp
L +5VL #PWR39
U 1 1 5A9E81D1
P 6350 1800
F 0 "#PWR39" H 6350 1650 50  0001 C CNN
F 1 "+5VL" H 6350 1940 50  0000 C CNN
F 2 "" H 6350 1800 50  0000 C CNN
F 3 "" H 6350 1800 50  0000 C CNN
	1    6350 1800
	1    0    0    -1  
$EndComp
$Comp
L GND #PWR40
U 1 1 5A9E822D
P 6650 3150
F 0 "#PWR40" H 6650 2900 50  0001 C CNN
F 1 "GND" H 6650 3000 50  0000 C CNN
F 2 "" H 6650 3150 50  0000 C CNN
F 3 "" H 6650 3150 50  0000 C CNN
	1    6650 3150
	1    0    0    -1  
$EndComp
Wire Wire Line
	6650 2050 6650 3150
Wire Wire Line
	6650 3050 6750 3050
Wire Wire Line
	6650 2550 6750 2550
Connection ~ 6650 3050
Wire Wire Line
	6650 2050 6750 2050
Connection ~ 6650 2550
Wire Wire Line
	6350 1800 6350 2850
Wire Wire Line
	6350 1850 6750 1850
Wire Wire Line
	6350 2350 6750 2350
Connection ~ 6350 1850
Wire Wire Line
	6350 2850 6750 2850
Connection ~ 6350 2350
$Comp
L TLE496x U14
U 1 1 5A9EA263
P 4350 5400
F 0 "U14" H 4400 5650 60  0000 C CNN
F 1 "TLE49641MXTSA1" H 4700 5100 60  0000 C CNN
F 2 "TO_SOT_Packages_SMD:SOT-23" H 4350 5400 60  0001 C CNN
F 3 "" H 4350 5400 60  0000 C CNN
	1    4350 5400
	1    0    0    -1  
$EndComp
$Comp
L C_Small C14
U 1 1 5A9EA269
P 3950 5400
F 0 "C14" H 3750 5500 50  0000 L CNN
F 1 "47nF" H 3700 5300 50  0000 L CNN
F 2 "Capacitors_SMD:C_0603_HandSoldering" H 3950 5400 50  0001 C CNN
F 3 "" H 3950 5400 50  0000 C CNN
	1    3950 5400
	1    0    0    -1  
$EndComp
$Comp
L +5VL #PWR37
U 1 1 5A9EA26F
P 3950 5000
F 0 "#PWR37" H 3950 4850 50  0001 C CNN
F 1 "+5VL" H 3950 5140 50  0000 C CNN
F 2 "" H 3950 5000 50  0000 C CNN
F 3 "" H 3950 5000 50  0000 C CNN
	1    3950 5000
	1    0    0    -1  
$EndComp
$Comp
L R_Small R17
U 1 1 5A9EA275
P 4850 5250
F 0 "R17" H 4900 5300 50  0000 L CNN
F 1 "1k2" H 4900 5200 50  0000 L CNN
F 2 "Resistors_SMD:R_0603_HandSoldering" H 4850 5250 50  0001 C CNN
F 3 "" H 4850 5250 50  0000 C CNN
	1    4850 5250
	1    0    0    -1  
$EndComp
$Comp
L GND #PWR38
U 1 1 5A9EA27B
P 3950 5600
F 0 "#PWR38" H 3950 5350 50  0001 C CNN
F 1 "GND" H 3950 5450 50  0000 C CNN
F 2 "" H 3950 5600 50  0000 C CNN
F 3 "" H 3950 5600 50  0000 C CNN
	1    3950 5600
	1    0    0    -1  
$EndComp
Text GLabel 5200 5400 2    60   Input ~ 0
R_B_06
Wire Wire Line
	3950 5000 3950 5300
Wire Wire Line
	3950 5250 4150 5250
Wire Wire Line
	4150 5550 3950 5550
Wire Wire Line
	3950 5500 3950 5600
Connection ~ 3950 5250
Wire Wire Line
	4850 5350 4850 5400
Wire Wire Line
	4750 5400 5200 5400
Wire Wire Line
	4850 5150 4850 5050
Connection ~ 3950 5550
Wire Wire Line
	4850 5050 3950 5050
Connection ~ 3950 5050
Connection ~ 4850 5400
Text GLabel 9500 2550 2    60   Input ~ 0
R_B_06
Wire Wire Line
	9400 2550 9500 2550
$Comp
L TLE496x U15
U 1 1 5A9F0D25
P 3200 6700
F 0 "U15" H 3250 6950 60  0000 C CNN
F 1 "TLE49641MXTSA1" H 3550 6400 60  0000 C CNN
F 2 "TO_SOT_Packages_SMD:SOT-23" H 3200 6700 60  0001 C CNN
F 3 "" H 3200 6700 60  0000 C CNN
	1    3200 6700
	1    0    0    -1  
$EndComp
$Comp
L C_Small C15
U 1 1 5A9F0D2B
P 2800 6700
F 0 "C15" H 2600 6800 50  0000 L CNN
F 1 "47nF" H 2550 6600 50  0000 L CNN
F 2 "Capacitors_SMD:C_0603_HandSoldering" H 2800 6700 50  0001 C CNN
F 3 "" H 2800 6700 50  0000 C CNN
	1    2800 6700
	1    0    0    -1  
$EndComp
$Comp
L +5VL #PWR31
U 1 1 5A9F0D31
P 2800 6300
F 0 "#PWR31" H 2800 6150 50  0001 C CNN
F 1 "+5VL" H 2800 6440 50  0000 C CNN
F 2 "" H 2800 6300 50  0000 C CNN
F 3 "" H 2800 6300 50  0000 C CNN
	1    2800 6300
	1    0    0    -1  
$EndComp
$Comp
L R_Small R18
U 1 1 5A9F0D37
P 3700 6550
F 0 "R18" H 3750 6600 50  0000 L CNN
F 1 "1k2" H 3750 6500 50  0000 L CNN
F 2 "Resistors_SMD:R_0603_HandSoldering" H 3700 6550 50  0001 C CNN
F 3 "" H 3700 6550 50  0000 C CNN
	1    3700 6550
	1    0    0    -1  
$EndComp
$Comp
L GND #PWR32
U 1 1 5A9F0D3D
P 2800 6900
F 0 "#PWR32" H 2800 6650 50  0001 C CNN
F 1 "GND" H 2800 6750 50  0000 C CNN
F 2 "" H 2800 6900 50  0000 C CNN
F 3 "" H 2800 6900 50  0000 C CNN
	1    2800 6900
	1    0    0    -1  
$EndComp
Text GLabel 4050 6700 2    60   Input ~ 0
R_B_07
Wire Wire Line
	2800 6300 2800 6600
Wire Wire Line
	2800 6550 3000 6550
Wire Wire Line
	3000 6850 2800 6850
Wire Wire Line
	2800 6800 2800 6900
Connection ~ 2800 6550
Wire Wire Line
	3700 6650 3700 6700
Wire Wire Line
	3600 6700 4050 6700
Wire Wire Line
	3700 6450 3700 6350
Connection ~ 2800 6850
Wire Wire Line
	3700 6350 2800 6350
Connection ~ 2800 6350
Connection ~ 3700 6700
Text GLabel 9500 2650 2    60   Input ~ 0
R_B_07
Wire Wire Line
	9400 2650 9500 2650
$EndSCHEMATC
