(export (version D)
  (design
    (source /home/etienne/Bureau/AAA_TODO_AAA/trompette/Bandonéon/Midi/pcb/Bandomidi.sch)
    (date "jeu. 25 janv. 2018 16:05:48 CET")
    (tool "Eeschema 4.0.2+dfsg1-stable")
    (sheet (number 1) (name /) (tstamps /)
      (title_block
        (title BandoMIDI)
        (company Étienne)
        (rev A1)
        (date 2018-01-23)
        (source Bandomidi.sch)
        (comment (number 1) (value ""))
        (comment (number 2) (value ""))
        (comment (number 3) (value ""))
        (comment (number 4) (value "")))))
  (components
    (comp (ref C3)
      (value 47n)
      (footprint Capacitors_SMD:C_0603_HandSoldering)
      (libsource (lib device) (part C_Small))
      (sheetpath (names /) (tstamps /))
      (tstamp 5A67146E))
    (comp (ref U3)
      (value TLE496x)
      (footprint TO_SOT_Packages_SMD:SOT-23)
      (libsource (lib Hall-effect) (part TLE496x))
      (sheetpath (names /) (tstamps /))
      (tstamp 5A671822))
    (comp (ref U13)
      (value "SN74LVC1G04DBVR ")
      (footprint TO_SOT_Packages_SMD:SOT-23-5)
      (libsource (lib 74xx) (part 74AHC1G14))
      (sheetpath (names /) (tstamps /))
      (tstamp 5A676A56))
    (comp (ref R3)
      (value 1k2)
      (footprint Resistors_SMD:R_0603_HandSoldering)
      (libsource (lib device) (part R_Small))
      (sheetpath (names /) (tstamps /))
      (tstamp 5A676BA2))
    (comp (ref C1)
      (value 47n)
      (footprint Capacitors_SMD:C_0603_HandSoldering)
      (libsource (lib device) (part C_Small))
      (sheetpath (names /) (tstamps /))
      (tstamp 5A677954))
    (comp (ref U1)
      (value TLE496x)
      (footprint TO_SOT_Packages_SMD:SOT-23)
      (libsource (lib Hall-effect) (part TLE496x))
      (sheetpath (names /) (tstamps /))
      (tstamp 5A677960))
    (comp (ref U22)
      (value "SN74LVC1G04DBVR ")
      (footprint TO_SOT_Packages_SMD:SOT-23-5)
      (libsource (lib 74xx) (part 74AHC1G14))
      (sheetpath (names /) (tstamps /))
      (tstamp 5A677972))
    (comp (ref R1)
      (value 1k2)
      (footprint Resistors_SMD:R_0603_HandSoldering)
      (libsource (lib device) (part R_Small))
      (sheetpath (names /) (tstamps /))
      (tstamp 5A677978))
    (comp (ref C2)
      (value 47n)
      (footprint Capacitors_SMD:C_0603_HandSoldering)
      (libsource (lib device) (part C_Small))
      (sheetpath (names /) (tstamps /))
      (tstamp 5A677C43))
    (comp (ref U2)
      (value TLE496x)
      (footprint TO_SOT_Packages_SMD:SOT-23)
      (libsource (lib Hall-effect) (part TLE496x))
      (sheetpath (names /) (tstamps /))
      (tstamp 5A677C4F))
    (comp (ref U12)
      (value "SN74LVC1G04DBVR ")
      (footprint TO_SOT_Packages_SMD:SOT-23-5)
      (libsource (lib 74xx) (part 74AHC1G14))
      (sheetpath (names /) (tstamps /))
      (tstamp 5A677C61))
    (comp (ref R2)
      (value 1k2)
      (footprint Resistors_SMD:R_0603_HandSoldering)
      (libsource (lib device) (part R_Small))
      (sheetpath (names /) (tstamps /))
      (tstamp 5A677C67))
    (comp (ref C4)
      (value 47n)
      (footprint Capacitors_SMD:C_0603_HandSoldering)
      (libsource (lib device) (part C_Small))
      (sheetpath (names /) (tstamps /))
      (tstamp 5A677F32))
    (comp (ref U4)
      (value TLE496x)
      (footprint TO_SOT_Packages_SMD:SOT-23)
      (libsource (lib Hall-effect) (part TLE496x))
      (sheetpath (names /) (tstamps /))
      (tstamp 5A677F3E))
    (comp (ref U14)
      (value "SN74LVC1G04DBVR ")
      (footprint TO_SOT_Packages_SMD:SOT-23-5)
      (libsource (lib 74xx) (part 74AHC1G14))
      (sheetpath (names /) (tstamps /))
      (tstamp 5A677F50))
    (comp (ref R4)
      (value 1k2)
      (footprint Resistors_SMD:R_0603_HandSoldering)
      (libsource (lib device) (part R_Small))
      (sheetpath (names /) (tstamps /))
      (tstamp 5A677F56))
    (comp (ref C7)
      (value 47n)
      (footprint Capacitors_SMD:C_0603_HandSoldering)
      (libsource (lib device) (part C_Small))
      (sheetpath (names /) (tstamps /))
      (tstamp 5A6789A7))
    (comp (ref U7)
      (value TLE496x)
      (footprint TO_SOT_Packages_SMD:SOT-23)
      (libsource (lib Hall-effect) (part TLE496x))
      (sheetpath (names /) (tstamps /))
      (tstamp 5A6789B3))
    (comp (ref U17)
      (value "SN74LVC1G04DBVR ")
      (footprint TO_SOT_Packages_SMD:SOT-23-5)
      (libsource (lib 74xx) (part 74AHC1G14))
      (sheetpath (names /) (tstamps /))
      (tstamp 5A6789C6))
    (comp (ref R7)
      (value 1k2)
      (footprint Resistors_SMD:R_0603_HandSoldering)
      (libsource (lib device) (part R_Small))
      (sheetpath (names /) (tstamps /))
      (tstamp 5A6789CC))
    (comp (ref C5)
      (value 47n)
      (footprint Capacitors_SMD:C_0603_HandSoldering)
      (libsource (lib device) (part C_Small))
      (sheetpath (names /) (tstamps /))
      (tstamp 5A6789E3))
    (comp (ref U5)
      (value TLE496x)
      (footprint TO_SOT_Packages_SMD:SOT-23)
      (libsource (lib Hall-effect) (part TLE496x))
      (sheetpath (names /) (tstamps /))
      (tstamp 5A6789EF))
    (comp (ref U15)
      (value "SN74LVC1G04DBVR ")
      (footprint TO_SOT_Packages_SMD:SOT-23-5)
      (libsource (lib 74xx) (part 74AHC1G14))
      (sheetpath (names /) (tstamps /))
      (tstamp 5A678A01))
    (comp (ref R5)
      (value 1k2)
      (footprint Resistors_SMD:R_0603_HandSoldering)
      (libsource (lib device) (part R_Small))
      (sheetpath (names /) (tstamps /))
      (tstamp 5A678A07))
    (comp (ref C6)
      (value 47n)
      (footprint Capacitors_SMD:C_0603_HandSoldering)
      (libsource (lib device) (part C_Small))
      (sheetpath (names /) (tstamps /))
      (tstamp 5A678A1E))
    (comp (ref U6)
      (value TLE496x)
      (footprint TO_SOT_Packages_SMD:SOT-23)
      (libsource (lib Hall-effect) (part TLE496x))
      (sheetpath (names /) (tstamps /))
      (tstamp 5A678A2A))
    (comp (ref U16)
      (value "SN74LVC1G04DBVR ")
      (footprint TO_SOT_Packages_SMD:SOT-23-5)
      (libsource (lib 74xx) (part 74AHC1G14))
      (sheetpath (names /) (tstamps /))
      (tstamp 5A678A3C))
    (comp (ref R6)
      (value 1k2)
      (footprint Resistors_SMD:R_0603_HandSoldering)
      (libsource (lib device) (part R_Small))
      (sheetpath (names /) (tstamps /))
      (tstamp 5A678A42))
    (comp (ref C8)
      (value 47n)
      (footprint Capacitors_SMD:C_0603_HandSoldering)
      (libsource (lib device) (part C_Small))
      (sheetpath (names /) (tstamps /))
      (tstamp 5A678A59))
    (comp (ref U8)
      (value TLE496x)
      (footprint TO_SOT_Packages_SMD:SOT-23)
      (libsource (lib Hall-effect) (part TLE496x))
      (sheetpath (names /) (tstamps /))
      (tstamp 5A678A65))
    (comp (ref U18)
      (value "SN74LVC1G04DBVR ")
      (footprint TO_SOT_Packages_SMD:SOT-23-5)
      (libsource (lib 74xx) (part 74AHC1G14))
      (sheetpath (names /) (tstamps /))
      (tstamp 5A678A77))
    (comp (ref R8)
      (value 1k2)
      (footprint Resistors_SMD:R_0603_HandSoldering)
      (libsource (lib device) (part R_Small))
      (sheetpath (names /) (tstamps /))
      (tstamp 5A678A7D))
    (comp (ref C11)
      (value 47n)
      (footprint Capacitors_SMD:C_0603_HandSoldering)
      (libsource (lib device) (part C_Small))
      (sheetpath (names /) (tstamps /))
      (tstamp 5A678BE5))
    (comp (ref U11)
      (value TLE496x)
      (footprint TO_SOT_Packages_SMD:SOT-23)
      (libsource (lib Hall-effect) (part TLE496x))
      (sheetpath (names /) (tstamps /))
      (tstamp 5A678BF1))
    (comp (ref U21)
      (value "SN74LVC1G04DBVR ")
      (footprint TO_SOT_Packages_SMD:SOT-23-5)
      (libsource (lib 74xx) (part 74AHC1G14))
      (sheetpath (names /) (tstamps /))
      (tstamp 5A678C03))
    (comp (ref R11)
      (value 1k2)
      (footprint Resistors_SMD:R_0603_HandSoldering)
      (libsource (lib device) (part R_Small))
      (sheetpath (names /) (tstamps /))
      (tstamp 5A678C09))
    (comp (ref C9)
      (value 47n)
      (footprint Capacitors_SMD:C_0603_HandSoldering)
      (libsource (lib device) (part C_Small))
      (sheetpath (names /) (tstamps /))
      (tstamp 5A678C20))
    (comp (ref U9)
      (value TLE496x)
      (footprint TO_SOT_Packages_SMD:SOT-23)
      (libsource (lib Hall-effect) (part TLE496x))
      (sheetpath (names /) (tstamps /))
      (tstamp 5A678C2C))
    (comp (ref U19)
      (value "SN74LVC1G04DBVR ")
      (footprint TO_SOT_Packages_SMD:SOT-23-5)
      (libsource (lib 74xx) (part 74AHC1G14))
      (sheetpath (names /) (tstamps /))
      (tstamp 5A678C3E))
    (comp (ref R9)
      (value 1k2)
      (footprint Resistors_SMD:R_0603_HandSoldering)
      (libsource (lib device) (part R_Small))
      (sheetpath (names /) (tstamps /))
      (tstamp 5A678C44))
    (comp (ref C10)
      (value 47n)
      (footprint Capacitors_SMD:C_0603_HandSoldering)
      (libsource (lib device) (part C_Small))
      (sheetpath (names /) (tstamps /))
      (tstamp 5A678C5B))
    (comp (ref U10)
      (value TLE496x)
      (footprint TO_SOT_Packages_SMD:SOT-23)
      (libsource (lib Hall-effect) (part TLE496x))
      (sheetpath (names /) (tstamps /))
      (tstamp 5A678C67))
    (comp (ref U20)
      (value "SN74LVC1G04DBVR ")
      (footprint TO_SOT_Packages_SMD:SOT-23-5)
      (libsource (lib 74xx) (part 74AHC1G14))
      (sheetpath (names /) (tstamps /))
      (tstamp 5A678C79))
    (comp (ref R10)
      (value 1k2)
      (footprint Resistors_SMD:R_0603_HandSoldering)
      (libsource (lib device) (part R_Small))
      (sheetpath (names /) (tstamps /))
      (tstamp 5A678C7F))
    (comp (ref P14)
      (value CONN_01X01)
      (footprint pcb:SolderWirePad_single_0-8mmDrilld1.2)
      (libsource (lib conn) (part CONN_01X01))
      (sheetpath (names /) (tstamps /))
      (tstamp 5A69D498))
    (comp (ref P13)
      (value CONN_01X01)
      (footprint pcb:SolderWirePad_single_0-8mmDrilld1.2)
      (libsource (lib conn) (part CONN_01X01))
      (sheetpath (names /) (tstamps /))
      (tstamp 5A69D976))
    (comp (ref P12)
      (value CONN_01X01)
      (footprint pcb:SolderWirePad_single_0-8mmDrilld1.2)
      (libsource (lib conn) (part CONN_01X01))
      (sheetpath (names /) (tstamps /))
      (tstamp 5A69DA64))
    (comp (ref P11)
      (value CONN_01X01)
      (footprint pcb:SolderWirePad_single_0-8mmDrilld1.2)
      (libsource (lib conn) (part CONN_01X01))
      (sheetpath (names /) (tstamps /))
      (tstamp 5A69DA6A))
    (comp (ref P10)
      (value CONN_01X01)
      (footprint pcb:SolderWirePad_single_0-8mmDrilld1.2)
      (libsource (lib conn) (part CONN_01X01))
      (sheetpath (names /) (tstamps /))
      (tstamp 5A69DB7E))
    (comp (ref P9)
      (value CONN_01X01)
      (footprint pcb:SolderWirePad_single_0-8mmDrilld1.2)
      (libsource (lib conn) (part CONN_01X01))
      (sheetpath (names /) (tstamps /))
      (tstamp 5A69DB84))
    (comp (ref P8)
      (value CONN_01X01)
      (footprint pcb:SolderWirePad_single_0-8mmDrilld1.2)
      (libsource (lib conn) (part CONN_01X01))
      (sheetpath (names /) (tstamps /))
      (tstamp 5A69DC09))
    (comp (ref P7)
      (value CONN_01X01)
      (footprint pcb:SolderWirePad_single_0-8mmDrilld1.2)
      (libsource (lib conn) (part CONN_01X01))
      (sheetpath (names /) (tstamps /))
      (tstamp 5A69DF44))
    (comp (ref P6)
      (value CONN_01X01)
      (footprint pcb:SolderWirePad_single_0-8mmDrilld1.2)
      (libsource (lib conn) (part CONN_01X01))
      (sheetpath (names /) (tstamps /))
      (tstamp 5A69DF4A))
    (comp (ref P5)
      (value CONN_01X01)
      (footprint pcb:SolderWirePad_single_0-8mmDrilld1.2)
      (libsource (lib conn) (part CONN_01X01))
      (sheetpath (names /) (tstamps /))
      (tstamp 5A69DF50))
    (comp (ref P4)
      (value CONN_01X01)
      (footprint pcb:SolderWirePad_single_0-8mmDrilld1.2)
      (libsource (lib conn) (part CONN_01X01))
      (sheetpath (names /) (tstamps /))
      (tstamp 5A69DF56))
    (comp (ref P3)
      (value CONN_01X01)
      (footprint pcb:SolderWirePad_single_0-8mmDrilld1.2)
      (libsource (lib conn) (part CONN_01X01))
      (sheetpath (names /) (tstamps /))
      (tstamp 5A69DF5C))
    (comp (ref P2)
      (value CONN_01X01)
      (footprint pcb:SolderWirePad_single_0-8mmDrilld1.2)
      (libsource (lib conn) (part CONN_01X01))
      (sheetpath (names /) (tstamps /))
      (tstamp 5A69DF62))
    (comp (ref P1)
      (value CONN_01X01)
      (footprint pcb:SolderWirePad_single_0-8mmDrilld1.2)
      (libsource (lib conn) (part CONN_01X01))
      (sheetpath (names /) (tstamps /))
      (tstamp 5A69DF68))
    (comp (ref P15)
      (value CONN_01X01)
      (footprint pcb:SolderWirePad_single_0-8mmDrilld1.2)
      (libsource (lib conn) (part CONN_01X01))
      (sheetpath (names /) (tstamps /))
      (tstamp 5A6A3127)))
  (libparts
    (libpart (lib 74xx) (part 74AHC1G14)
      (description "inverting buffer with Schmitt trigger.")
      (docs 74xx/74ahc_ahct1g14.pdf)
      (fields
        (field (name Reference) U)
        (field (name Value) 74AHC1G14))
      (pins
        (pin (num 2) (name ~) (type input))
        (pin (num 3) (name GND) (type power_in))
        (pin (num 4) (name ~) (type output))
        (pin (num 5) (name VCC) (type power_in))))
    (libpart (lib conn) (part CONN_01X01)
      (description "Connector 01x01")
      (footprints
        (fp Pin_Header_Straight_1X01)
        (fp Pin_Header_Angled_1X01)
        (fp Socket_Strip_Straight_1X01)
        (fp Socket_Strip_Angled_1X01))
      (fields
        (field (name Reference) P)
        (field (name Value) CONN_01X01))
      (pins
        (pin (num 1) (name P1) (type passive))))
    (libpart (lib device) (part C_Small)
      (description "Unpolarized capacitor")
      (footprints
        (fp C?)
        (fp C_????_*)
        (fp C_????)
        (fp SMD*_c)
        (fp Capacitor*))
      (fields
        (field (name Reference) C)
        (field (name Value) C_Small))
      (pins
        (pin (num 1) (name ~) (type passive))
        (pin (num 2) (name ~) (type passive))))
    (libpart (lib device) (part R_Small)
      (description Resistor)
      (footprints
        (fp Resistor_*)
        (fp R_*))
      (fields
        (field (name Reference) R)
        (field (name Value) R_Small))
      (pins
        (pin (num 1) (name ~) (type passive))
        (pin (num 2) (name ~) (type passive))))
    (libpart (lib Hall-effect) (part TLE496x)
      (description "High Precision Automotive Hall Effect Switch")
      (footprints
        (fp SOT-23))
      (fields
        (field (name Reference) U)
        (field (name Value) TLE496x))
      (pins
        (pin (num 1) (name Vdd) (type power_in))
        (pin (num 2) (name Q) (type openCol))
        (pin (num 3) (name Gnd) (type input)))))
  (libraries
    (library (logical 74xx)
      (uri /usr/share/kicad/library/74xx.lib))
    (library (logical device)
      (uri /usr/share/kicad/library/device.lib))
    (library (logical conn)
      (uri /usr/share/kicad/library/conn.lib))
    (library (logical Hall-effect)
      (uri /home/etienne/Bureau/AAA_TODO_AAA/trompette/Bandonéon/Midi/pcb/Hall-effect.lib)))
  (nets
    (net (code 1) (name L_A_08)
      (node (ref P12) (pin 1))
      (node (ref U18) (pin 4)))
    (net (code 2) (name "Net-(R8-Pad2)")
      (node (ref R8) (pin 2))
      (node (ref U18) (pin 2))
      (node (ref U8) (pin 2)))
    (net (code 3) (name L_A_11)
      (node (ref P15) (pin 1))
      (node (ref U21) (pin 4)))
    (net (code 4) (name "Net-(R11-Pad2)")
      (node (ref R11) (pin 2))
      (node (ref U21) (pin 2))
      (node (ref U11) (pin 2)))
    (net (code 5) (name +5VL)
      (node (ref U19) (pin 5))
      (node (ref C5) (pin 1))
      (node (ref R9) (pin 1))
      (node (ref R5) (pin 1))
      (node (ref P3) (pin 1))
      (node (ref U20) (pin 5))
      (node (ref U17) (pin 5))
      (node (ref R7) (pin 1))
      (node (ref C2) (pin 1))
      (node (ref U2) (pin 1))
      (node (ref R1) (pin 1))
      (node (ref U22) (pin 5))
      (node (ref U1) (pin 1))
      (node (ref U12) (pin 5))
      (node (ref R2) (pin 1))
      (node (ref C1) (pin 1))
      (node (ref U9) (pin 1))
      (node (ref R10) (pin 1))
      (node (ref U3) (pin 1))
      (node (ref U10) (pin 1))
      (node (ref C10) (pin 1))
      (node (ref U13) (pin 5))
      (node (ref R3) (pin 1))
      (node (ref U4) (pin 1))
      (node (ref C4) (pin 1))
      (node (ref U6) (pin 1))
      (node (ref C7) (pin 1))
      (node (ref C3) (pin 1))
      (node (ref C9) (pin 1))
      (node (ref C6) (pin 1))
      (node (ref U18) (pin 5))
      (node (ref R8) (pin 1))
      (node (ref U16) (pin 5))
      (node (ref U7) (pin 1))
      (node (ref R6) (pin 1))
      (node (ref U21) (pin 5))
      (node (ref R11) (pin 1))
      (node (ref U15) (pin 5))
      (node (ref C11) (pin 1))
      (node (ref P4) (pin 1))
      (node (ref C8) (pin 1))
      (node (ref U5) (pin 1))
      (node (ref U14) (pin 5))
      (node (ref U11) (pin 1))
      (node (ref U8) (pin 1))
      (node (ref R4) (pin 1)))
    (net (code 6) (name GND)
      (node (ref C1) (pin 2))
      (node (ref U12) (pin 3))
      (node (ref U13) (pin 3))
      (node (ref C7) (pin 2))
      (node (ref C2) (pin 2))
      (node (ref U2) (pin 3))
      (node (ref C5) (pin 2))
      (node (ref U17) (pin 3))
      (node (ref U14) (pin 3))
      (node (ref U5) (pin 3))
      (node (ref U15) (pin 3))
      (node (ref U7) (pin 3))
      (node (ref U3) (pin 3))
      (node (ref C3) (pin 2))
      (node (ref C4) (pin 2))
      (node (ref U4) (pin 3))
      (node (ref C9) (pin 2))
      (node (ref U19) (pin 3))
      (node (ref U8) (pin 3))
      (node (ref U9) (pin 3))
      (node (ref C8) (pin 2))
      (node (ref U20) (pin 3))
      (node (ref U21) (pin 3))
      (node (ref U18) (pin 3))
      (node (ref P1) (pin 1))
      (node (ref P2) (pin 1))
      (node (ref C11) (pin 2))
      (node (ref U6) (pin 3))
      (node (ref U22) (pin 3))
      (node (ref U10) (pin 3))
      (node (ref U1) (pin 3))
      (node (ref U11) (pin 3))
      (node (ref C10) (pin 2))
      (node (ref U16) (pin 3))
      (node (ref C6) (pin 2)))
    (net (code 7) (name "Net-(R6-Pad2)")
      (node (ref U16) (pin 2))
      (node (ref R6) (pin 2))
      (node (ref U6) (pin 2)))
    (net (code 8) (name L_A_06)
      (node (ref U16) (pin 4))
      (node (ref P10) (pin 1)))
    (net (code 9) (name L_A_05)
      (node (ref U15) (pin 4))
      (node (ref P9) (pin 1)))
    (net (code 10) (name L_A_10)
      (node (ref P14) (pin 1))
      (node (ref U20) (pin 4)))
    (net (code 11) (name L_A_02)
      (node (ref P6) (pin 1))
      (node (ref U12) (pin 4)))
    (net (code 12) (name L_A_03)
      (node (ref U13) (pin 4))
      (node (ref P7) (pin 1)))
    (net (code 13) (name L_A_04)
      (node (ref U14) (pin 4))
      (node (ref P8) (pin 1)))
    (net (code 14) (name L_A_07)
      (node (ref P11) (pin 1))
      (node (ref U17) (pin 4)))
    (net (code 15) (name "Net-(R10-Pad2)")
      (node (ref U20) (pin 2))
      (node (ref U10) (pin 2))
      (node (ref R10) (pin 2)))
    (net (code 16) (name "Net-(R9-Pad2)")
      (node (ref R9) (pin 2))
      (node (ref U9) (pin 2))
      (node (ref U19) (pin 2)))
    (net (code 17) (name L_A_09)
      (node (ref U19) (pin 4))
      (node (ref P13) (pin 1)))
    (net (code 18) (name "Net-(R1-Pad2)")
      (node (ref U22) (pin 2))
      (node (ref R1) (pin 2))
      (node (ref U1) (pin 2)))
    (net (code 19) (name L_A_01)
      (node (ref U22) (pin 4))
      (node (ref P5) (pin 1)))
    (net (code 20) (name "Net-(R2-Pad2)")
      (node (ref R2) (pin 2))
      (node (ref U12) (pin 2))
      (node (ref U2) (pin 2)))
    (net (code 21) (name "Net-(R3-Pad2)")
      (node (ref U3) (pin 2))
      (node (ref R3) (pin 2))
      (node (ref U13) (pin 2)))
    (net (code 22) (name "Net-(R7-Pad2)")
      (node (ref R7) (pin 2))
      (node (ref U17) (pin 2))
      (node (ref U7) (pin 2)))
    (net (code 23) (name "Net-(R5-Pad2)")
      (node (ref U5) (pin 2))
      (node (ref U15) (pin 2))
      (node (ref R5) (pin 2)))
    (net (code 24) (name "Net-(R4-Pad2)")
      (node (ref R4) (pin 2))
      (node (ref U14) (pin 2))
      (node (ref U4) (pin 2)))))