G04 #@! TF.FileFunction,Copper,L1,Top,Signal*
%FSLAX46Y46*%
G04 Gerber Fmt 4.6, Leading zero omitted, Abs format (unit mm)*
G04 Created by KiCad (PCBNEW 4.0.2+dfsg1-stable) date jeu. 25 janv. 2018 16:42:09 CET*
%MOMM*%
G01*
G04 APERTURE LIST*
%ADD10C,0.100000*%
%ADD11R,0.800100X0.800100*%
%ADD12R,1.060000X0.650000*%
%ADD13R,0.750000X1.200000*%
%ADD14R,0.900000X1.200000*%
%ADD15C,1.000000*%
%ADD16C,0.600000*%
%ADD17C,0.250000*%
%ADD18C,0.254000*%
G04 APERTURE END LIST*
D10*
D11*
X246499240Y-67050000D03*
X246499240Y-68950000D03*
X248498220Y-68000000D03*
X100499240Y-67050000D03*
X100499240Y-68950000D03*
X102498220Y-68000000D03*
X115099240Y-67050000D03*
X115099240Y-68950000D03*
X117098220Y-68000000D03*
X129699240Y-67050000D03*
X129699240Y-68950000D03*
X131698220Y-68000000D03*
X144299240Y-67050000D03*
X144299240Y-68950000D03*
X146298220Y-68000000D03*
X158899240Y-67050000D03*
X158899240Y-68950000D03*
X160898220Y-68000000D03*
X173499240Y-67050000D03*
X173499240Y-68950000D03*
X175498220Y-68000000D03*
X188099240Y-67050000D03*
X188099240Y-68950000D03*
X190098220Y-68000000D03*
X202699240Y-67050000D03*
X202699240Y-68950000D03*
X204698220Y-68000000D03*
X217299240Y-67050000D03*
X217299240Y-68950000D03*
X219298220Y-68000000D03*
X231899240Y-67050000D03*
X231899240Y-68950000D03*
X233898220Y-68000000D03*
D12*
X119400000Y-67050000D03*
X119400000Y-68000000D03*
X119400000Y-68950000D03*
X121600000Y-68950000D03*
X121600000Y-67050000D03*
X133900000Y-67050000D03*
X133900000Y-68000000D03*
X133900000Y-68950000D03*
X136100000Y-68950000D03*
X136100000Y-67050000D03*
X148400000Y-67050000D03*
X148400000Y-68000000D03*
X148400000Y-68950000D03*
X150600000Y-68950000D03*
X150600000Y-67050000D03*
X162900000Y-67050000D03*
X162900000Y-68000000D03*
X162900000Y-68950000D03*
X165100000Y-68950000D03*
X165100000Y-67050000D03*
X177400000Y-67050000D03*
X177400000Y-68000000D03*
X177400000Y-68950000D03*
X179600000Y-68950000D03*
X179600000Y-67050000D03*
X192400000Y-67050000D03*
X192400000Y-68000000D03*
X192400000Y-68950000D03*
X194600000Y-68950000D03*
X194600000Y-67050000D03*
X207400000Y-67050000D03*
X207400000Y-68000000D03*
X207400000Y-68950000D03*
X209600000Y-68950000D03*
X209600000Y-67050000D03*
X221900000Y-67050000D03*
X221900000Y-68000000D03*
X221900000Y-68950000D03*
X224100000Y-68950000D03*
X224100000Y-67050000D03*
X236400000Y-67050000D03*
X236400000Y-68000000D03*
X236400000Y-68950000D03*
X238600000Y-68950000D03*
X238600000Y-67050000D03*
X250800000Y-67050000D03*
X250800000Y-68000000D03*
X250800000Y-68950000D03*
X253000000Y-68950000D03*
X253000000Y-67050000D03*
X104900000Y-67050000D03*
X104900000Y-68000000D03*
X104900000Y-68950000D03*
X107100000Y-68950000D03*
X107100000Y-67050000D03*
D13*
X96500000Y-67050000D03*
X96500000Y-68950000D03*
X111000000Y-67050000D03*
X111000000Y-68950000D03*
X125500000Y-67050000D03*
X125500000Y-68950000D03*
X140500000Y-67050000D03*
X140500000Y-68950000D03*
X155000000Y-67050000D03*
X155000000Y-68950000D03*
X169500000Y-67050000D03*
X169500000Y-68950000D03*
X184000000Y-67050000D03*
X184000000Y-68950000D03*
X198500000Y-67050000D03*
X198500000Y-68950000D03*
X213000000Y-67050000D03*
X213000000Y-68950000D03*
X228000000Y-67050000D03*
X228000000Y-68950000D03*
X242500000Y-67050000D03*
X242500000Y-68950000D03*
D14*
X98500000Y-66900000D03*
X98500000Y-69100000D03*
X113000000Y-66900000D03*
X113000000Y-69100000D03*
X127500000Y-66900000D03*
X127500000Y-69100000D03*
X142500000Y-66900000D03*
X142500000Y-69100000D03*
X157000000Y-66900000D03*
X157000000Y-69100000D03*
X171500000Y-66900000D03*
X171500000Y-69100000D03*
X186000000Y-66900000D03*
X186000000Y-69100000D03*
X200500000Y-66900000D03*
X200500000Y-69100000D03*
X215000000Y-66900000D03*
X215000000Y-69100000D03*
X230000000Y-66900000D03*
X230000000Y-69100000D03*
X244500000Y-66900000D03*
X244500000Y-69100000D03*
D15*
X87600000Y-68700000D03*
X256200000Y-67000000D03*
X87500000Y-67200000D03*
X254600000Y-67000000D03*
X91200000Y-68800000D03*
X93000000Y-68800000D03*
X94600000Y-66900000D03*
X89300000Y-67000000D03*
X91300000Y-66900000D03*
X89400000Y-68800000D03*
X257800000Y-67000000D03*
X261200000Y-67000000D03*
X259500000Y-67000000D03*
X259500000Y-68900000D03*
X261200000Y-68900000D03*
D16*
X246499240Y-67050000D03*
X253000000Y-67100000D03*
X231899240Y-67050000D03*
X238600000Y-67100000D03*
X217299240Y-67050000D03*
X224200000Y-67000000D03*
X202699240Y-67050000D03*
X209600000Y-67000000D03*
X188099240Y-67050000D03*
X194600000Y-67000000D03*
X173499240Y-67050000D03*
X179600000Y-67000000D03*
X158899240Y-67050000D03*
X165000000Y-67000000D03*
X144299240Y-67050000D03*
X150600000Y-67000000D03*
X129699240Y-67050000D03*
X136200000Y-67200000D03*
X115099240Y-67050000D03*
X121600000Y-67000000D03*
X100499240Y-67050000D03*
X107200000Y-67000000D03*
X204698220Y-68000000D03*
X207400000Y-68900000D03*
X219298220Y-68000000D03*
X221900000Y-69000000D03*
X233898220Y-68000000D03*
X236400000Y-68900000D03*
X248498220Y-68000000D03*
X250800000Y-68900000D03*
X190098220Y-68000000D03*
X192400000Y-68900000D03*
X175498220Y-68000000D03*
X177400000Y-68900000D03*
X160898220Y-68000000D03*
X162900000Y-68900000D03*
X146298220Y-68000000D03*
X148400000Y-68900000D03*
X131698220Y-68000000D03*
X133800000Y-68900000D03*
X117098220Y-68000000D03*
X119400000Y-68900000D03*
X102498220Y-68000000D03*
X105000000Y-69000000D03*
X121600000Y-68950000D03*
X136100000Y-68950000D03*
X150600000Y-68950000D03*
X165100000Y-68950000D03*
X179600000Y-68950000D03*
X194600000Y-68950000D03*
X209600000Y-68950000D03*
X224100000Y-68950000D03*
X224100000Y-68900000D03*
X238600000Y-68950000D03*
X107100000Y-68950000D03*
D17*
X252050000Y-67150000D02*
X252000000Y-67150000D01*
X184000000Y-67050000D02*
X185850000Y-67050000D01*
X185850000Y-67050000D02*
X186000000Y-66900000D01*
X188099240Y-67050000D02*
X186150000Y-67050000D01*
X186150000Y-67050000D02*
X186000000Y-66900000D01*
X253000000Y-67050000D02*
X254550000Y-67050000D01*
X254550000Y-67050000D02*
X254600000Y-67000000D01*
X244650000Y-67050000D02*
X246499240Y-67050000D01*
X253000000Y-67100000D02*
X253000000Y-67050000D01*
X242500000Y-67050000D02*
X238600000Y-67050000D01*
X244650000Y-67050000D02*
X244500000Y-66900000D01*
X244650000Y-67050000D02*
X244500000Y-66900000D01*
X244500000Y-66900000D02*
X242650000Y-66900000D01*
X242650000Y-66900000D02*
X242500000Y-67050000D01*
X230150000Y-67050000D02*
X231899240Y-67050000D01*
X238600000Y-67100000D02*
X238600000Y-67150000D01*
X230150000Y-67050000D02*
X230000000Y-66900000D01*
X228000000Y-67050000D02*
X229850000Y-67050000D01*
X229850000Y-67050000D02*
X230000000Y-66900000D01*
X224100000Y-67050000D02*
X228000000Y-67050000D01*
X215150000Y-67050000D02*
X217299240Y-67050000D01*
X224200000Y-67000000D02*
X224150000Y-67050000D01*
X224150000Y-67050000D02*
X224100000Y-67050000D01*
X215150000Y-67050000D02*
X215000000Y-66900000D01*
X209600000Y-67050000D02*
X213000000Y-67050000D01*
X213000000Y-67050000D02*
X213150000Y-66900000D01*
X213150000Y-66900000D02*
X215000000Y-66900000D01*
X200650000Y-67050000D02*
X202699240Y-67050000D01*
X209600000Y-67000000D02*
X209600000Y-67050000D01*
X200650000Y-67050000D02*
X200500000Y-66900000D01*
X200500000Y-66900000D02*
X198650000Y-66900000D01*
X198650000Y-66900000D02*
X198500000Y-67050000D01*
X194600000Y-67050000D02*
X198500000Y-67050000D01*
X187949240Y-66900000D02*
X188099240Y-67050000D01*
X194600000Y-67000000D02*
X194600000Y-67050000D01*
X179600000Y-67050000D02*
X184000000Y-67050000D01*
X184000000Y-67050000D02*
X184150000Y-66900000D01*
X171650000Y-67050000D02*
X173499240Y-67050000D01*
X179600000Y-67000000D02*
X179600000Y-67050000D01*
X171650000Y-67050000D02*
X171500000Y-66900000D01*
X171500000Y-66900000D02*
X169650000Y-66900000D01*
X169650000Y-66900000D02*
X169500000Y-67050000D01*
X165100000Y-67050000D02*
X169500000Y-67050000D01*
X157150000Y-67050000D02*
X158899240Y-67050000D01*
X165000000Y-67000000D02*
X165050000Y-67050000D01*
X165050000Y-67050000D02*
X165100000Y-67050000D01*
X157150000Y-67050000D02*
X157000000Y-66900000D01*
X157000000Y-66900000D02*
X155150000Y-66900000D01*
X155150000Y-66900000D02*
X155000000Y-67050000D01*
X150600000Y-67050000D02*
X155000000Y-67050000D01*
X142650000Y-67050000D02*
X144299240Y-67050000D01*
X150600000Y-67000000D02*
X150600000Y-67050000D01*
X142650000Y-67050000D02*
X142500000Y-66900000D01*
X140500000Y-67050000D02*
X142350000Y-67050000D01*
X142350000Y-67050000D02*
X142500000Y-66900000D01*
X136100000Y-67050000D02*
X140500000Y-67050000D01*
X127650000Y-67050000D02*
X129699240Y-67050000D01*
X136200000Y-67200000D02*
X136100000Y-67100000D01*
X136100000Y-67100000D02*
X136100000Y-67050000D01*
X113150000Y-67050000D02*
X115099240Y-67050000D01*
X121600000Y-67000000D02*
X121600000Y-67050000D01*
X98350000Y-67050000D02*
X100499240Y-67050000D01*
X107200000Y-67000000D02*
X107150000Y-67050000D01*
X107150000Y-67050000D02*
X107100000Y-67050000D01*
X111000000Y-67050000D02*
X107100000Y-67050000D01*
X111000000Y-67050000D02*
X112850000Y-67050000D01*
X112850000Y-67050000D02*
X113000000Y-66900000D01*
X113150000Y-67050000D02*
X113000000Y-66900000D01*
X125500000Y-67050000D02*
X121600000Y-67050000D01*
X127650000Y-67050000D02*
X125500000Y-67050000D01*
X96500000Y-67050000D02*
X98350000Y-67050000D01*
X87600000Y-68700000D02*
X87800000Y-68700000D01*
X87800000Y-68700000D02*
X88600000Y-67900000D01*
X88600000Y-67900000D02*
X95450000Y-67900000D01*
X95450000Y-67900000D02*
X96500000Y-68950000D01*
X250800000Y-68950000D02*
X251350000Y-68950000D01*
X255200000Y-68000000D02*
X256200000Y-67000000D01*
X252300000Y-68000000D02*
X255200000Y-68000000D01*
X251350000Y-68950000D02*
X252300000Y-68000000D01*
X198650000Y-68950000D02*
X199600000Y-68000000D01*
X204698220Y-68000000D02*
X199600000Y-68000000D01*
X207400000Y-68900000D02*
X207400000Y-68950000D01*
X213050000Y-68950000D02*
X214000000Y-68000000D01*
X219298220Y-68000000D02*
X214000000Y-68000000D01*
X221900000Y-69000000D02*
X221900000Y-68950000D01*
X229200000Y-68000000D02*
X229000000Y-68000000D01*
X228050000Y-68950000D02*
X229000000Y-68000000D01*
X233898220Y-68000000D02*
X229200000Y-68000000D01*
X236400000Y-68900000D02*
X236400000Y-68950000D01*
X242500000Y-68900000D02*
X243400000Y-68000000D01*
X248498220Y-68000000D02*
X243400000Y-68000000D01*
X250800000Y-68900000D02*
X250800000Y-68950000D01*
X184000000Y-68950000D02*
X184950000Y-68000000D01*
X190098220Y-68000000D02*
X184950000Y-68000000D01*
X192400000Y-68900000D02*
X192400000Y-68950000D01*
X169500000Y-68900000D02*
X170400000Y-68000000D01*
X175498220Y-68000000D02*
X170400000Y-68000000D01*
X177400000Y-68900000D02*
X177400000Y-68950000D01*
X155000000Y-68950000D02*
X155950000Y-68000000D01*
X160898220Y-68000000D02*
X155950000Y-68000000D01*
X162900000Y-68900000D02*
X162900000Y-68950000D01*
X148400000Y-68950000D02*
X149050000Y-68950000D01*
X149050000Y-68950000D02*
X149300000Y-68700000D01*
X141800000Y-68000000D02*
X141400000Y-68000000D01*
X140500000Y-68900000D02*
X141400000Y-68000000D01*
X146298220Y-68000000D02*
X141800000Y-68000000D01*
X148400000Y-68900000D02*
X148400000Y-68850000D01*
X221900000Y-68950000D02*
X222450000Y-68950000D01*
X226950000Y-68950000D02*
X228000000Y-68950000D01*
X226000000Y-68000000D02*
X226950000Y-68950000D01*
X223400000Y-68000000D02*
X226000000Y-68000000D01*
X222450000Y-68950000D02*
X223400000Y-68000000D01*
X125500000Y-68950000D02*
X126450000Y-68000000D01*
X131698220Y-68000000D02*
X126450000Y-68000000D01*
X133800000Y-68900000D02*
X133850000Y-68850000D01*
X133850000Y-68850000D02*
X133900000Y-68850000D01*
X112200000Y-68000000D02*
X112000000Y-68000000D01*
X111050000Y-68950000D02*
X112000000Y-68000000D01*
X117098220Y-68000000D02*
X112200000Y-68000000D01*
X119400000Y-68900000D02*
X119400000Y-68850000D01*
X97800000Y-68000000D02*
X102498220Y-68000000D01*
X96850000Y-68950000D02*
X97800000Y-68000000D01*
X105000000Y-69000000D02*
X104950000Y-68950000D01*
X104950000Y-68950000D02*
X104900000Y-68950000D01*
X111000000Y-68950000D02*
X109950000Y-68950000D01*
X105450000Y-68950000D02*
X104900000Y-68950000D01*
X106400000Y-68000000D02*
X105450000Y-68950000D01*
X109000000Y-68000000D02*
X106400000Y-68000000D01*
X109950000Y-68950000D02*
X109000000Y-68000000D01*
X111050000Y-68950000D02*
X111000000Y-68950000D01*
X125500000Y-68950000D02*
X124550000Y-68950000D01*
X120800000Y-68000000D02*
X119850000Y-68950000D01*
X123600000Y-68000000D02*
X120800000Y-68000000D01*
X124550000Y-68950000D02*
X123600000Y-68000000D01*
X119850000Y-68950000D02*
X119400000Y-68850000D01*
X140500000Y-68950000D02*
X138550000Y-68950000D01*
X134450000Y-68950000D02*
X133900000Y-68850000D01*
X135400000Y-68000000D02*
X134450000Y-68950000D01*
X137600000Y-68000000D02*
X135400000Y-68000000D01*
X138550000Y-68950000D02*
X137600000Y-68000000D01*
X140500000Y-68900000D02*
X140500000Y-68950000D01*
X155000000Y-68950000D02*
X153350000Y-68950000D01*
X153350000Y-68950000D02*
X152400000Y-68000000D01*
X152400000Y-68000000D02*
X150000000Y-68000000D01*
X150000000Y-68000000D02*
X149300000Y-68700000D01*
X149300000Y-68700000D02*
X149050000Y-68950000D01*
X149050000Y-68950000D02*
X148400000Y-68850000D01*
X169500000Y-68950000D02*
X168150000Y-68950000D01*
X163800000Y-68600000D02*
X163400000Y-69000000D01*
X164400000Y-68000000D02*
X163800000Y-68600000D01*
X167200000Y-68000000D02*
X164400000Y-68000000D01*
X168150000Y-68950000D02*
X167200000Y-68000000D01*
X163400000Y-69000000D02*
X162950000Y-69000000D01*
X162950000Y-69000000D02*
X162900000Y-68950000D01*
X169500000Y-68900000D02*
X169500000Y-68950000D01*
X184000000Y-68950000D02*
X182150000Y-68950000D01*
X182150000Y-68950000D02*
X181400000Y-68200000D01*
X181400000Y-68200000D02*
X178800000Y-68200000D01*
X178800000Y-68200000D02*
X178050000Y-68950000D01*
X178050000Y-68950000D02*
X177400000Y-68950000D01*
X198500000Y-68950000D02*
X197150000Y-68950000D01*
X197150000Y-68950000D02*
X196200000Y-68000000D01*
X196200000Y-68000000D02*
X194000000Y-68000000D01*
X194000000Y-68000000D02*
X193050000Y-68950000D01*
X193050000Y-68950000D02*
X192400000Y-68950000D01*
X198650000Y-68950000D02*
X198500000Y-68950000D01*
X207400000Y-68950000D02*
X208250000Y-68950000D01*
X208250000Y-68950000D02*
X208400000Y-68800000D01*
X208400000Y-68800000D02*
X208400000Y-68400000D01*
X208400000Y-68400000D02*
X208800000Y-68000000D01*
X208800000Y-68000000D02*
X210800000Y-68000000D01*
X210800000Y-68000000D02*
X211750000Y-68950000D01*
X211750000Y-68950000D02*
X213000000Y-68950000D01*
X213050000Y-68950000D02*
X213000000Y-68950000D01*
X228050000Y-68950000D02*
X228000000Y-68950000D01*
X236400000Y-68950000D02*
X237250000Y-68950000D01*
X237250000Y-68950000D02*
X237600000Y-68600000D01*
X237600000Y-68600000D02*
X237600000Y-68200000D01*
X237600000Y-68200000D02*
X237800000Y-68000000D01*
X237800000Y-68000000D02*
X240200000Y-68000000D01*
X240200000Y-68000000D02*
X241150000Y-68950000D01*
X241150000Y-68950000D02*
X242500000Y-68950000D01*
X242500000Y-68900000D02*
X242500000Y-68950000D01*
X96500000Y-68950000D02*
X96850000Y-68950000D01*
X104900000Y-68000000D02*
X104000000Y-68000000D01*
X103450000Y-68950000D02*
X100499240Y-68950000D01*
X103600000Y-68800000D02*
X103450000Y-68950000D01*
X103600000Y-68400000D02*
X103600000Y-68800000D01*
X104000000Y-68000000D02*
X103600000Y-68400000D01*
X100499240Y-68950000D02*
X98650000Y-68950000D01*
X98650000Y-68950000D02*
X98500000Y-69100000D01*
X98650000Y-68950000D02*
X98500000Y-69100000D01*
X115099240Y-68950000D02*
X113150000Y-68950000D01*
X113150000Y-68950000D02*
X113000000Y-69100000D01*
X119400000Y-68000000D02*
X118800000Y-68000000D01*
X117800000Y-69000000D02*
X115149240Y-69000000D01*
X118800000Y-68000000D02*
X117800000Y-69000000D01*
X115149240Y-69000000D02*
X115099240Y-68950000D01*
X133900000Y-68000000D02*
X133000000Y-68000000D01*
X132400000Y-69000000D02*
X129749240Y-69000000D01*
X132600000Y-68800000D02*
X132400000Y-69000000D01*
X132600000Y-68400000D02*
X132600000Y-68800000D01*
X133000000Y-68000000D02*
X132600000Y-68400000D01*
X129749240Y-69000000D02*
X129699240Y-68950000D01*
X129699240Y-68950000D02*
X127650000Y-68950000D01*
X127650000Y-68950000D02*
X127500000Y-69100000D01*
X148400000Y-68000000D02*
X147800000Y-68000000D01*
X146850000Y-68950000D02*
X144299240Y-68950000D01*
X147800000Y-68000000D02*
X146850000Y-68950000D01*
X144299240Y-68950000D02*
X142650000Y-68950000D01*
X142650000Y-68950000D02*
X142500000Y-69100000D01*
X162900000Y-68000000D02*
X162400000Y-68000000D01*
X162400000Y-68000000D02*
X161450000Y-68950000D01*
X161450000Y-68950000D02*
X158899240Y-68950000D01*
X158899240Y-68950000D02*
X157150000Y-68950000D01*
X157150000Y-68950000D02*
X157000000Y-69100000D01*
X177400000Y-68000000D02*
X176900000Y-68000000D01*
X176900000Y-68000000D02*
X175950000Y-68950000D01*
X175950000Y-68950000D02*
X173499240Y-68950000D01*
X173499240Y-68950000D02*
X171650000Y-68950000D01*
X171650000Y-68950000D02*
X171500000Y-69100000D01*
X188099240Y-68950000D02*
X186150000Y-68950000D01*
X186150000Y-68950000D02*
X186000000Y-69100000D01*
X192400000Y-68000000D02*
X191600000Y-68000000D01*
X190650000Y-68950000D02*
X188099240Y-68950000D01*
X191600000Y-68000000D02*
X190650000Y-68950000D01*
X186150000Y-68950000D02*
X186000000Y-69100000D01*
X207400000Y-68000000D02*
X206400000Y-68000000D01*
X205450000Y-68950000D02*
X202699240Y-68950000D01*
X206400000Y-68000000D02*
X205450000Y-68950000D01*
X202699240Y-68950000D02*
X200650000Y-68950000D01*
X200650000Y-68950000D02*
X200500000Y-69100000D01*
X217299240Y-68950000D02*
X215150000Y-68950000D01*
X215150000Y-68950000D02*
X215000000Y-69100000D01*
X221900000Y-68000000D02*
X221000000Y-68000000D01*
X220000000Y-69000000D02*
X217349240Y-69000000D01*
X221000000Y-68000000D02*
X220000000Y-69000000D01*
X217349240Y-69000000D02*
X217299240Y-68950000D01*
X236400000Y-68000000D02*
X235400000Y-68000000D01*
X234450000Y-68950000D02*
X231899240Y-68950000D01*
X235400000Y-68000000D02*
X234450000Y-68950000D01*
X231899240Y-68950000D02*
X230150000Y-68950000D01*
X230150000Y-68950000D02*
X230000000Y-69100000D01*
X246499240Y-68950000D02*
X244650000Y-68950000D01*
X244650000Y-68950000D02*
X244500000Y-69100000D01*
X250800000Y-68000000D02*
X249800000Y-68000000D01*
X249250000Y-68950000D02*
X246499240Y-68950000D01*
X249500000Y-68700000D02*
X249250000Y-68950000D01*
X249500000Y-68300000D02*
X249500000Y-68700000D01*
X249800000Y-68000000D02*
X249500000Y-68300000D01*
X257150000Y-68950000D02*
X258100000Y-68000000D01*
X258100000Y-68000000D02*
X260300000Y-68000000D01*
X260300000Y-68000000D02*
X261200000Y-68900000D01*
X257150000Y-68950000D02*
X253000000Y-68950000D01*
D18*
G36*
X154021838Y-67885317D02*
X154088329Y-67988646D01*
X154086673Y-67990302D01*
X153990000Y-68223691D01*
X153990000Y-68664250D01*
X154148750Y-68823000D01*
X154873000Y-68823000D01*
X154873000Y-68803000D01*
X155127000Y-68803000D01*
X155127000Y-68823000D01*
X155147000Y-68823000D01*
X155147000Y-69077000D01*
X155127000Y-69077000D01*
X155127000Y-69097000D01*
X154873000Y-69097000D01*
X154873000Y-69077000D01*
X154148750Y-69077000D01*
X153990000Y-69235750D01*
X153990000Y-69290000D01*
X151774402Y-69290000D01*
X151777440Y-69275000D01*
X151777440Y-68625000D01*
X151733162Y-68389683D01*
X151594090Y-68173559D01*
X151381890Y-68028569D01*
X151244880Y-68000824D01*
X151365317Y-67978162D01*
X151581441Y-67839090D01*
X151601317Y-67810000D01*
X154007666Y-67810000D01*
X154021838Y-67885317D01*
X154021838Y-67885317D01*
G37*
X154021838Y-67885317D02*
X154088329Y-67988646D01*
X154086673Y-67990302D01*
X153990000Y-68223691D01*
X153990000Y-68664250D01*
X154148750Y-68823000D01*
X154873000Y-68823000D01*
X154873000Y-68803000D01*
X155127000Y-68803000D01*
X155127000Y-68823000D01*
X155147000Y-68823000D01*
X155147000Y-69077000D01*
X155127000Y-69077000D01*
X155127000Y-69097000D01*
X154873000Y-69097000D01*
X154873000Y-69077000D01*
X154148750Y-69077000D01*
X153990000Y-69235750D01*
X153990000Y-69290000D01*
X151774402Y-69290000D01*
X151777440Y-69275000D01*
X151777440Y-68625000D01*
X151733162Y-68389683D01*
X151594090Y-68173559D01*
X151381890Y-68028569D01*
X151244880Y-68000824D01*
X151365317Y-67978162D01*
X151581441Y-67839090D01*
X151601317Y-67810000D01*
X154007666Y-67810000D01*
X154021838Y-67885317D01*
G36*
X197521838Y-67885317D02*
X197588329Y-67988646D01*
X197586673Y-67990302D01*
X197490000Y-68223691D01*
X197490000Y-68664250D01*
X197648750Y-68823000D01*
X198373000Y-68823000D01*
X198373000Y-68803000D01*
X198627000Y-68803000D01*
X198627000Y-68823000D01*
X198647000Y-68823000D01*
X198647000Y-69077000D01*
X198627000Y-69077000D01*
X198627000Y-69097000D01*
X198373000Y-69097000D01*
X198373000Y-69077000D01*
X197648750Y-69077000D01*
X197490000Y-69235750D01*
X197490000Y-69290000D01*
X195774402Y-69290000D01*
X195777440Y-69275000D01*
X195777440Y-68625000D01*
X195733162Y-68389683D01*
X195594090Y-68173559D01*
X195381890Y-68028569D01*
X195244880Y-68000824D01*
X195365317Y-67978162D01*
X195581441Y-67839090D01*
X195601317Y-67810000D01*
X197507666Y-67810000D01*
X197521838Y-67885317D01*
X197521838Y-67885317D01*
G37*
X197521838Y-67885317D02*
X197588329Y-67988646D01*
X197586673Y-67990302D01*
X197490000Y-68223691D01*
X197490000Y-68664250D01*
X197648750Y-68823000D01*
X198373000Y-68823000D01*
X198373000Y-68803000D01*
X198627000Y-68803000D01*
X198627000Y-68823000D01*
X198647000Y-68823000D01*
X198647000Y-69077000D01*
X198627000Y-69077000D01*
X198627000Y-69097000D01*
X198373000Y-69097000D01*
X198373000Y-69077000D01*
X197648750Y-69077000D01*
X197490000Y-69235750D01*
X197490000Y-69290000D01*
X195774402Y-69290000D01*
X195777440Y-69275000D01*
X195777440Y-68625000D01*
X195733162Y-68389683D01*
X195594090Y-68173559D01*
X195381890Y-68028569D01*
X195244880Y-68000824D01*
X195365317Y-67978162D01*
X195581441Y-67839090D01*
X195601317Y-67810000D01*
X197507666Y-67810000D01*
X197521838Y-67885317D01*
G36*
X241521838Y-67885317D02*
X241588329Y-67988646D01*
X241586673Y-67990302D01*
X241490000Y-68223691D01*
X241490000Y-68664250D01*
X241648750Y-68823000D01*
X242373000Y-68823000D01*
X242373000Y-68803000D01*
X242627000Y-68803000D01*
X242627000Y-68823000D01*
X242647000Y-68823000D01*
X242647000Y-69077000D01*
X242627000Y-69077000D01*
X242627000Y-69097000D01*
X242373000Y-69097000D01*
X242373000Y-69077000D01*
X241648750Y-69077000D01*
X241490000Y-69235750D01*
X241490000Y-69290000D01*
X239774402Y-69290000D01*
X239777440Y-69275000D01*
X239777440Y-68625000D01*
X239733162Y-68389683D01*
X239594090Y-68173559D01*
X239381890Y-68028569D01*
X239244880Y-68000824D01*
X239365317Y-67978162D01*
X239581441Y-67839090D01*
X239601317Y-67810000D01*
X241507666Y-67810000D01*
X241521838Y-67885317D01*
X241521838Y-67885317D01*
G37*
X241521838Y-67885317D02*
X241588329Y-67988646D01*
X241586673Y-67990302D01*
X241490000Y-68223691D01*
X241490000Y-68664250D01*
X241648750Y-68823000D01*
X242373000Y-68823000D01*
X242373000Y-68803000D01*
X242627000Y-68803000D01*
X242627000Y-68823000D01*
X242647000Y-68823000D01*
X242647000Y-69077000D01*
X242627000Y-69077000D01*
X242627000Y-69097000D01*
X242373000Y-69097000D01*
X242373000Y-69077000D01*
X241648750Y-69077000D01*
X241490000Y-69235750D01*
X241490000Y-69290000D01*
X239774402Y-69290000D01*
X239777440Y-69275000D01*
X239777440Y-68625000D01*
X239733162Y-68389683D01*
X239594090Y-68173559D01*
X239381890Y-68028569D01*
X239244880Y-68000824D01*
X239365317Y-67978162D01*
X239581441Y-67839090D01*
X239601317Y-67810000D01*
X241507666Y-67810000D01*
X241521838Y-67885317D01*
G36*
X93464803Y-67124775D02*
X93637233Y-67542086D01*
X93956235Y-67861645D01*
X94373244Y-68034803D01*
X94824775Y-68035197D01*
X95242086Y-67862767D01*
X95477560Y-67627703D01*
X95477560Y-67650000D01*
X95521838Y-67885317D01*
X95588329Y-67988646D01*
X95586673Y-67990302D01*
X95490000Y-68223691D01*
X95490000Y-68664250D01*
X95648750Y-68823000D01*
X96373000Y-68823000D01*
X96373000Y-68803000D01*
X96627000Y-68803000D01*
X96627000Y-68823000D01*
X96647000Y-68823000D01*
X96647000Y-69077000D01*
X96627000Y-69077000D01*
X96627000Y-69097000D01*
X96373000Y-69097000D01*
X96373000Y-69077000D01*
X95648750Y-69077000D01*
X95490000Y-69235750D01*
X95490000Y-69290000D01*
X94025494Y-69290000D01*
X94134803Y-69026756D01*
X94135197Y-68575225D01*
X93962767Y-68157914D01*
X93643765Y-67838355D01*
X93226756Y-67665197D01*
X92775225Y-67664803D01*
X92357914Y-67837233D01*
X92099830Y-68094867D01*
X91889730Y-67884400D01*
X91942086Y-67862767D01*
X92261645Y-67543765D01*
X92434803Y-67126756D01*
X92435167Y-66710000D01*
X93465165Y-66710000D01*
X93464803Y-67124775D01*
X93464803Y-67124775D01*
G37*
X93464803Y-67124775D02*
X93637233Y-67542086D01*
X93956235Y-67861645D01*
X94373244Y-68034803D01*
X94824775Y-68035197D01*
X95242086Y-67862767D01*
X95477560Y-67627703D01*
X95477560Y-67650000D01*
X95521838Y-67885317D01*
X95588329Y-67988646D01*
X95586673Y-67990302D01*
X95490000Y-68223691D01*
X95490000Y-68664250D01*
X95648750Y-68823000D01*
X96373000Y-68823000D01*
X96373000Y-68803000D01*
X96627000Y-68803000D01*
X96627000Y-68823000D01*
X96647000Y-68823000D01*
X96647000Y-69077000D01*
X96627000Y-69077000D01*
X96627000Y-69097000D01*
X96373000Y-69097000D01*
X96373000Y-69077000D01*
X95648750Y-69077000D01*
X95490000Y-69235750D01*
X95490000Y-69290000D01*
X94025494Y-69290000D01*
X94134803Y-69026756D01*
X94135197Y-68575225D01*
X93962767Y-68157914D01*
X93643765Y-67838355D01*
X93226756Y-67665197D01*
X92775225Y-67664803D01*
X92357914Y-67837233D01*
X92099830Y-68094867D01*
X91889730Y-67884400D01*
X91942086Y-67862767D01*
X92261645Y-67543765D01*
X92434803Y-67126756D01*
X92435167Y-66710000D01*
X93465165Y-66710000D01*
X93464803Y-67124775D01*
G36*
X139521838Y-67885317D02*
X139588329Y-67988646D01*
X139586673Y-67990302D01*
X139490000Y-68223691D01*
X139490000Y-68664250D01*
X139648750Y-68823000D01*
X140373000Y-68823000D01*
X140373000Y-68803000D01*
X140627000Y-68803000D01*
X140627000Y-68823000D01*
X140647000Y-68823000D01*
X140647000Y-69077000D01*
X140627000Y-69077000D01*
X140627000Y-69097000D01*
X140373000Y-69097000D01*
X140373000Y-69077000D01*
X139648750Y-69077000D01*
X139490000Y-69235750D01*
X139490000Y-69290000D01*
X137274402Y-69290000D01*
X137277440Y-69275000D01*
X137277440Y-68625000D01*
X137233162Y-68389683D01*
X137094090Y-68173559D01*
X136881890Y-68028569D01*
X136744880Y-68000824D01*
X136865317Y-67978162D01*
X137081441Y-67839090D01*
X137101317Y-67810000D01*
X139507666Y-67810000D01*
X139521838Y-67885317D01*
X139521838Y-67885317D01*
G37*
X139521838Y-67885317D02*
X139588329Y-67988646D01*
X139586673Y-67990302D01*
X139490000Y-68223691D01*
X139490000Y-68664250D01*
X139648750Y-68823000D01*
X140373000Y-68823000D01*
X140373000Y-68803000D01*
X140627000Y-68803000D01*
X140627000Y-68823000D01*
X140647000Y-68823000D01*
X140647000Y-69077000D01*
X140627000Y-69077000D01*
X140627000Y-69097000D01*
X140373000Y-69097000D01*
X140373000Y-69077000D01*
X139648750Y-69077000D01*
X139490000Y-69235750D01*
X139490000Y-69290000D01*
X137274402Y-69290000D01*
X137277440Y-69275000D01*
X137277440Y-68625000D01*
X137233162Y-68389683D01*
X137094090Y-68173559D01*
X136881890Y-68028569D01*
X136744880Y-68000824D01*
X136865317Y-67978162D01*
X137081441Y-67839090D01*
X137101317Y-67810000D01*
X139507666Y-67810000D01*
X139521838Y-67885317D01*
G36*
X110021838Y-67885317D02*
X110088329Y-67988646D01*
X110086673Y-67990302D01*
X109990000Y-68223691D01*
X109990000Y-68664250D01*
X110148750Y-68823000D01*
X110873000Y-68823000D01*
X110873000Y-68803000D01*
X111127000Y-68803000D01*
X111127000Y-68823000D01*
X111147000Y-68823000D01*
X111147000Y-69077000D01*
X111127000Y-69077000D01*
X111127000Y-69097000D01*
X110873000Y-69097000D01*
X110873000Y-69077000D01*
X110148750Y-69077000D01*
X109990000Y-69235750D01*
X109990000Y-69290000D01*
X108274402Y-69290000D01*
X108277440Y-69275000D01*
X108277440Y-68625000D01*
X108233162Y-68389683D01*
X108094090Y-68173559D01*
X107881890Y-68028569D01*
X107744880Y-68000824D01*
X107865317Y-67978162D01*
X108081441Y-67839090D01*
X108101317Y-67810000D01*
X110007666Y-67810000D01*
X110021838Y-67885317D01*
X110021838Y-67885317D01*
G37*
X110021838Y-67885317D02*
X110088329Y-67988646D01*
X110086673Y-67990302D01*
X109990000Y-68223691D01*
X109990000Y-68664250D01*
X110148750Y-68823000D01*
X110873000Y-68823000D01*
X110873000Y-68803000D01*
X111127000Y-68803000D01*
X111127000Y-68823000D01*
X111147000Y-68823000D01*
X111147000Y-69077000D01*
X111127000Y-69077000D01*
X111127000Y-69097000D01*
X110873000Y-69097000D01*
X110873000Y-69077000D01*
X110148750Y-69077000D01*
X109990000Y-69235750D01*
X109990000Y-69290000D01*
X108274402Y-69290000D01*
X108277440Y-69275000D01*
X108277440Y-68625000D01*
X108233162Y-68389683D01*
X108094090Y-68173559D01*
X107881890Y-68028569D01*
X107744880Y-68000824D01*
X107865317Y-67978162D01*
X108081441Y-67839090D01*
X108101317Y-67810000D01*
X110007666Y-67810000D01*
X110021838Y-67885317D01*
G36*
X183021838Y-67885317D02*
X183088329Y-67988646D01*
X183086673Y-67990302D01*
X182990000Y-68223691D01*
X182990000Y-68664250D01*
X183148750Y-68823000D01*
X183873000Y-68823000D01*
X183873000Y-68803000D01*
X184127000Y-68803000D01*
X184127000Y-68823000D01*
X184147000Y-68823000D01*
X184147000Y-69077000D01*
X184127000Y-69077000D01*
X184127000Y-69097000D01*
X183873000Y-69097000D01*
X183873000Y-69077000D01*
X183148750Y-69077000D01*
X182990000Y-69235750D01*
X182990000Y-69290000D01*
X180774402Y-69290000D01*
X180777440Y-69275000D01*
X180777440Y-68625000D01*
X180733162Y-68389683D01*
X180594090Y-68173559D01*
X180381890Y-68028569D01*
X180244880Y-68000824D01*
X180365317Y-67978162D01*
X180581441Y-67839090D01*
X180601317Y-67810000D01*
X183007666Y-67810000D01*
X183021838Y-67885317D01*
X183021838Y-67885317D01*
G37*
X183021838Y-67885317D02*
X183088329Y-67988646D01*
X183086673Y-67990302D01*
X182990000Y-68223691D01*
X182990000Y-68664250D01*
X183148750Y-68823000D01*
X183873000Y-68823000D01*
X183873000Y-68803000D01*
X184127000Y-68803000D01*
X184127000Y-68823000D01*
X184147000Y-68823000D01*
X184147000Y-69077000D01*
X184127000Y-69077000D01*
X184127000Y-69097000D01*
X183873000Y-69097000D01*
X183873000Y-69077000D01*
X183148750Y-69077000D01*
X182990000Y-69235750D01*
X182990000Y-69290000D01*
X180774402Y-69290000D01*
X180777440Y-69275000D01*
X180777440Y-68625000D01*
X180733162Y-68389683D01*
X180594090Y-68173559D01*
X180381890Y-68028569D01*
X180244880Y-68000824D01*
X180365317Y-67978162D01*
X180581441Y-67839090D01*
X180601317Y-67810000D01*
X183007666Y-67810000D01*
X183021838Y-67885317D01*
G36*
X124521838Y-67885317D02*
X124588329Y-67988646D01*
X124586673Y-67990302D01*
X124490000Y-68223691D01*
X124490000Y-68664250D01*
X124648750Y-68823000D01*
X125373000Y-68823000D01*
X125373000Y-68803000D01*
X125627000Y-68803000D01*
X125627000Y-68823000D01*
X125647000Y-68823000D01*
X125647000Y-69077000D01*
X125627000Y-69077000D01*
X125627000Y-69097000D01*
X125373000Y-69097000D01*
X125373000Y-69077000D01*
X124648750Y-69077000D01*
X124490000Y-69235750D01*
X124490000Y-69290000D01*
X122774402Y-69290000D01*
X122777440Y-69275000D01*
X122777440Y-68625000D01*
X122733162Y-68389683D01*
X122594090Y-68173559D01*
X122381890Y-68028569D01*
X122244880Y-68000824D01*
X122365317Y-67978162D01*
X122581441Y-67839090D01*
X122601317Y-67810000D01*
X124507666Y-67810000D01*
X124521838Y-67885317D01*
X124521838Y-67885317D01*
G37*
X124521838Y-67885317D02*
X124588329Y-67988646D01*
X124586673Y-67990302D01*
X124490000Y-68223691D01*
X124490000Y-68664250D01*
X124648750Y-68823000D01*
X125373000Y-68823000D01*
X125373000Y-68803000D01*
X125627000Y-68803000D01*
X125627000Y-68823000D01*
X125647000Y-68823000D01*
X125647000Y-69077000D01*
X125627000Y-69077000D01*
X125627000Y-69097000D01*
X125373000Y-69097000D01*
X125373000Y-69077000D01*
X124648750Y-69077000D01*
X124490000Y-69235750D01*
X124490000Y-69290000D01*
X122774402Y-69290000D01*
X122777440Y-69275000D01*
X122777440Y-68625000D01*
X122733162Y-68389683D01*
X122594090Y-68173559D01*
X122381890Y-68028569D01*
X122244880Y-68000824D01*
X122365317Y-67978162D01*
X122581441Y-67839090D01*
X122601317Y-67810000D01*
X124507666Y-67810000D01*
X124521838Y-67885317D01*
G36*
X212021838Y-67885317D02*
X212088329Y-67988646D01*
X212086673Y-67990302D01*
X211990000Y-68223691D01*
X211990000Y-68664250D01*
X212148750Y-68823000D01*
X212873000Y-68823000D01*
X212873000Y-68803000D01*
X213127000Y-68803000D01*
X213127000Y-68823000D01*
X213147000Y-68823000D01*
X213147000Y-69077000D01*
X213127000Y-69077000D01*
X213127000Y-69097000D01*
X212873000Y-69097000D01*
X212873000Y-69077000D01*
X212148750Y-69077000D01*
X211990000Y-69235750D01*
X211990000Y-69290000D01*
X210774402Y-69290000D01*
X210777440Y-69275000D01*
X210777440Y-68625000D01*
X210733162Y-68389683D01*
X210594090Y-68173559D01*
X210381890Y-68028569D01*
X210244880Y-68000824D01*
X210365317Y-67978162D01*
X210581441Y-67839090D01*
X210601317Y-67810000D01*
X212007666Y-67810000D01*
X212021838Y-67885317D01*
X212021838Y-67885317D01*
G37*
X212021838Y-67885317D02*
X212088329Y-67988646D01*
X212086673Y-67990302D01*
X211990000Y-68223691D01*
X211990000Y-68664250D01*
X212148750Y-68823000D01*
X212873000Y-68823000D01*
X212873000Y-68803000D01*
X213127000Y-68803000D01*
X213127000Y-68823000D01*
X213147000Y-68823000D01*
X213147000Y-69077000D01*
X213127000Y-69077000D01*
X213127000Y-69097000D01*
X212873000Y-69097000D01*
X212873000Y-69077000D01*
X212148750Y-69077000D01*
X211990000Y-69235750D01*
X211990000Y-69290000D01*
X210774402Y-69290000D01*
X210777440Y-69275000D01*
X210777440Y-68625000D01*
X210733162Y-68389683D01*
X210594090Y-68173559D01*
X210381890Y-68028569D01*
X210244880Y-68000824D01*
X210365317Y-67978162D01*
X210581441Y-67839090D01*
X210601317Y-67810000D01*
X212007666Y-67810000D01*
X212021838Y-67885317D01*
G36*
X227021838Y-67885317D02*
X227088329Y-67988646D01*
X227086673Y-67990302D01*
X226990000Y-68223691D01*
X226990000Y-68664250D01*
X227148750Y-68823000D01*
X227873000Y-68823000D01*
X227873000Y-68803000D01*
X228127000Y-68803000D01*
X228127000Y-68823000D01*
X228147000Y-68823000D01*
X228147000Y-69077000D01*
X228127000Y-69077000D01*
X228127000Y-69097000D01*
X227873000Y-69097000D01*
X227873000Y-69077000D01*
X227148750Y-69077000D01*
X226990000Y-69235750D01*
X226990000Y-69290000D01*
X225274402Y-69290000D01*
X225277440Y-69275000D01*
X225277440Y-68625000D01*
X225233162Y-68389683D01*
X225094090Y-68173559D01*
X224881890Y-68028569D01*
X224744880Y-68000824D01*
X224865317Y-67978162D01*
X225081441Y-67839090D01*
X225101317Y-67810000D01*
X227007666Y-67810000D01*
X227021838Y-67885317D01*
X227021838Y-67885317D01*
G37*
X227021838Y-67885317D02*
X227088329Y-67988646D01*
X227086673Y-67990302D01*
X226990000Y-68223691D01*
X226990000Y-68664250D01*
X227148750Y-68823000D01*
X227873000Y-68823000D01*
X227873000Y-68803000D01*
X228127000Y-68803000D01*
X228127000Y-68823000D01*
X228147000Y-68823000D01*
X228147000Y-69077000D01*
X228127000Y-69077000D01*
X228127000Y-69097000D01*
X227873000Y-69097000D01*
X227873000Y-69077000D01*
X227148750Y-69077000D01*
X226990000Y-69235750D01*
X226990000Y-69290000D01*
X225274402Y-69290000D01*
X225277440Y-69275000D01*
X225277440Y-68625000D01*
X225233162Y-68389683D01*
X225094090Y-68173559D01*
X224881890Y-68028569D01*
X224744880Y-68000824D01*
X224865317Y-67978162D01*
X225081441Y-67839090D01*
X225101317Y-67810000D01*
X227007666Y-67810000D01*
X227021838Y-67885317D01*
G36*
X168521838Y-67885317D02*
X168588329Y-67988646D01*
X168586673Y-67990302D01*
X168490000Y-68223691D01*
X168490000Y-68664250D01*
X168648750Y-68823000D01*
X169373000Y-68823000D01*
X169373000Y-68803000D01*
X169627000Y-68803000D01*
X169627000Y-68823000D01*
X169647000Y-68823000D01*
X169647000Y-69077000D01*
X169627000Y-69077000D01*
X169627000Y-69097000D01*
X169373000Y-69097000D01*
X169373000Y-69077000D01*
X168648750Y-69077000D01*
X168490000Y-69235750D01*
X168490000Y-69290000D01*
X166274402Y-69290000D01*
X166277440Y-69275000D01*
X166277440Y-68625000D01*
X166233162Y-68389683D01*
X166094090Y-68173559D01*
X165881890Y-68028569D01*
X165744880Y-68000824D01*
X165865317Y-67978162D01*
X166081441Y-67839090D01*
X166101317Y-67810000D01*
X168507666Y-67810000D01*
X168521838Y-67885317D01*
X168521838Y-67885317D01*
G37*
X168521838Y-67885317D02*
X168588329Y-67988646D01*
X168586673Y-67990302D01*
X168490000Y-68223691D01*
X168490000Y-68664250D01*
X168648750Y-68823000D01*
X169373000Y-68823000D01*
X169373000Y-68803000D01*
X169627000Y-68803000D01*
X169627000Y-68823000D01*
X169647000Y-68823000D01*
X169647000Y-69077000D01*
X169627000Y-69077000D01*
X169627000Y-69097000D01*
X169373000Y-69097000D01*
X169373000Y-69077000D01*
X168648750Y-69077000D01*
X168490000Y-69235750D01*
X168490000Y-69290000D01*
X166274402Y-69290000D01*
X166277440Y-69275000D01*
X166277440Y-68625000D01*
X166233162Y-68389683D01*
X166094090Y-68173559D01*
X165881890Y-68028569D01*
X165744880Y-68000824D01*
X165865317Y-67978162D01*
X166081441Y-67839090D01*
X166101317Y-67810000D01*
X168507666Y-67810000D01*
X168521838Y-67885317D01*
G36*
X222047000Y-69077000D02*
X222027000Y-69077000D01*
X222027000Y-69097000D01*
X221773000Y-69097000D01*
X221773000Y-69077000D01*
X221753000Y-69077000D01*
X221753000Y-68972440D01*
X222047000Y-68972440D01*
X222047000Y-69077000D01*
X222047000Y-69077000D01*
G37*
X222047000Y-69077000D02*
X222027000Y-69077000D01*
X222027000Y-69097000D01*
X221773000Y-69097000D01*
X221773000Y-69077000D01*
X221753000Y-69077000D01*
X221753000Y-68972440D01*
X222047000Y-68972440D01*
X222047000Y-69077000D01*
G36*
X163047000Y-69077000D02*
X163027000Y-69077000D01*
X163027000Y-69097000D01*
X162773000Y-69097000D01*
X162773000Y-69077000D01*
X162753000Y-69077000D01*
X162753000Y-68972440D01*
X163047000Y-68972440D01*
X163047000Y-69077000D01*
X163047000Y-69077000D01*
G37*
X163047000Y-69077000D02*
X163027000Y-69077000D01*
X163027000Y-69097000D01*
X162773000Y-69097000D01*
X162773000Y-69077000D01*
X162753000Y-69077000D01*
X162753000Y-68972440D01*
X163047000Y-68972440D01*
X163047000Y-69077000D01*
G36*
X105047000Y-69077000D02*
X105027000Y-69077000D01*
X105027000Y-69097000D01*
X104773000Y-69097000D01*
X104773000Y-69077000D01*
X104753000Y-69077000D01*
X104753000Y-68972440D01*
X105047000Y-68972440D01*
X105047000Y-69077000D01*
X105047000Y-69077000D01*
G37*
X105047000Y-69077000D02*
X105027000Y-69077000D01*
X105027000Y-69097000D01*
X104773000Y-69097000D01*
X104773000Y-69077000D01*
X104753000Y-69077000D01*
X104753000Y-68972440D01*
X105047000Y-68972440D01*
X105047000Y-69077000D01*
G36*
X87793748Y-68685858D02*
X87779605Y-68700000D01*
X87793748Y-68714143D01*
X87614143Y-68893748D01*
X87600000Y-68879605D01*
X87585858Y-68893748D01*
X87406253Y-68714143D01*
X87420395Y-68700000D01*
X87406253Y-68685858D01*
X87585858Y-68506253D01*
X87600000Y-68520395D01*
X87614143Y-68506253D01*
X87793748Y-68685858D01*
X87793748Y-68685858D01*
G37*
X87793748Y-68685858D02*
X87779605Y-68700000D01*
X87793748Y-68714143D01*
X87614143Y-68893748D01*
X87600000Y-68879605D01*
X87585858Y-68893748D01*
X87406253Y-68714143D01*
X87420395Y-68700000D01*
X87406253Y-68685858D01*
X87585858Y-68506253D01*
X87600000Y-68520395D01*
X87614143Y-68506253D01*
X87793748Y-68685858D01*
G36*
X220722560Y-66725000D02*
X220722560Y-67295187D01*
X220709161Y-67297852D01*
X220462599Y-67462599D01*
X220333270Y-67591928D01*
X220333270Y-67473641D01*
X220236597Y-67240252D01*
X220057969Y-67061623D01*
X219824580Y-66964950D01*
X219583970Y-66964950D01*
X219425220Y-67123700D01*
X219425220Y-67873000D01*
X219445220Y-67873000D01*
X219445220Y-68127000D01*
X219425220Y-68127000D01*
X219425220Y-68147000D01*
X219171220Y-68147000D01*
X219171220Y-68127000D01*
X218421920Y-68127000D01*
X218308920Y-68240000D01*
X218254427Y-68240000D01*
X218163380Y-68098509D01*
X218018283Y-67999368D01*
X218150731Y-67914140D01*
X218277511Y-67728591D01*
X218421920Y-67873000D01*
X219171220Y-67873000D01*
X219171220Y-67123700D01*
X219012470Y-66964950D01*
X218771860Y-66964950D01*
X218538471Y-67061623D01*
X218359843Y-67240252D01*
X218346730Y-67271910D01*
X218346730Y-66710000D01*
X220725598Y-66710000D01*
X220722560Y-66725000D01*
X220722560Y-66725000D01*
G37*
X220722560Y-66725000D02*
X220722560Y-67295187D01*
X220709161Y-67297852D01*
X220462599Y-67462599D01*
X220333270Y-67591928D01*
X220333270Y-67473641D01*
X220236597Y-67240252D01*
X220057969Y-67061623D01*
X219824580Y-66964950D01*
X219583970Y-66964950D01*
X219425220Y-67123700D01*
X219425220Y-67873000D01*
X219445220Y-67873000D01*
X219445220Y-68127000D01*
X219425220Y-68127000D01*
X219425220Y-68147000D01*
X219171220Y-68147000D01*
X219171220Y-68127000D01*
X218421920Y-68127000D01*
X218308920Y-68240000D01*
X218254427Y-68240000D01*
X218163380Y-68098509D01*
X218018283Y-67999368D01*
X218150731Y-67914140D01*
X218277511Y-67728591D01*
X218421920Y-67873000D01*
X219171220Y-67873000D01*
X219171220Y-67123700D01*
X219012470Y-66964950D01*
X218771860Y-66964950D01*
X218538471Y-67061623D01*
X218359843Y-67240252D01*
X218346730Y-67271910D01*
X218346730Y-66710000D01*
X220725598Y-66710000D01*
X220722560Y-66725000D01*
G36*
X118222560Y-66725000D02*
X118222560Y-67375000D01*
X118242773Y-67482425D01*
X118133270Y-67591928D01*
X118133270Y-67473641D01*
X118036597Y-67240252D01*
X117857969Y-67061623D01*
X117624580Y-66964950D01*
X117383970Y-66964950D01*
X117225220Y-67123700D01*
X117225220Y-67873000D01*
X117245220Y-67873000D01*
X117245220Y-68127000D01*
X117225220Y-68127000D01*
X117225220Y-68147000D01*
X116971220Y-68147000D01*
X116971220Y-68127000D01*
X116221920Y-68127000D01*
X116108920Y-68240000D01*
X116054427Y-68240000D01*
X115963380Y-68098509D01*
X115818283Y-67999368D01*
X115950731Y-67914140D01*
X116077511Y-67728591D01*
X116221920Y-67873000D01*
X116971220Y-67873000D01*
X116971220Y-67123700D01*
X116812470Y-66964950D01*
X116571860Y-66964950D01*
X116338471Y-67061623D01*
X116159843Y-67240252D01*
X116146730Y-67271910D01*
X116146730Y-66710000D01*
X118225598Y-66710000D01*
X118222560Y-66725000D01*
X118222560Y-66725000D01*
G37*
X118222560Y-66725000D02*
X118222560Y-67375000D01*
X118242773Y-67482425D01*
X118133270Y-67591928D01*
X118133270Y-67473641D01*
X118036597Y-67240252D01*
X117857969Y-67061623D01*
X117624580Y-66964950D01*
X117383970Y-66964950D01*
X117225220Y-67123700D01*
X117225220Y-67873000D01*
X117245220Y-67873000D01*
X117245220Y-68127000D01*
X117225220Y-68127000D01*
X117225220Y-68147000D01*
X116971220Y-68147000D01*
X116971220Y-68127000D01*
X116221920Y-68127000D01*
X116108920Y-68240000D01*
X116054427Y-68240000D01*
X115963380Y-68098509D01*
X115818283Y-67999368D01*
X115950731Y-67914140D01*
X116077511Y-67728591D01*
X116221920Y-67873000D01*
X116971220Y-67873000D01*
X116971220Y-67123700D01*
X116812470Y-66964950D01*
X116571860Y-66964950D01*
X116338471Y-67061623D01*
X116159843Y-67240252D01*
X116146730Y-67271910D01*
X116146730Y-66710000D01*
X118225598Y-66710000D01*
X118222560Y-66725000D01*
G36*
X132722560Y-66725000D02*
X132722560Y-67295187D01*
X132709160Y-67297852D01*
X132671014Y-67323341D01*
X132636597Y-67240252D01*
X132457969Y-67061623D01*
X132224580Y-66964950D01*
X131983970Y-66964950D01*
X131825220Y-67123700D01*
X131825220Y-67873000D01*
X131845220Y-67873000D01*
X131845220Y-68127000D01*
X131825220Y-68127000D01*
X131825220Y-68147000D01*
X131571220Y-68147000D01*
X131571220Y-68127000D01*
X130821920Y-68127000D01*
X130708920Y-68240000D01*
X130654427Y-68240000D01*
X130563380Y-68098509D01*
X130418283Y-67999368D01*
X130550731Y-67914140D01*
X130677511Y-67728591D01*
X130821920Y-67873000D01*
X131571220Y-67873000D01*
X131571220Y-67123700D01*
X131412470Y-66964950D01*
X131171860Y-66964950D01*
X130938471Y-67061623D01*
X130759843Y-67240252D01*
X130746730Y-67271910D01*
X130746730Y-66710000D01*
X132725598Y-66710000D01*
X132722560Y-66725000D01*
X132722560Y-66725000D01*
G37*
X132722560Y-66725000D02*
X132722560Y-67295187D01*
X132709160Y-67297852D01*
X132671014Y-67323341D01*
X132636597Y-67240252D01*
X132457969Y-67061623D01*
X132224580Y-66964950D01*
X131983970Y-66964950D01*
X131825220Y-67123700D01*
X131825220Y-67873000D01*
X131845220Y-67873000D01*
X131845220Y-68127000D01*
X131825220Y-68127000D01*
X131825220Y-68147000D01*
X131571220Y-68147000D01*
X131571220Y-68127000D01*
X130821920Y-68127000D01*
X130708920Y-68240000D01*
X130654427Y-68240000D01*
X130563380Y-68098509D01*
X130418283Y-67999368D01*
X130550731Y-67914140D01*
X130677511Y-67728591D01*
X130821920Y-67873000D01*
X131571220Y-67873000D01*
X131571220Y-67123700D01*
X131412470Y-66964950D01*
X131171860Y-66964950D01*
X130938471Y-67061623D01*
X130759843Y-67240252D01*
X130746730Y-67271910D01*
X130746730Y-66710000D01*
X132725598Y-66710000D01*
X132722560Y-66725000D01*
G36*
X252218110Y-67971431D02*
X252355120Y-67999176D01*
X252234683Y-68021838D01*
X252018559Y-68160910D01*
X251977440Y-68221090D01*
X251977440Y-67905512D01*
X252000000Y-67910000D01*
X252050000Y-67910000D01*
X252110570Y-67897952D01*
X252218110Y-67971431D01*
X252218110Y-67971431D01*
G37*
X252218110Y-67971431D02*
X252355120Y-67999176D01*
X252234683Y-68021838D01*
X252018559Y-68160910D01*
X251977440Y-68221090D01*
X251977440Y-67905512D01*
X252000000Y-67910000D01*
X252050000Y-67910000D01*
X252110570Y-67897952D01*
X252218110Y-67971431D01*
G36*
X237605910Y-67826441D02*
X237818110Y-67971431D01*
X237955120Y-67999176D01*
X237834683Y-68021838D01*
X237618559Y-68160910D01*
X237577440Y-68221090D01*
X237577440Y-67782197D01*
X237605910Y-67826441D01*
X237605910Y-67826441D01*
G37*
X237605910Y-67826441D02*
X237818110Y-67971431D01*
X237955120Y-67999176D01*
X237834683Y-68021838D01*
X237618559Y-68160910D01*
X237577440Y-68221090D01*
X237577440Y-67782197D01*
X237605910Y-67826441D01*
G36*
X223105910Y-67826441D02*
X223318110Y-67971431D01*
X223455120Y-67999176D01*
X223334683Y-68021838D01*
X223118559Y-68160910D01*
X223077440Y-68221090D01*
X223077440Y-67782197D01*
X223105910Y-67826441D01*
X223105910Y-67826441D01*
G37*
X223105910Y-67826441D02*
X223318110Y-67971431D01*
X223455120Y-67999176D01*
X223334683Y-68021838D01*
X223118559Y-68160910D01*
X223077440Y-68221090D01*
X223077440Y-67782197D01*
X223105910Y-67826441D01*
G36*
X208605910Y-67826441D02*
X208818110Y-67971431D01*
X208955120Y-67999176D01*
X208834683Y-68021838D01*
X208618559Y-68160910D01*
X208577440Y-68221090D01*
X208577440Y-67782197D01*
X208605910Y-67826441D01*
X208605910Y-67826441D01*
G37*
X208605910Y-67826441D02*
X208818110Y-67971431D01*
X208955120Y-67999176D01*
X208834683Y-68021838D01*
X208618559Y-68160910D01*
X208577440Y-68221090D01*
X208577440Y-67782197D01*
X208605910Y-67826441D01*
G36*
X164105910Y-67826441D02*
X164318110Y-67971431D01*
X164455120Y-67999176D01*
X164334683Y-68021838D01*
X164118559Y-68160910D01*
X164077440Y-68221090D01*
X164077440Y-67782197D01*
X164105910Y-67826441D01*
X164105910Y-67826441D01*
G37*
X164105910Y-67826441D02*
X164318110Y-67971431D01*
X164455120Y-67999176D01*
X164334683Y-68021838D01*
X164118559Y-68160910D01*
X164077440Y-68221090D01*
X164077440Y-67782197D01*
X164105910Y-67826441D01*
G36*
X135105910Y-67826441D02*
X135318110Y-67971431D01*
X135455120Y-67999176D01*
X135334683Y-68021838D01*
X135118559Y-68160910D01*
X135077440Y-68221090D01*
X135077440Y-67782197D01*
X135105910Y-67826441D01*
X135105910Y-67826441D01*
G37*
X135105910Y-67826441D02*
X135318110Y-67971431D01*
X135455120Y-67999176D01*
X135334683Y-68021838D01*
X135118559Y-68160910D01*
X135077440Y-68221090D01*
X135077440Y-67782197D01*
X135105910Y-67826441D01*
G36*
X106105910Y-67826441D02*
X106318110Y-67971431D01*
X106455120Y-67999176D01*
X106334683Y-68021838D01*
X106118559Y-68160910D01*
X106077440Y-68221090D01*
X106077440Y-67782197D01*
X106105910Y-67826441D01*
X106105910Y-67826441D01*
G37*
X106105910Y-67826441D02*
X106318110Y-67971431D01*
X106455120Y-67999176D01*
X106334683Y-68021838D01*
X106118559Y-68160910D01*
X106077440Y-68221090D01*
X106077440Y-67782197D01*
X106105910Y-67826441D01*
G36*
X120605910Y-67826441D02*
X120818110Y-67971431D01*
X120955120Y-67999176D01*
X120834683Y-68021838D01*
X120618559Y-68160910D01*
X120577440Y-68221090D01*
X120577440Y-67782197D01*
X120605910Y-67826441D01*
X120605910Y-67826441D01*
G37*
X120605910Y-67826441D02*
X120818110Y-67971431D01*
X120955120Y-67999176D01*
X120834683Y-68021838D01*
X120618559Y-68160910D01*
X120577440Y-68221090D01*
X120577440Y-67782197D01*
X120605910Y-67826441D01*
G36*
X249622560Y-66725000D02*
X249622560Y-67275295D01*
X249509161Y-67297852D01*
X249471014Y-67323341D01*
X249436597Y-67240252D01*
X249257969Y-67061623D01*
X249024580Y-66964950D01*
X248783970Y-66964950D01*
X248625220Y-67123700D01*
X248625220Y-67873000D01*
X248645220Y-67873000D01*
X248645220Y-68127000D01*
X248625220Y-68127000D01*
X248625220Y-68147000D01*
X248371220Y-68147000D01*
X248371220Y-68127000D01*
X247621920Y-68127000D01*
X247558920Y-68190000D01*
X247422253Y-68190000D01*
X247363380Y-68098509D01*
X247218283Y-67999368D01*
X247350731Y-67914140D01*
X247477511Y-67728591D01*
X247621920Y-67873000D01*
X248371220Y-67873000D01*
X248371220Y-67123700D01*
X248212470Y-66964950D01*
X247971860Y-66964950D01*
X247738471Y-67061623D01*
X247559843Y-67240252D01*
X247546730Y-67271910D01*
X247546730Y-66710000D01*
X249625598Y-66710000D01*
X249622560Y-66725000D01*
X249622560Y-66725000D01*
G37*
X249622560Y-66725000D02*
X249622560Y-67275295D01*
X249509161Y-67297852D01*
X249471014Y-67323341D01*
X249436597Y-67240252D01*
X249257969Y-67061623D01*
X249024580Y-66964950D01*
X248783970Y-66964950D01*
X248625220Y-67123700D01*
X248625220Y-67873000D01*
X248645220Y-67873000D01*
X248645220Y-68127000D01*
X248625220Y-68127000D01*
X248625220Y-68147000D01*
X248371220Y-68147000D01*
X248371220Y-68127000D01*
X247621920Y-68127000D01*
X247558920Y-68190000D01*
X247422253Y-68190000D01*
X247363380Y-68098509D01*
X247218283Y-67999368D01*
X247350731Y-67914140D01*
X247477511Y-67728591D01*
X247621920Y-67873000D01*
X248371220Y-67873000D01*
X248371220Y-67123700D01*
X248212470Y-66964950D01*
X247971860Y-66964950D01*
X247738471Y-67061623D01*
X247559843Y-67240252D01*
X247546730Y-67271910D01*
X247546730Y-66710000D01*
X249625598Y-66710000D01*
X249622560Y-66725000D01*
G36*
X176222560Y-66725000D02*
X176222560Y-67046956D01*
X176024580Y-66964950D01*
X175783970Y-66964950D01*
X175625220Y-67123700D01*
X175625220Y-67873000D01*
X175645220Y-67873000D01*
X175645220Y-68127000D01*
X175625220Y-68127000D01*
X175625220Y-68147000D01*
X175371220Y-68147000D01*
X175371220Y-68127000D01*
X174621920Y-68127000D01*
X174558920Y-68190000D01*
X174422253Y-68190000D01*
X174363380Y-68098509D01*
X174218283Y-67999368D01*
X174350731Y-67914140D01*
X174477511Y-67728591D01*
X174621920Y-67873000D01*
X175371220Y-67873000D01*
X175371220Y-67123700D01*
X175212470Y-66964950D01*
X174971860Y-66964950D01*
X174738471Y-67061623D01*
X174559843Y-67240252D01*
X174546730Y-67271910D01*
X174546730Y-66710000D01*
X176225598Y-66710000D01*
X176222560Y-66725000D01*
X176222560Y-66725000D01*
G37*
X176222560Y-66725000D02*
X176222560Y-67046956D01*
X176024580Y-66964950D01*
X175783970Y-66964950D01*
X175625220Y-67123700D01*
X175625220Y-67873000D01*
X175645220Y-67873000D01*
X175645220Y-68127000D01*
X175625220Y-68127000D01*
X175625220Y-68147000D01*
X175371220Y-68147000D01*
X175371220Y-68127000D01*
X174621920Y-68127000D01*
X174558920Y-68190000D01*
X174422253Y-68190000D01*
X174363380Y-68098509D01*
X174218283Y-67999368D01*
X174350731Y-67914140D01*
X174477511Y-67728591D01*
X174621920Y-67873000D01*
X175371220Y-67873000D01*
X175371220Y-67123700D01*
X175212470Y-66964950D01*
X174971860Y-66964950D01*
X174738471Y-67061623D01*
X174559843Y-67240252D01*
X174546730Y-67271910D01*
X174546730Y-66710000D01*
X176225598Y-66710000D01*
X176222560Y-66725000D01*
G36*
X103722560Y-66725000D02*
X103722560Y-67295187D01*
X103709160Y-67297852D01*
X103514368Y-67428008D01*
X103436597Y-67240252D01*
X103257969Y-67061623D01*
X103024580Y-66964950D01*
X102783970Y-66964950D01*
X102625220Y-67123700D01*
X102625220Y-67873000D01*
X102645220Y-67873000D01*
X102645220Y-68127000D01*
X102625220Y-68127000D01*
X102625220Y-68147000D01*
X102371220Y-68147000D01*
X102371220Y-68127000D01*
X101621920Y-68127000D01*
X101558920Y-68190000D01*
X101422253Y-68190000D01*
X101363380Y-68098509D01*
X101218283Y-67999368D01*
X101350731Y-67914140D01*
X101477511Y-67728591D01*
X101621920Y-67873000D01*
X102371220Y-67873000D01*
X102371220Y-67123700D01*
X102212470Y-66964950D01*
X101971860Y-66964950D01*
X101738471Y-67061623D01*
X101559843Y-67240252D01*
X101546730Y-67271910D01*
X101546730Y-66710000D01*
X103725598Y-66710000D01*
X103722560Y-66725000D01*
X103722560Y-66725000D01*
G37*
X103722560Y-66725000D02*
X103722560Y-67295187D01*
X103709160Y-67297852D01*
X103514368Y-67428008D01*
X103436597Y-67240252D01*
X103257969Y-67061623D01*
X103024580Y-66964950D01*
X102783970Y-66964950D01*
X102625220Y-67123700D01*
X102625220Y-67873000D01*
X102645220Y-67873000D01*
X102645220Y-68127000D01*
X102625220Y-68127000D01*
X102625220Y-68147000D01*
X102371220Y-68147000D01*
X102371220Y-68127000D01*
X101621920Y-68127000D01*
X101558920Y-68190000D01*
X101422253Y-68190000D01*
X101363380Y-68098509D01*
X101218283Y-67999368D01*
X101350731Y-67914140D01*
X101477511Y-67728591D01*
X101621920Y-67873000D01*
X102371220Y-67873000D01*
X102371220Y-67123700D01*
X102212470Y-66964950D01*
X101971860Y-66964950D01*
X101738471Y-67061623D01*
X101559843Y-67240252D01*
X101546730Y-67271910D01*
X101546730Y-66710000D01*
X103725598Y-66710000D01*
X103722560Y-66725000D01*
G36*
X256926726Y-67906334D02*
X257013949Y-67819111D01*
X257109934Y-67915264D01*
X256835198Y-68190000D01*
X254004669Y-68190000D01*
X253994090Y-68173559D01*
X253781890Y-68028569D01*
X253644880Y-68000824D01*
X253765317Y-67978162D01*
X253891602Y-67896900D01*
X253956235Y-67961645D01*
X254373244Y-68134803D01*
X254824775Y-68135197D01*
X255242086Y-67962767D01*
X255386022Y-67819082D01*
X255473274Y-67906334D01*
X255589501Y-67790107D01*
X255626648Y-68005217D01*
X256054972Y-68148112D01*
X256505375Y-68116217D01*
X256773352Y-68005217D01*
X256810499Y-67790107D01*
X256926726Y-67906334D01*
X256926726Y-67906334D01*
G37*
X256926726Y-67906334D02*
X257013949Y-67819111D01*
X257109934Y-67915264D01*
X256835198Y-68190000D01*
X254004669Y-68190000D01*
X253994090Y-68173559D01*
X253781890Y-68028569D01*
X253644880Y-68000824D01*
X253765317Y-67978162D01*
X253891602Y-67896900D01*
X253956235Y-67961645D01*
X254373244Y-68134803D01*
X254824775Y-68135197D01*
X255242086Y-67962767D01*
X255386022Y-67819082D01*
X255473274Y-67906334D01*
X255589501Y-67790107D01*
X255626648Y-68005217D01*
X256054972Y-68148112D01*
X256505375Y-68116217D01*
X256773352Y-68005217D01*
X256810499Y-67790107D01*
X256926726Y-67906334D01*
G36*
X191222560Y-66725000D02*
X191222560Y-67355717D01*
X191114368Y-67428008D01*
X191036597Y-67240252D01*
X190857969Y-67061623D01*
X190624580Y-66964950D01*
X190383970Y-66964950D01*
X190225220Y-67123700D01*
X190225220Y-67873000D01*
X190245220Y-67873000D01*
X190245220Y-68127000D01*
X190225220Y-68127000D01*
X190225220Y-68147000D01*
X189971220Y-68147000D01*
X189971220Y-68127000D01*
X189221920Y-68127000D01*
X189158920Y-68190000D01*
X189022253Y-68190000D01*
X188963380Y-68098509D01*
X188818283Y-67999368D01*
X188950731Y-67914140D01*
X189077511Y-67728591D01*
X189221920Y-67873000D01*
X189971220Y-67873000D01*
X189971220Y-67123700D01*
X189812470Y-66964950D01*
X189571860Y-66964950D01*
X189338471Y-67061623D01*
X189159843Y-67240252D01*
X189146730Y-67271910D01*
X189146730Y-66710000D01*
X191225598Y-66710000D01*
X191222560Y-66725000D01*
X191222560Y-66725000D01*
G37*
X191222560Y-66725000D02*
X191222560Y-67355717D01*
X191114368Y-67428008D01*
X191036597Y-67240252D01*
X190857969Y-67061623D01*
X190624580Y-66964950D01*
X190383970Y-66964950D01*
X190225220Y-67123700D01*
X190225220Y-67873000D01*
X190245220Y-67873000D01*
X190245220Y-68127000D01*
X190225220Y-68127000D01*
X190225220Y-68147000D01*
X189971220Y-68147000D01*
X189971220Y-68127000D01*
X189221920Y-68127000D01*
X189158920Y-68190000D01*
X189022253Y-68190000D01*
X188963380Y-68098509D01*
X188818283Y-67999368D01*
X188950731Y-67914140D01*
X189077511Y-67728591D01*
X189221920Y-67873000D01*
X189971220Y-67873000D01*
X189971220Y-67123700D01*
X189812470Y-66964950D01*
X189571860Y-66964950D01*
X189338471Y-67061623D01*
X189159843Y-67240252D01*
X189146730Y-67271910D01*
X189146730Y-66710000D01*
X191225598Y-66710000D01*
X191222560Y-66725000D01*
G36*
X206222560Y-66725000D02*
X206222560Y-67275295D01*
X206109161Y-67297852D01*
X205862599Y-67462599D01*
X205733270Y-67591928D01*
X205733270Y-67473641D01*
X205636597Y-67240252D01*
X205457969Y-67061623D01*
X205224580Y-66964950D01*
X204983970Y-66964950D01*
X204825220Y-67123700D01*
X204825220Y-67873000D01*
X204845220Y-67873000D01*
X204845220Y-68127000D01*
X204825220Y-68127000D01*
X204825220Y-68147000D01*
X204571220Y-68147000D01*
X204571220Y-68127000D01*
X203821920Y-68127000D01*
X203758920Y-68190000D01*
X203622253Y-68190000D01*
X203563380Y-68098509D01*
X203418283Y-67999368D01*
X203550731Y-67914140D01*
X203677511Y-67728591D01*
X203821920Y-67873000D01*
X204571220Y-67873000D01*
X204571220Y-67123700D01*
X204412470Y-66964950D01*
X204171860Y-66964950D01*
X203938471Y-67061623D01*
X203759843Y-67240252D01*
X203746730Y-67271910D01*
X203746730Y-66710000D01*
X206225598Y-66710000D01*
X206222560Y-66725000D01*
X206222560Y-66725000D01*
G37*
X206222560Y-66725000D02*
X206222560Y-67275295D01*
X206109161Y-67297852D01*
X205862599Y-67462599D01*
X205733270Y-67591928D01*
X205733270Y-67473641D01*
X205636597Y-67240252D01*
X205457969Y-67061623D01*
X205224580Y-66964950D01*
X204983970Y-66964950D01*
X204825220Y-67123700D01*
X204825220Y-67873000D01*
X204845220Y-67873000D01*
X204845220Y-68127000D01*
X204825220Y-68127000D01*
X204825220Y-68147000D01*
X204571220Y-68147000D01*
X204571220Y-68127000D01*
X203821920Y-68127000D01*
X203758920Y-68190000D01*
X203622253Y-68190000D01*
X203563380Y-68098509D01*
X203418283Y-67999368D01*
X203550731Y-67914140D01*
X203677511Y-67728591D01*
X203821920Y-67873000D01*
X204571220Y-67873000D01*
X204571220Y-67123700D01*
X204412470Y-66964950D01*
X204171860Y-66964950D01*
X203938471Y-67061623D01*
X203759843Y-67240252D01*
X203746730Y-67271910D01*
X203746730Y-66710000D01*
X206225598Y-66710000D01*
X206222560Y-66725000D01*
G36*
X147222560Y-66725000D02*
X147222560Y-67226215D01*
X147057969Y-67061623D01*
X146824580Y-66964950D01*
X146583970Y-66964950D01*
X146425220Y-67123700D01*
X146425220Y-67873000D01*
X146445220Y-67873000D01*
X146445220Y-68127000D01*
X146425220Y-68127000D01*
X146425220Y-68147000D01*
X146171220Y-68147000D01*
X146171220Y-68127000D01*
X145421920Y-68127000D01*
X145358920Y-68190000D01*
X145222253Y-68190000D01*
X145163380Y-68098509D01*
X145018283Y-67999368D01*
X145150731Y-67914140D01*
X145277511Y-67728591D01*
X145421920Y-67873000D01*
X146171220Y-67873000D01*
X146171220Y-67123700D01*
X146012470Y-66964950D01*
X145771860Y-66964950D01*
X145538471Y-67061623D01*
X145359843Y-67240252D01*
X145346730Y-67271910D01*
X145346730Y-66710000D01*
X147225598Y-66710000D01*
X147222560Y-66725000D01*
X147222560Y-66725000D01*
G37*
X147222560Y-66725000D02*
X147222560Y-67226215D01*
X147057969Y-67061623D01*
X146824580Y-66964950D01*
X146583970Y-66964950D01*
X146425220Y-67123700D01*
X146425220Y-67873000D01*
X146445220Y-67873000D01*
X146445220Y-68127000D01*
X146425220Y-68127000D01*
X146425220Y-68147000D01*
X146171220Y-68147000D01*
X146171220Y-68127000D01*
X145421920Y-68127000D01*
X145358920Y-68190000D01*
X145222253Y-68190000D01*
X145163380Y-68098509D01*
X145018283Y-67999368D01*
X145150731Y-67914140D01*
X145277511Y-67728591D01*
X145421920Y-67873000D01*
X146171220Y-67873000D01*
X146171220Y-67123700D01*
X146012470Y-66964950D01*
X145771860Y-66964950D01*
X145538471Y-67061623D01*
X145359843Y-67240252D01*
X145346730Y-67271910D01*
X145346730Y-66710000D01*
X147225598Y-66710000D01*
X147222560Y-66725000D01*
G36*
X161722560Y-66725000D02*
X161722560Y-67126214D01*
X161657969Y-67061623D01*
X161424580Y-66964950D01*
X161183970Y-66964950D01*
X161025220Y-67123700D01*
X161025220Y-67873000D01*
X161045220Y-67873000D01*
X161045220Y-68127000D01*
X161025220Y-68127000D01*
X161025220Y-68147000D01*
X160771220Y-68147000D01*
X160771220Y-68127000D01*
X160021920Y-68127000D01*
X159958920Y-68190000D01*
X159822253Y-68190000D01*
X159763380Y-68098509D01*
X159618283Y-67999368D01*
X159750731Y-67914140D01*
X159877511Y-67728591D01*
X160021920Y-67873000D01*
X160771220Y-67873000D01*
X160771220Y-67123700D01*
X160612470Y-66964950D01*
X160371860Y-66964950D01*
X160138471Y-67061623D01*
X159959843Y-67240252D01*
X159946730Y-67271910D01*
X159946730Y-66710000D01*
X161725598Y-66710000D01*
X161722560Y-66725000D01*
X161722560Y-66725000D01*
G37*
X161722560Y-66725000D02*
X161722560Y-67126214D01*
X161657969Y-67061623D01*
X161424580Y-66964950D01*
X161183970Y-66964950D01*
X161025220Y-67123700D01*
X161025220Y-67873000D01*
X161045220Y-67873000D01*
X161045220Y-68127000D01*
X161025220Y-68127000D01*
X161025220Y-68147000D01*
X160771220Y-68147000D01*
X160771220Y-68127000D01*
X160021920Y-68127000D01*
X159958920Y-68190000D01*
X159822253Y-68190000D01*
X159763380Y-68098509D01*
X159618283Y-67999368D01*
X159750731Y-67914140D01*
X159877511Y-67728591D01*
X160021920Y-67873000D01*
X160771220Y-67873000D01*
X160771220Y-67123700D01*
X160612470Y-66964950D01*
X160371860Y-66964950D01*
X160138471Y-67061623D01*
X159959843Y-67240252D01*
X159946730Y-67271910D01*
X159946730Y-66710000D01*
X161725598Y-66710000D01*
X161722560Y-66725000D01*
G36*
X235222560Y-66725000D02*
X235222560Y-67275295D01*
X235109161Y-67297852D01*
X234914368Y-67428008D01*
X234836597Y-67240252D01*
X234657969Y-67061623D01*
X234424580Y-66964950D01*
X234183970Y-66964950D01*
X234025220Y-67123700D01*
X234025220Y-67873000D01*
X234045220Y-67873000D01*
X234045220Y-68127000D01*
X234025220Y-68127000D01*
X234025220Y-68147000D01*
X233771220Y-68147000D01*
X233771220Y-68127000D01*
X233021920Y-68127000D01*
X232958920Y-68190000D01*
X232822253Y-68190000D01*
X232763380Y-68098509D01*
X232618283Y-67999368D01*
X232750731Y-67914140D01*
X232877511Y-67728591D01*
X233021920Y-67873000D01*
X233771220Y-67873000D01*
X233771220Y-67123700D01*
X233612470Y-66964950D01*
X233371860Y-66964950D01*
X233138471Y-67061623D01*
X232959843Y-67240252D01*
X232946730Y-67271910D01*
X232946730Y-66710000D01*
X235225598Y-66710000D01*
X235222560Y-66725000D01*
X235222560Y-66725000D01*
G37*
X235222560Y-66725000D02*
X235222560Y-67275295D01*
X235109161Y-67297852D01*
X234914368Y-67428008D01*
X234836597Y-67240252D01*
X234657969Y-67061623D01*
X234424580Y-66964950D01*
X234183970Y-66964950D01*
X234025220Y-67123700D01*
X234025220Y-67873000D01*
X234045220Y-67873000D01*
X234045220Y-68127000D01*
X234025220Y-68127000D01*
X234025220Y-68147000D01*
X233771220Y-68147000D01*
X233771220Y-68127000D01*
X233021920Y-68127000D01*
X232958920Y-68190000D01*
X232822253Y-68190000D01*
X232763380Y-68098509D01*
X232618283Y-67999368D01*
X232750731Y-67914140D01*
X232877511Y-67728591D01*
X233021920Y-67873000D01*
X233771220Y-67873000D01*
X233771220Y-67123700D01*
X233612470Y-66964950D01*
X233371860Y-66964950D01*
X233138471Y-67061623D01*
X232959843Y-67240252D01*
X232946730Y-67271910D01*
X232946730Y-66710000D01*
X235225598Y-66710000D01*
X235222560Y-66725000D01*
G36*
X156085910Y-67951441D02*
X156155711Y-67999134D01*
X156098559Y-68035910D01*
X155994999Y-68187475D01*
X155913327Y-67990302D01*
X155911957Y-67988932D01*
X155971431Y-67901890D01*
X155991202Y-67804260D01*
X156085910Y-67951441D01*
X156085910Y-67951441D01*
G37*
X156085910Y-67951441D02*
X156155711Y-67999134D01*
X156098559Y-68035910D01*
X155994999Y-68187475D01*
X155913327Y-67990302D01*
X155911957Y-67988932D01*
X155971431Y-67901890D01*
X155991202Y-67804260D01*
X156085910Y-67951441D01*
G36*
X229085910Y-67951441D02*
X229155711Y-67999134D01*
X229098559Y-68035910D01*
X228994999Y-68187475D01*
X228913327Y-67990302D01*
X228911957Y-67988932D01*
X228971431Y-67901890D01*
X228990039Y-67810000D01*
X228994895Y-67810000D01*
X229085910Y-67951441D01*
X229085910Y-67951441D01*
G37*
X229085910Y-67951441D02*
X229155711Y-67999134D01*
X229098559Y-68035910D01*
X228994999Y-68187475D01*
X228913327Y-67990302D01*
X228911957Y-67988932D01*
X228971431Y-67901890D01*
X228990039Y-67810000D01*
X228994895Y-67810000D01*
X229085910Y-67951441D01*
G36*
X214085910Y-67951441D02*
X214155711Y-67999134D01*
X214098559Y-68035910D01*
X213994999Y-68187475D01*
X213913327Y-67990302D01*
X213911957Y-67988932D01*
X213971431Y-67901890D01*
X213991202Y-67804260D01*
X214085910Y-67951441D01*
X214085910Y-67951441D01*
G37*
X214085910Y-67951441D02*
X214155711Y-67999134D01*
X214098559Y-68035910D01*
X213994999Y-68187475D01*
X213913327Y-67990302D01*
X213911957Y-67988932D01*
X213971431Y-67901890D01*
X213991202Y-67804260D01*
X214085910Y-67951441D01*
G36*
X199585910Y-67951441D02*
X199655711Y-67999134D01*
X199598559Y-68035910D01*
X199494999Y-68187475D01*
X199413327Y-67990302D01*
X199411957Y-67988932D01*
X199471431Y-67901890D01*
X199491202Y-67804260D01*
X199585910Y-67951441D01*
X199585910Y-67951441D01*
G37*
X199585910Y-67951441D02*
X199655711Y-67999134D01*
X199598559Y-68035910D01*
X199494999Y-68187475D01*
X199413327Y-67990302D01*
X199411957Y-67988932D01*
X199471431Y-67901890D01*
X199491202Y-67804260D01*
X199585910Y-67951441D01*
G36*
X185085910Y-67951441D02*
X185155711Y-67999134D01*
X185098559Y-68035910D01*
X184994999Y-68187475D01*
X184913327Y-67990302D01*
X184911957Y-67988932D01*
X184971431Y-67901890D01*
X184990039Y-67810000D01*
X184994895Y-67810000D01*
X185085910Y-67951441D01*
X185085910Y-67951441D01*
G37*
X185085910Y-67951441D02*
X185155711Y-67999134D01*
X185098559Y-68035910D01*
X184994999Y-68187475D01*
X184913327Y-67990302D01*
X184911957Y-67988932D01*
X184971431Y-67901890D01*
X184990039Y-67810000D01*
X184994895Y-67810000D01*
X185085910Y-67951441D01*
G36*
X112085910Y-67951441D02*
X112155711Y-67999134D01*
X112098559Y-68035910D01*
X111994999Y-68187475D01*
X111913327Y-67990302D01*
X111911957Y-67988932D01*
X111971431Y-67901890D01*
X111990039Y-67810000D01*
X111994895Y-67810000D01*
X112085910Y-67951441D01*
X112085910Y-67951441D01*
G37*
X112085910Y-67951441D02*
X112155711Y-67999134D01*
X112098559Y-68035910D01*
X111994999Y-68187475D01*
X111913327Y-67990302D01*
X111911957Y-67988932D01*
X111971431Y-67901890D01*
X111990039Y-67810000D01*
X111994895Y-67810000D01*
X112085910Y-67951441D01*
G36*
X126585910Y-67951441D02*
X126655711Y-67999134D01*
X126598559Y-68035910D01*
X126494999Y-68187475D01*
X126413327Y-67990302D01*
X126411957Y-67988932D01*
X126471431Y-67901890D01*
X126490039Y-67810000D01*
X126494895Y-67810000D01*
X126585910Y-67951441D01*
X126585910Y-67951441D01*
G37*
X126585910Y-67951441D02*
X126655711Y-67999134D01*
X126598559Y-68035910D01*
X126494999Y-68187475D01*
X126413327Y-67990302D01*
X126411957Y-67988932D01*
X126471431Y-67901890D01*
X126490039Y-67810000D01*
X126494895Y-67810000D01*
X126585910Y-67951441D01*
G36*
X256393748Y-66985858D02*
X256379605Y-67000000D01*
X256393748Y-67014143D01*
X256214143Y-67193748D01*
X256200000Y-67179605D01*
X256185858Y-67193748D01*
X256006253Y-67014143D01*
X256020395Y-67000000D01*
X256006253Y-66985858D01*
X256185858Y-66806253D01*
X256200000Y-66820395D01*
X256214143Y-66806253D01*
X256393748Y-66985858D01*
X256393748Y-66985858D01*
G37*
X256393748Y-66985858D02*
X256379605Y-67000000D01*
X256393748Y-67014143D01*
X256214143Y-67193748D01*
X256200000Y-67179605D01*
X256185858Y-67193748D01*
X256006253Y-67014143D01*
X256020395Y-67000000D01*
X256006253Y-66985858D01*
X256185858Y-66806253D01*
X256200000Y-66820395D01*
X256214143Y-66806253D01*
X256393748Y-66985858D01*
M02*
