EESchema Schematic File Version 2
LIBS:power
LIBS:device
LIBS:transistors
LIBS:conn
LIBS:linear
LIBS:regul
LIBS:74xx
LIBS:cmos4000
LIBS:adc-dac
LIBS:memory
LIBS:xilinx
LIBS:microcontrollers
LIBS:dsp
LIBS:microchip
LIBS:analog_switches
LIBS:motorola
LIBS:texas
LIBS:intel
LIBS:audio
LIBS:interface
LIBS:digital-audio
LIBS:philips
LIBS:display
LIBS:cypress
LIBS:siliconi
LIBS:opto
LIBS:atmel
LIBS:contrib
LIBS:valves
LIBS:Hall-effect
LIBS:Bandomidi-cache
EELAYER 25 0
EELAYER END
$Descr A4 11693 8268
encoding utf-8
Sheet 1 1
Title "BandoMIDI"
Date "2018-01-23"
Rev "A1"
Comp "Étienne"
Comment1 ""
Comment2 ""
Comment3 ""
Comment4 ""
$EndDescr
$Comp
L C_Small C3
U 1 1 5A67146E
P 800 4550
F 0 "C3" H 600 4650 50  0000 L CNN
F 1 "47n" H 600 4450 50  0000 L CNN
F 2 "Capacitors_SMD:C_0603_HandSoldering" H 800 4550 50  0001 C CNN
F 3 "" H 800 4550 50  0000 C CNN
	1    800  4550
	1    0    0    -1  
$EndComp
$Comp
L GND #PWR01
U 1 1 5A6714B2
P 800 4750
F 0 "#PWR01" H 800 4500 50  0001 C CNN
F 1 "GND" H 800 4600 50  0000 C CNN
F 2 "" H 800 4750 50  0000 C CNN
F 3 "" H 800 4750 50  0000 C CNN
	1    800  4750
	1    0    0    -1  
$EndComp
$Comp
L TLE496x U3
U 1 1 5A671822
P 1200 4600
F 0 "U3" H 1150 5000 60  0000 C CNN
F 1 "TLE496x" H 1250 4900 60  0000 C CNN
F 2 "TO_SOT_Packages_SMD:SOT-23" H 450 5150 60  0001 C CNN
F 3 "" H 450 5150 60  0000 C CNN
	1    1200 4600
	1    0    0    -1  
$EndComp
$Comp
L +5VL #PWR02
U 1 1 5A671902
P 800 3850
F 0 "#PWR02" H 800 3700 50  0001 C CNN
F 1 "+5VL" H 800 3990 50  0000 C CNN
F 2 "" H 800 3850 50  0000 C CNN
F 3 "" H 800 3850 50  0000 C CNN
	1    800  3850
	1    0    0    -1  
$EndComp
Wire Wire Line
	800  4650 800  4750
Wire Wire Line
	900  4700 800  4700
Connection ~ 800  4700
Text Notes 600  700  0    118  ~ 0
Lef-hand keyboard contains 3 rows of 11 keys
Wire Wire Line
	800  3850 800  4450
Wire Wire Line
	800  4400 900  4400
Connection ~ 800  4400
$Comp
L 74AHC1G14 U13
U 1 1 5A676A56
P 2200 4550
F 0 "U13" H 2350 4850 50  0000 C CNN
F 1 "SN74LVC1G04DBVR " H 2650 4750 50  0000 C CNN
F 2 "TO_SOT_Packages_SMD:SOT-23-5" H 2295 4415 50  0001 C CNN
F 3 "" H 2345 4665 50  0000 C CNN
	1    2200 4550
	1    0    0    -1  
$EndComp
$Comp
L R_Small R3
U 1 1 5A676BA2
P 1650 4150
F 0 "R3" H 1680 4170 50  0000 L CNN
F 1 "1k2" H 1680 4110 50  0000 L CNN
F 2 "Resistors_SMD:R_0603_HandSoldering" H 1650 4150 50  0001 C CNN
F 3 "" H 1650 4150 50  0000 C CNN
	1    1650 4150
	1    0    0    -1  
$EndComp
Wire Wire Line
	1750 4550 1550 4550
Wire Wire Line
	1650 4250 1650 4550
Connection ~ 1650 4550
Wire Wire Line
	800  3950 2150 3950
Wire Wire Line
	2150 3950 2150 4350
Wire Wire Line
	1650 4050 1650 3950
Connection ~ 1650 3950
Connection ~ 800  3950
$Comp
L GND #PWR03
U 1 1 5A676D29
P 2150 4800
F 0 "#PWR03" H 2150 4550 50  0001 C CNN
F 1 "GND" H 2150 4650 50  0000 C CNN
F 2 "" H 2150 4800 50  0000 C CNN
F 3 "" H 2150 4800 50  0000 C CNN
	1    2150 4800
	1    0    0    -1  
$EndComp
Wire Wire Line
	2150 4750 2150 4800
Text GLabel 2750 4550 2    60   Output ~ 0
L_A_03
Wire Wire Line
	2750 4550 2650 4550
$Comp
L GND #PWR04
U 1 1 5A6771F6
P 10350 3000
F 0 "#PWR04" H 10350 2750 50  0001 C CNN
F 1 "GND" H 10350 2850 50  0000 C CNN
F 2 "" H 10350 3000 50  0000 C CNN
F 3 "" H 10350 3000 50  0000 C CNN
	1    10350 3000
	0    1    1    0   
$EndComp
$Comp
L +5VL #PWR05
U 1 1 5A677212
P 10350 3600
F 0 "#PWR05" H 10350 3450 50  0001 C CNN
F 1 "+5VL" H 10350 3740 50  0000 C CNN
F 2 "" H 10350 3600 50  0000 C CNN
F 3 "" H 10350 3600 50  0000 C CNN
	1    10350 3600
	0    -1   -1   0   
$EndComp
Text GLabel 10550 4400 0    60   Output ~ 0
L_A_04
Text GLabel 10550 4600 0    60   Output ~ 0
L_A_05
Text GLabel 10550 4800 0    60   Output ~ 0
L_A_06
Text GLabel 10550 5000 0    60   Output ~ 0
L_A_07
Text GLabel 10550 5200 0    60   Output ~ 0
L_A_08
Text GLabel 10550 5400 0    60   Output ~ 0
L_A_09
Text GLabel 10550 5600 0    60   Output ~ 0
L_A_10
Text GLabel 10550 5800 0    60   Output ~ 0
L_A_11
Text GLabel 10550 4200 0    60   Output ~ 0
L_A_03
Text GLabel 10550 4000 0    60   Output ~ 0
L_A_02
Text GLabel 10550 3800 0    60   Output ~ 0
L_A_01
$Comp
L C_Small C1
U 1 1 5A677954
P 800 1750
F 0 "C1" H 600 1850 50  0000 L CNN
F 1 "47n" H 600 1650 50  0000 L CNN
F 2 "Capacitors_SMD:C_0603_HandSoldering" H 800 1750 50  0001 C CNN
F 3 "" H 800 1750 50  0000 C CNN
	1    800  1750
	1    0    0    -1  
$EndComp
$Comp
L GND #PWR06
U 1 1 5A67795A
P 800 1950
F 0 "#PWR06" H 800 1700 50  0001 C CNN
F 1 "GND" H 800 1800 50  0000 C CNN
F 2 "" H 800 1950 50  0000 C CNN
F 3 "" H 800 1950 50  0000 C CNN
	1    800  1950
	1    0    0    -1  
$EndComp
$Comp
L TLE496x U1
U 1 1 5A677960
P 1200 1800
F 0 "U1" H 1150 2200 60  0000 C CNN
F 1 "TLE496x" H 1250 2100 60  0000 C CNN
F 2 "TO_SOT_Packages_SMD:SOT-23" H 450 2350 60  0001 C CNN
F 3 "" H 450 2350 60  0000 C CNN
	1    1200 1800
	1    0    0    -1  
$EndComp
$Comp
L +5VL #PWR07
U 1 1 5A677966
P 800 1050
F 0 "#PWR07" H 800 900 50  0001 C CNN
F 1 "+5VL" H 800 1190 50  0000 C CNN
F 2 "" H 800 1050 50  0000 C CNN
F 3 "" H 800 1050 50  0000 C CNN
	1    800  1050
	1    0    0    -1  
$EndComp
Wire Wire Line
	800  1850 800  1950
Wire Wire Line
	900  1900 800  1900
Connection ~ 800  1900
Wire Wire Line
	800  1050 800  1650
Wire Wire Line
	800  1600 900  1600
Connection ~ 800  1600
$Comp
L 74AHC1G14 U22
U 1 1 5A677972
P 2200 1750
F 0 "U22" H 2350 2050 50  0000 C CNN
F 1 "SN74LVC1G04DBVR " H 2650 1950 50  0000 C CNN
F 2 "TO_SOT_Packages_SMD:SOT-23-5" H 2295 1615 50  0001 C CNN
F 3 "" H 2345 1865 50  0000 C CNN
	1    2200 1750
	1    0    0    -1  
$EndComp
$Comp
L R_Small R1
U 1 1 5A677978
P 1650 1350
F 0 "R1" H 1680 1370 50  0000 L CNN
F 1 "1k2" H 1680 1310 50  0000 L CNN
F 2 "Resistors_SMD:R_0603_HandSoldering" H 1650 1350 50  0001 C CNN
F 3 "" H 1650 1350 50  0000 C CNN
	1    1650 1350
	1    0    0    -1  
$EndComp
Wire Wire Line
	1750 1750 1550 1750
Wire Wire Line
	1650 1450 1650 1750
Connection ~ 1650 1750
Wire Wire Line
	800  1150 2150 1150
Wire Wire Line
	2150 1150 2150 1550
Wire Wire Line
	1650 1250 1650 1150
Connection ~ 1650 1150
Connection ~ 800  1150
$Comp
L GND #PWR08
U 1 1 5A677986
P 2150 2000
F 0 "#PWR08" H 2150 1750 50  0001 C CNN
F 1 "GND" H 2150 1850 50  0000 C CNN
F 2 "" H 2150 2000 50  0000 C CNN
F 3 "" H 2150 2000 50  0000 C CNN
	1    2150 2000
	1    0    0    -1  
$EndComp
Wire Wire Line
	2150 1950 2150 2000
Text GLabel 2750 1750 2    60   Output ~ 0
L_A_01
Wire Wire Line
	2750 1750 2650 1750
$Comp
L C_Small C2
U 1 1 5A677C43
P 800 3150
F 0 "C2" H 600 3250 50  0000 L CNN
F 1 "47n" H 600 3050 50  0000 L CNN
F 2 "Capacitors_SMD:C_0603_HandSoldering" H 800 3150 50  0001 C CNN
F 3 "" H 800 3150 50  0000 C CNN
	1    800  3150
	1    0    0    -1  
$EndComp
$Comp
L GND #PWR09
U 1 1 5A677C49
P 800 3350
F 0 "#PWR09" H 800 3100 50  0001 C CNN
F 1 "GND" H 800 3200 50  0000 C CNN
F 2 "" H 800 3350 50  0000 C CNN
F 3 "" H 800 3350 50  0000 C CNN
	1    800  3350
	1    0    0    -1  
$EndComp
$Comp
L TLE496x U2
U 1 1 5A677C4F
P 1200 3200
F 0 "U2" H 1150 3600 60  0000 C CNN
F 1 "TLE496x" H 1250 3500 60  0000 C CNN
F 2 "TO_SOT_Packages_SMD:SOT-23" H 450 3750 60  0001 C CNN
F 3 "" H 450 3750 60  0000 C CNN
	1    1200 3200
	1    0    0    -1  
$EndComp
$Comp
L +5VL #PWR010
U 1 1 5A677C55
P 800 2450
F 0 "#PWR010" H 800 2300 50  0001 C CNN
F 1 "+5VL" H 800 2590 50  0000 C CNN
F 2 "" H 800 2450 50  0000 C CNN
F 3 "" H 800 2450 50  0000 C CNN
	1    800  2450
	1    0    0    -1  
$EndComp
Wire Wire Line
	800  3250 800  3350
Wire Wire Line
	900  3300 800  3300
Connection ~ 800  3300
Wire Wire Line
	800  2450 800  3050
Wire Wire Line
	800  3000 900  3000
Connection ~ 800  3000
$Comp
L 74AHC1G14 U12
U 1 1 5A677C61
P 2200 3150
F 0 "U12" H 2350 3450 50  0000 C CNN
F 1 "SN74LVC1G04DBVR " H 2650 3350 50  0000 C CNN
F 2 "TO_SOT_Packages_SMD:SOT-23-5" H 2295 3015 50  0001 C CNN
F 3 "" H 2345 3265 50  0000 C CNN
	1    2200 3150
	1    0    0    -1  
$EndComp
$Comp
L R_Small R2
U 1 1 5A677C67
P 1650 2750
F 0 "R2" H 1680 2770 50  0000 L CNN
F 1 "1k2" H 1680 2710 50  0000 L CNN
F 2 "Resistors_SMD:R_0603_HandSoldering" H 1650 2750 50  0001 C CNN
F 3 "" H 1650 2750 50  0000 C CNN
	1    1650 2750
	1    0    0    -1  
$EndComp
Wire Wire Line
	1750 3150 1550 3150
Wire Wire Line
	1650 2850 1650 3150
Connection ~ 1650 3150
Wire Wire Line
	800  2550 2150 2550
Wire Wire Line
	2150 2550 2150 2950
Wire Wire Line
	1650 2650 1650 2550
Connection ~ 1650 2550
Connection ~ 800  2550
$Comp
L GND #PWR011
U 1 1 5A677C75
P 2150 3400
F 0 "#PWR011" H 2150 3150 50  0001 C CNN
F 1 "GND" H 2150 3250 50  0000 C CNN
F 2 "" H 2150 3400 50  0000 C CNN
F 3 "" H 2150 3400 50  0000 C CNN
	1    2150 3400
	1    0    0    -1  
$EndComp
Wire Wire Line
	2150 3350 2150 3400
Text GLabel 2750 3150 2    60   Output ~ 0
L_A_02
Wire Wire Line
	2750 3150 2650 3150
$Comp
L C_Small C4
U 1 1 5A677F32
P 800 5900
F 0 "C4" H 600 6000 50  0000 L CNN
F 1 "47n" H 600 5800 50  0000 L CNN
F 2 "Capacitors_SMD:C_0603_HandSoldering" H 800 5900 50  0001 C CNN
F 3 "" H 800 5900 50  0000 C CNN
	1    800  5900
	1    0    0    -1  
$EndComp
$Comp
L GND #PWR012
U 1 1 5A677F38
P 800 6100
F 0 "#PWR012" H 800 5850 50  0001 C CNN
F 1 "GND" H 800 5950 50  0000 C CNN
F 2 "" H 800 6100 50  0000 C CNN
F 3 "" H 800 6100 50  0000 C CNN
	1    800  6100
	1    0    0    -1  
$EndComp
$Comp
L TLE496x U4
U 1 1 5A677F3E
P 1200 5950
F 0 "U4" H 1150 6350 60  0000 C CNN
F 1 "TLE496x" H 1250 6250 60  0000 C CNN
F 2 "TO_SOT_Packages_SMD:SOT-23" H 450 6500 60  0001 C CNN
F 3 "" H 450 6500 60  0000 C CNN
	1    1200 5950
	1    0    0    -1  
$EndComp
$Comp
L +5VL #PWR013
U 1 1 5A677F44
P 800 5200
F 0 "#PWR013" H 800 5050 50  0001 C CNN
F 1 "+5VL" H 800 5340 50  0000 C CNN
F 2 "" H 800 5200 50  0000 C CNN
F 3 "" H 800 5200 50  0000 C CNN
	1    800  5200
	1    0    0    -1  
$EndComp
Wire Wire Line
	800  6000 800  6100
Wire Wire Line
	900  6050 800  6050
Connection ~ 800  6050
Wire Wire Line
	800  5200 800  5800
Wire Wire Line
	800  5750 900  5750
Connection ~ 800  5750
$Comp
L 74AHC1G14 U14
U 1 1 5A677F50
P 2200 5900
F 0 "U14" H 2350 6200 50  0000 C CNN
F 1 "SN74LVC1G04DBVR " H 2650 6100 50  0000 C CNN
F 2 "TO_SOT_Packages_SMD:SOT-23-5" H 2295 5765 50  0001 C CNN
F 3 "" H 2345 6015 50  0000 C CNN
	1    2200 5900
	1    0    0    -1  
$EndComp
$Comp
L R_Small R4
U 1 1 5A677F56
P 1650 5500
F 0 "R4" H 1680 5520 50  0000 L CNN
F 1 "1k2" H 1680 5460 50  0000 L CNN
F 2 "Resistors_SMD:R_0603_HandSoldering" H 1650 5500 50  0001 C CNN
F 3 "" H 1650 5500 50  0000 C CNN
	1    1650 5500
	1    0    0    -1  
$EndComp
Wire Wire Line
	1750 5900 1550 5900
Wire Wire Line
	1650 5600 1650 5900
Connection ~ 1650 5900
Wire Wire Line
	800  5300 2150 5300
Wire Wire Line
	2150 5300 2150 5700
Wire Wire Line
	1650 5400 1650 5300
Connection ~ 1650 5300
Connection ~ 800  5300
$Comp
L GND #PWR014
U 1 1 5A677F64
P 2150 6150
F 0 "#PWR014" H 2150 5900 50  0001 C CNN
F 1 "GND" H 2150 6000 50  0000 C CNN
F 2 "" H 2150 6150 50  0000 C CNN
F 3 "" H 2150 6150 50  0000 C CNN
	1    2150 6150
	1    0    0    -1  
$EndComp
Wire Wire Line
	2150 6100 2150 6150
Text GLabel 2750 5900 2    60   Output ~ 0
L_A_04
Wire Wire Line
	2750 5900 2650 5900
$Comp
L C_Small C7
U 1 1 5A6789A7
P 3950 4550
F 0 "C7" H 3750 4650 50  0000 L CNN
F 1 "47n" H 3750 4450 50  0000 L CNN
F 2 "Capacitors_SMD:C_0603_HandSoldering" H 3950 4550 50  0001 C CNN
F 3 "" H 3950 4550 50  0000 C CNN
	1    3950 4550
	1    0    0    -1  
$EndComp
$Comp
L GND #PWR015
U 1 1 5A6789AD
P 3950 4750
F 0 "#PWR015" H 3950 4500 50  0001 C CNN
F 1 "GND" H 3950 4600 50  0000 C CNN
F 2 "" H 3950 4750 50  0000 C CNN
F 3 "" H 3950 4750 50  0000 C CNN
	1    3950 4750
	1    0    0    -1  
$EndComp
$Comp
L TLE496x U7
U 1 1 5A6789B3
P 4350 4600
F 0 "U7" H 4300 5000 60  0000 C CNN
F 1 "TLE496x" H 4400 4900 60  0000 C CNN
F 2 "TO_SOT_Packages_SMD:SOT-23" H 3600 5150 60  0001 C CNN
F 3 "" H 3600 5150 60  0000 C CNN
	1    4350 4600
	1    0    0    -1  
$EndComp
$Comp
L +5VL #PWR016
U 1 1 5A6789B9
P 3950 3850
F 0 "#PWR016" H 3950 3700 50  0001 C CNN
F 1 "+5VL" H 3950 3990 50  0000 C CNN
F 2 "" H 3950 3850 50  0000 C CNN
F 3 "" H 3950 3850 50  0000 C CNN
	1    3950 3850
	1    0    0    -1  
$EndComp
Wire Wire Line
	3950 4650 3950 4750
Wire Wire Line
	4050 4700 3950 4700
Connection ~ 3950 4700
Wire Wire Line
	3950 3850 3950 4450
Wire Wire Line
	3950 4400 4050 4400
Connection ~ 3950 4400
$Comp
L 74AHC1G14 U17
U 1 1 5A6789C6
P 5350 4550
F 0 "U17" H 5500 4850 50  0000 C CNN
F 1 "SN74LVC1G04DBVR " H 5800 4750 50  0000 C CNN
F 2 "TO_SOT_Packages_SMD:SOT-23-5" H 5445 4415 50  0001 C CNN
F 3 "" H 5495 4665 50  0000 C CNN
	1    5350 4550
	1    0    0    -1  
$EndComp
$Comp
L R_Small R7
U 1 1 5A6789CC
P 4800 4150
F 0 "R7" H 4830 4170 50  0000 L CNN
F 1 "1k2" H 4830 4110 50  0000 L CNN
F 2 "Resistors_SMD:R_0603_HandSoldering" H 4800 4150 50  0001 C CNN
F 3 "" H 4800 4150 50  0000 C CNN
	1    4800 4150
	1    0    0    -1  
$EndComp
Wire Wire Line
	4900 4550 4700 4550
Wire Wire Line
	4800 4250 4800 4550
Connection ~ 4800 4550
Wire Wire Line
	3950 3950 5300 3950
Wire Wire Line
	5300 3950 5300 4350
Wire Wire Line
	4800 4050 4800 3950
Connection ~ 4800 3950
Connection ~ 3950 3950
$Comp
L GND #PWR017
U 1 1 5A6789DA
P 5300 4800
F 0 "#PWR017" H 5300 4550 50  0001 C CNN
F 1 "GND" H 5300 4650 50  0000 C CNN
F 2 "" H 5300 4800 50  0000 C CNN
F 3 "" H 5300 4800 50  0000 C CNN
	1    5300 4800
	1    0    0    -1  
$EndComp
Wire Wire Line
	5300 4750 5300 4800
Text GLabel 5900 4550 2    60   Output ~ 0
L_A_07
Wire Wire Line
	5900 4550 5800 4550
$Comp
L C_Small C5
U 1 1 5A6789E3
P 3950 1750
F 0 "C5" H 3750 1850 50  0000 L CNN
F 1 "47n" H 3750 1650 50  0000 L CNN
F 2 "Capacitors_SMD:C_0603_HandSoldering" H 3950 1750 50  0001 C CNN
F 3 "" H 3950 1750 50  0000 C CNN
	1    3950 1750
	1    0    0    -1  
$EndComp
$Comp
L GND #PWR018
U 1 1 5A6789E9
P 3950 1950
F 0 "#PWR018" H 3950 1700 50  0001 C CNN
F 1 "GND" H 3950 1800 50  0000 C CNN
F 2 "" H 3950 1950 50  0000 C CNN
F 3 "" H 3950 1950 50  0000 C CNN
	1    3950 1950
	1    0    0    -1  
$EndComp
$Comp
L TLE496x U5
U 1 1 5A6789EF
P 4350 1800
F 0 "U5" H 4300 2200 60  0000 C CNN
F 1 "TLE496x" H 4400 2100 60  0000 C CNN
F 2 "TO_SOT_Packages_SMD:SOT-23" H 3600 2350 60  0001 C CNN
F 3 "" H 3600 2350 60  0000 C CNN
	1    4350 1800
	1    0    0    -1  
$EndComp
$Comp
L +5VL #PWR019
U 1 1 5A6789F5
P 3950 1050
F 0 "#PWR019" H 3950 900 50  0001 C CNN
F 1 "+5VL" H 3950 1190 50  0000 C CNN
F 2 "" H 3950 1050 50  0000 C CNN
F 3 "" H 3950 1050 50  0000 C CNN
	1    3950 1050
	1    0    0    -1  
$EndComp
Wire Wire Line
	3950 1850 3950 1950
Wire Wire Line
	4050 1900 3950 1900
Connection ~ 3950 1900
Wire Wire Line
	3950 1050 3950 1650
Wire Wire Line
	3950 1600 4050 1600
Connection ~ 3950 1600
$Comp
L 74AHC1G14 U15
U 1 1 5A678A01
P 5350 1750
F 0 "U15" H 5500 2050 50  0000 C CNN
F 1 "SN74LVC1G04DBVR " H 5800 1950 50  0000 C CNN
F 2 "TO_SOT_Packages_SMD:SOT-23-5" H 5445 1615 50  0001 C CNN
F 3 "" H 5495 1865 50  0000 C CNN
	1    5350 1750
	1    0    0    -1  
$EndComp
$Comp
L R_Small R5
U 1 1 5A678A07
P 4800 1350
F 0 "R5" H 4830 1370 50  0000 L CNN
F 1 "1k2" H 4830 1310 50  0000 L CNN
F 2 "Resistors_SMD:R_0603_HandSoldering" H 4800 1350 50  0001 C CNN
F 3 "" H 4800 1350 50  0000 C CNN
	1    4800 1350
	1    0    0    -1  
$EndComp
Wire Wire Line
	4900 1750 4700 1750
Wire Wire Line
	4800 1450 4800 1750
Connection ~ 4800 1750
Wire Wire Line
	3950 1150 5300 1150
Wire Wire Line
	5300 1150 5300 1550
Wire Wire Line
	4800 1250 4800 1150
Connection ~ 4800 1150
Connection ~ 3950 1150
$Comp
L GND #PWR020
U 1 1 5A678A15
P 5300 2000
F 0 "#PWR020" H 5300 1750 50  0001 C CNN
F 1 "GND" H 5300 1850 50  0000 C CNN
F 2 "" H 5300 2000 50  0000 C CNN
F 3 "" H 5300 2000 50  0000 C CNN
	1    5300 2000
	1    0    0    -1  
$EndComp
Wire Wire Line
	5300 1950 5300 2000
Text GLabel 5900 1750 2    60   Output ~ 0
L_A_05
Wire Wire Line
	5900 1750 5800 1750
$Comp
L C_Small C6
U 1 1 5A678A1E
P 3950 3150
F 0 "C6" H 3750 3250 50  0000 L CNN
F 1 "47n" H 3750 3050 50  0000 L CNN
F 2 "Capacitors_SMD:C_0603_HandSoldering" H 3950 3150 50  0001 C CNN
F 3 "" H 3950 3150 50  0000 C CNN
	1    3950 3150
	1    0    0    -1  
$EndComp
$Comp
L GND #PWR021
U 1 1 5A678A24
P 3950 3350
F 0 "#PWR021" H 3950 3100 50  0001 C CNN
F 1 "GND" H 3950 3200 50  0000 C CNN
F 2 "" H 3950 3350 50  0000 C CNN
F 3 "" H 3950 3350 50  0000 C CNN
	1    3950 3350
	1    0    0    -1  
$EndComp
$Comp
L TLE496x U6
U 1 1 5A678A2A
P 4350 3200
F 0 "U6" H 4300 3600 60  0000 C CNN
F 1 "TLE496x" H 4400 3500 60  0000 C CNN
F 2 "TO_SOT_Packages_SMD:SOT-23" H 3600 3750 60  0001 C CNN
F 3 "" H 3600 3750 60  0000 C CNN
	1    4350 3200
	1    0    0    -1  
$EndComp
$Comp
L +5VL #PWR022
U 1 1 5A678A30
P 3950 2450
F 0 "#PWR022" H 3950 2300 50  0001 C CNN
F 1 "+5VL" H 3950 2590 50  0000 C CNN
F 2 "" H 3950 2450 50  0000 C CNN
F 3 "" H 3950 2450 50  0000 C CNN
	1    3950 2450
	1    0    0    -1  
$EndComp
Wire Wire Line
	3950 3250 3950 3350
Wire Wire Line
	4050 3300 3950 3300
Connection ~ 3950 3300
Wire Wire Line
	3950 2450 3950 3050
Wire Wire Line
	3950 3000 4050 3000
Connection ~ 3950 3000
$Comp
L 74AHC1G14 U16
U 1 1 5A678A3C
P 5350 3150
F 0 "U16" H 5500 3450 50  0000 C CNN
F 1 "SN74LVC1G04DBVR " H 5800 3350 50  0000 C CNN
F 2 "TO_SOT_Packages_SMD:SOT-23-5" H 5445 3015 50  0001 C CNN
F 3 "" H 5495 3265 50  0000 C CNN
	1    5350 3150
	1    0    0    -1  
$EndComp
$Comp
L R_Small R6
U 1 1 5A678A42
P 4800 2750
F 0 "R6" H 4830 2770 50  0000 L CNN
F 1 "1k2" H 4830 2710 50  0000 L CNN
F 2 "Resistors_SMD:R_0603_HandSoldering" H 4800 2750 50  0001 C CNN
F 3 "" H 4800 2750 50  0000 C CNN
	1    4800 2750
	1    0    0    -1  
$EndComp
Wire Wire Line
	4900 3150 4700 3150
Wire Wire Line
	4800 2850 4800 3150
Connection ~ 4800 3150
Wire Wire Line
	3950 2550 5300 2550
Wire Wire Line
	5300 2550 5300 2950
Wire Wire Line
	4800 2650 4800 2550
Connection ~ 4800 2550
Connection ~ 3950 2550
$Comp
L GND #PWR023
U 1 1 5A678A50
P 5300 3400
F 0 "#PWR023" H 5300 3150 50  0001 C CNN
F 1 "GND" H 5300 3250 50  0000 C CNN
F 2 "" H 5300 3400 50  0000 C CNN
F 3 "" H 5300 3400 50  0000 C CNN
	1    5300 3400
	1    0    0    -1  
$EndComp
Wire Wire Line
	5300 3350 5300 3400
Text GLabel 5900 3150 2    60   Output ~ 0
L_A_06
Wire Wire Line
	5900 3150 5800 3150
$Comp
L C_Small C8
U 1 1 5A678A59
P 3950 5900
F 0 "C8" H 3750 6000 50  0000 L CNN
F 1 "47n" H 3750 5800 50  0000 L CNN
F 2 "Capacitors_SMD:C_0603_HandSoldering" H 3950 5900 50  0001 C CNN
F 3 "" H 3950 5900 50  0000 C CNN
	1    3950 5900
	1    0    0    -1  
$EndComp
$Comp
L GND #PWR024
U 1 1 5A678A5F
P 3950 6100
F 0 "#PWR024" H 3950 5850 50  0001 C CNN
F 1 "GND" H 3950 5950 50  0000 C CNN
F 2 "" H 3950 6100 50  0000 C CNN
F 3 "" H 3950 6100 50  0000 C CNN
	1    3950 6100
	1    0    0    -1  
$EndComp
$Comp
L TLE496x U8
U 1 1 5A678A65
P 4350 5950
F 0 "U8" H 4300 6350 60  0000 C CNN
F 1 "TLE496x" H 4400 6250 60  0000 C CNN
F 2 "TO_SOT_Packages_SMD:SOT-23" H 3600 6500 60  0001 C CNN
F 3 "" H 3600 6500 60  0000 C CNN
	1    4350 5950
	1    0    0    -1  
$EndComp
$Comp
L +5VL #PWR025
U 1 1 5A678A6B
P 3950 5200
F 0 "#PWR025" H 3950 5050 50  0001 C CNN
F 1 "+5VL" H 3950 5340 50  0000 C CNN
F 2 "" H 3950 5200 50  0000 C CNN
F 3 "" H 3950 5200 50  0000 C CNN
	1    3950 5200
	1    0    0    -1  
$EndComp
Wire Wire Line
	3950 6000 3950 6100
Wire Wire Line
	4050 6050 3950 6050
Connection ~ 3950 6050
Wire Wire Line
	3950 5200 3950 5800
Wire Wire Line
	3950 5750 4050 5750
Connection ~ 3950 5750
$Comp
L 74AHC1G14 U18
U 1 1 5A678A77
P 5350 5900
F 0 "U18" H 5500 6200 50  0000 C CNN
F 1 "SN74LVC1G04DBVR " H 5800 6100 50  0000 C CNN
F 2 "TO_SOT_Packages_SMD:SOT-23-5" H 5445 5765 50  0001 C CNN
F 3 "" H 5495 6015 50  0000 C CNN
	1    5350 5900
	1    0    0    -1  
$EndComp
$Comp
L R_Small R8
U 1 1 5A678A7D
P 4800 5500
F 0 "R8" H 4830 5520 50  0000 L CNN
F 1 "1k2" H 4830 5460 50  0000 L CNN
F 2 "Resistors_SMD:R_0603_HandSoldering" H 4800 5500 50  0001 C CNN
F 3 "" H 4800 5500 50  0000 C CNN
	1    4800 5500
	1    0    0    -1  
$EndComp
Wire Wire Line
	4900 5900 4700 5900
Wire Wire Line
	4800 5600 4800 5900
Connection ~ 4800 5900
Wire Wire Line
	3950 5300 5300 5300
Wire Wire Line
	5300 5300 5300 5700
Wire Wire Line
	4800 5400 4800 5300
Connection ~ 4800 5300
Connection ~ 3950 5300
$Comp
L GND #PWR026
U 1 1 5A678A8B
P 5300 6150
F 0 "#PWR026" H 5300 5900 50  0001 C CNN
F 1 "GND" H 5300 6000 50  0000 C CNN
F 2 "" H 5300 6150 50  0000 C CNN
F 3 "" H 5300 6150 50  0000 C CNN
	1    5300 6150
	1    0    0    -1  
$EndComp
Wire Wire Line
	5300 6100 5300 6150
Text GLabel 5900 5900 2    60   Output ~ 0
L_A_08
Wire Wire Line
	5900 5900 5800 5900
$Comp
L C_Small C11
U 1 1 5A678BE5
P 7200 4900
F 0 "C11" H 7000 5000 50  0000 L CNN
F 1 "47n" H 7000 4800 50  0000 L CNN
F 2 "Capacitors_SMD:C_0603_HandSoldering" H 7200 4900 50  0001 C CNN
F 3 "" H 7200 4900 50  0000 C CNN
	1    7200 4900
	1    0    0    -1  
$EndComp
$Comp
L GND #PWR027
U 1 1 5A678BEB
P 7200 5100
F 0 "#PWR027" H 7200 4850 50  0001 C CNN
F 1 "GND" H 7200 4950 50  0000 C CNN
F 2 "" H 7200 5100 50  0000 C CNN
F 3 "" H 7200 5100 50  0000 C CNN
	1    7200 5100
	1    0    0    -1  
$EndComp
$Comp
L TLE496x U11
U 1 1 5A678BF1
P 7600 4950
F 0 "U11" H 7550 5350 60  0000 C CNN
F 1 "TLE496x" H 7650 5250 60  0000 C CNN
F 2 "TO_SOT_Packages_SMD:SOT-23" H 6850 5500 60  0001 C CNN
F 3 "" H 6850 5500 60  0000 C CNN
	1    7600 4950
	1    0    0    -1  
$EndComp
$Comp
L +5VL #PWR028
U 1 1 5A678BF7
P 7200 4200
F 0 "#PWR028" H 7200 4050 50  0001 C CNN
F 1 "+5VL" H 7200 4340 50  0000 C CNN
F 2 "" H 7200 4200 50  0000 C CNN
F 3 "" H 7200 4200 50  0000 C CNN
	1    7200 4200
	1    0    0    -1  
$EndComp
Wire Wire Line
	7200 5000 7200 5100
Wire Wire Line
	7300 5050 7200 5050
Connection ~ 7200 5050
Wire Wire Line
	7200 4200 7200 4800
Wire Wire Line
	7200 4750 7300 4750
Connection ~ 7200 4750
$Comp
L 74AHC1G14 U21
U 1 1 5A678C03
P 8600 4900
F 0 "U21" H 8750 5200 50  0000 C CNN
F 1 "SN74LVC1G04DBVR " H 9050 5100 50  0000 C CNN
F 2 "TO_SOT_Packages_SMD:SOT-23-5" H 8695 4765 50  0001 C CNN
F 3 "" H 8745 5015 50  0000 C CNN
	1    8600 4900
	1    0    0    -1  
$EndComp
$Comp
L R_Small R11
U 1 1 5A678C09
P 8050 4500
F 0 "R11" H 8080 4520 50  0000 L CNN
F 1 "1k2" H 8080 4460 50  0000 L CNN
F 2 "Resistors_SMD:R_0603_HandSoldering" H 8050 4500 50  0001 C CNN
F 3 "" H 8050 4500 50  0000 C CNN
	1    8050 4500
	1    0    0    -1  
$EndComp
Wire Wire Line
	8150 4900 7950 4900
Wire Wire Line
	8050 4600 8050 4900
Connection ~ 8050 4900
Wire Wire Line
	7200 4300 8550 4300
Wire Wire Line
	8550 4300 8550 4700
Wire Wire Line
	8050 4400 8050 4300
Connection ~ 8050 4300
Connection ~ 7200 4300
$Comp
L GND #PWR029
U 1 1 5A678C17
P 8550 5150
F 0 "#PWR029" H 8550 4900 50  0001 C CNN
F 1 "GND" H 8550 5000 50  0000 C CNN
F 2 "" H 8550 5150 50  0000 C CNN
F 3 "" H 8550 5150 50  0000 C CNN
	1    8550 5150
	1    0    0    -1  
$EndComp
Wire Wire Line
	8550 5100 8550 5150
Text GLabel 9150 4900 2    60   Output ~ 0
L_A_11
Wire Wire Line
	9150 4900 9050 4900
$Comp
L C_Small C9
U 1 1 5A678C20
P 7200 2100
F 0 "C9" H 7000 2200 50  0000 L CNN
F 1 "47n" H 7000 2000 50  0000 L CNN
F 2 "Capacitors_SMD:C_0603_HandSoldering" H 7200 2100 50  0001 C CNN
F 3 "" H 7200 2100 50  0000 C CNN
	1    7200 2100
	1    0    0    -1  
$EndComp
$Comp
L GND #PWR030
U 1 1 5A678C26
P 7200 2300
F 0 "#PWR030" H 7200 2050 50  0001 C CNN
F 1 "GND" H 7200 2150 50  0000 C CNN
F 2 "" H 7200 2300 50  0000 C CNN
F 3 "" H 7200 2300 50  0000 C CNN
	1    7200 2300
	1    0    0    -1  
$EndComp
$Comp
L TLE496x U9
U 1 1 5A678C2C
P 7600 2150
F 0 "U9" H 7550 2550 60  0000 C CNN
F 1 "TLE496x" H 7650 2450 60  0000 C CNN
F 2 "TO_SOT_Packages_SMD:SOT-23" H 6850 2700 60  0001 C CNN
F 3 "" H 6850 2700 60  0000 C CNN
	1    7600 2150
	1    0    0    -1  
$EndComp
$Comp
L +5VL #PWR031
U 1 1 5A678C32
P 7200 1400
F 0 "#PWR031" H 7200 1250 50  0001 C CNN
F 1 "+5VL" H 7200 1540 50  0000 C CNN
F 2 "" H 7200 1400 50  0000 C CNN
F 3 "" H 7200 1400 50  0000 C CNN
	1    7200 1400
	1    0    0    -1  
$EndComp
Wire Wire Line
	7200 2200 7200 2300
Wire Wire Line
	7300 2250 7200 2250
Connection ~ 7200 2250
Wire Wire Line
	7200 1400 7200 2000
Wire Wire Line
	7200 1950 7300 1950
Connection ~ 7200 1950
$Comp
L 74AHC1G14 U19
U 1 1 5A678C3E
P 8600 2100
F 0 "U19" H 8750 2400 50  0000 C CNN
F 1 "SN74LVC1G04DBVR " H 9050 2300 50  0000 C CNN
F 2 "TO_SOT_Packages_SMD:SOT-23-5" H 8695 1965 50  0001 C CNN
F 3 "" H 8745 2215 50  0000 C CNN
	1    8600 2100
	1    0    0    -1  
$EndComp
$Comp
L R_Small R9
U 1 1 5A678C44
P 8050 1700
F 0 "R9" H 8080 1720 50  0000 L CNN
F 1 "1k2" H 8080 1660 50  0000 L CNN
F 2 "Resistors_SMD:R_0603_HandSoldering" H 8050 1700 50  0001 C CNN
F 3 "" H 8050 1700 50  0000 C CNN
	1    8050 1700
	1    0    0    -1  
$EndComp
Wire Wire Line
	8150 2100 7950 2100
Wire Wire Line
	8050 1800 8050 2100
Connection ~ 8050 2100
Wire Wire Line
	7200 1500 8550 1500
Wire Wire Line
	8550 1500 8550 1900
Wire Wire Line
	8050 1600 8050 1500
Connection ~ 8050 1500
Connection ~ 7200 1500
$Comp
L GND #PWR032
U 1 1 5A678C52
P 8550 2350
F 0 "#PWR032" H 8550 2100 50  0001 C CNN
F 1 "GND" H 8550 2200 50  0000 C CNN
F 2 "" H 8550 2350 50  0000 C CNN
F 3 "" H 8550 2350 50  0000 C CNN
	1    8550 2350
	1    0    0    -1  
$EndComp
Wire Wire Line
	8550 2300 8550 2350
Text GLabel 9150 2100 2    60   Output ~ 0
L_A_09
Wire Wire Line
	9150 2100 9050 2100
$Comp
L C_Small C10
U 1 1 5A678C5B
P 7200 3500
F 0 "C10" H 7000 3600 50  0000 L CNN
F 1 "47n" H 7000 3400 50  0000 L CNN
F 2 "Capacitors_SMD:C_0603_HandSoldering" H 7200 3500 50  0001 C CNN
F 3 "" H 7200 3500 50  0000 C CNN
	1    7200 3500
	1    0    0    -1  
$EndComp
$Comp
L GND #PWR033
U 1 1 5A678C61
P 7200 3700
F 0 "#PWR033" H 7200 3450 50  0001 C CNN
F 1 "GND" H 7200 3550 50  0000 C CNN
F 2 "" H 7200 3700 50  0000 C CNN
F 3 "" H 7200 3700 50  0000 C CNN
	1    7200 3700
	1    0    0    -1  
$EndComp
$Comp
L TLE496x U10
U 1 1 5A678C67
P 7600 3550
F 0 "U10" H 7550 3950 60  0000 C CNN
F 1 "TLE496x" H 7650 3850 60  0000 C CNN
F 2 "TO_SOT_Packages_SMD:SOT-23" H 6850 4100 60  0001 C CNN
F 3 "" H 6850 4100 60  0000 C CNN
	1    7600 3550
	1    0    0    -1  
$EndComp
$Comp
L +5VL #PWR034
U 1 1 5A678C6D
P 7200 2800
F 0 "#PWR034" H 7200 2650 50  0001 C CNN
F 1 "+5VL" H 7200 2940 50  0000 C CNN
F 2 "" H 7200 2800 50  0000 C CNN
F 3 "" H 7200 2800 50  0000 C CNN
	1    7200 2800
	1    0    0    -1  
$EndComp
Wire Wire Line
	7200 3600 7200 3700
Wire Wire Line
	7300 3650 7200 3650
Connection ~ 7200 3650
Wire Wire Line
	7200 2800 7200 3400
Wire Wire Line
	7200 3350 7300 3350
Connection ~ 7200 3350
$Comp
L 74AHC1G14 U20
U 1 1 5A678C79
P 8600 3500
F 0 "U20" H 8750 3800 50  0000 C CNN
F 1 "SN74LVC1G04DBVR " H 9050 3700 50  0000 C CNN
F 2 "TO_SOT_Packages_SMD:SOT-23-5" H 8695 3365 50  0001 C CNN
F 3 "" H 8745 3615 50  0000 C CNN
	1    8600 3500
	1    0    0    -1  
$EndComp
$Comp
L R_Small R10
U 1 1 5A678C7F
P 8050 3100
F 0 "R10" H 8080 3120 50  0000 L CNN
F 1 "1k2" H 8080 3060 50  0000 L CNN
F 2 "Resistors_SMD:R_0603_HandSoldering" H 8050 3100 50  0001 C CNN
F 3 "" H 8050 3100 50  0000 C CNN
	1    8050 3100
	1    0    0    -1  
$EndComp
Wire Wire Line
	8150 3500 7950 3500
Wire Wire Line
	8050 3200 8050 3500
Connection ~ 8050 3500
Wire Wire Line
	7200 2900 8550 2900
Wire Wire Line
	8550 2900 8550 3300
Wire Wire Line
	8050 3000 8050 2900
Connection ~ 8050 2900
Connection ~ 7200 2900
$Comp
L GND #PWR035
U 1 1 5A678C8D
P 8550 3750
F 0 "#PWR035" H 8550 3500 50  0001 C CNN
F 1 "GND" H 8550 3600 50  0000 C CNN
F 2 "" H 8550 3750 50  0000 C CNN
F 3 "" H 8550 3750 50  0000 C CNN
	1    8550 3750
	1    0    0    -1  
$EndComp
Wire Wire Line
	8550 3700 8550 3750
Text GLabel 9150 3500 2    60   Output ~ 0
L_A_10
Wire Wire Line
	9150 3500 9050 3500
$Comp
L PWR_FLAG #FLG036
U 1 1 5A679307
P 10100 3250
F 0 "#FLG036" H 10100 3345 50  0001 C CNN
F 1 "PWR_FLAG" H 10100 3430 50  0000 C CNN
F 2 "" H 10100 3250 50  0000 C CNN
F 3 "" H 10100 3250 50  0000 C CNN
	1    10100 3250
	0    -1   -1   0   
$EndComp
$Comp
L PWR_FLAG #FLG037
U 1 1 5A6796CC
P 10400 2900
F 0 "#FLG037" H 10400 2995 50  0001 C CNN
F 1 "PWR_FLAG" H 10400 3080 50  0000 C CNN
F 2 "" H 10400 2900 50  0000 C CNN
F 3 "" H 10400 2900 50  0000 C CNN
	1    10400 2900
	1    0    0    -1  
$EndComp
$Comp
L CONN_01X01 P14
U 1 1 5A69D498
P 10850 5600
F 0 "P14" H 10850 5700 50  0000 C CNN
F 1 "CONN_01X01" V 10950 5600 50  0001 C CNN
F 2 "pcb:SolderWirePad_single_0-8mmDrilld1.2" H 10850 5600 50  0001 C CNN
F 3 "" H 10850 5600 50  0000 C CNN
	1    10850 5600
	1    0    0    -1  
$EndComp
$Comp
L CONN_01X01 P13
U 1 1 5A69D976
P 10850 5400
F 0 "P13" H 10850 5500 50  0000 C CNN
F 1 "CONN_01X01" V 10950 5400 50  0001 C CNN
F 2 "pcb:SolderWirePad_single_0-8mmDrilld1.2" H 10850 5400 50  0001 C CNN
F 3 "" H 10850 5400 50  0000 C CNN
	1    10850 5400
	1    0    0    -1  
$EndComp
$Comp
L CONN_01X01 P12
U 1 1 5A69DA64
P 10850 5200
F 0 "P12" H 10850 5300 50  0000 C CNN
F 1 "CONN_01X01" V 10950 5200 50  0001 C CNN
F 2 "pcb:SolderWirePad_single_0-8mmDrilld1.2" H 10850 5200 50  0001 C CNN
F 3 "" H 10850 5200 50  0000 C CNN
	1    10850 5200
	1    0    0    -1  
$EndComp
$Comp
L CONN_01X01 P11
U 1 1 5A69DA6A
P 10850 5000
F 0 "P11" H 10850 5100 50  0000 C CNN
F 1 "CONN_01X01" V 10950 5000 50  0001 C CNN
F 2 "pcb:SolderWirePad_single_0-8mmDrilld1.2" H 10850 5000 50  0001 C CNN
F 3 "" H 10850 5000 50  0000 C CNN
	1    10850 5000
	1    0    0    -1  
$EndComp
$Comp
L CONN_01X01 P10
U 1 1 5A69DB7E
P 10850 4800
F 0 "P10" H 10850 4900 50  0000 C CNN
F 1 "CONN_01X01" V 10950 4800 50  0001 C CNN
F 2 "pcb:SolderWirePad_single_0-8mmDrilld1.2" H 10850 4800 50  0001 C CNN
F 3 "" H 10850 4800 50  0000 C CNN
	1    10850 4800
	1    0    0    -1  
$EndComp
$Comp
L CONN_01X01 P9
U 1 1 5A69DB84
P 10850 4600
F 0 "P9" H 10850 4700 50  0000 C CNN
F 1 "CONN_01X01" V 10950 4600 50  0001 C CNN
F 2 "pcb:SolderWirePad_single_0-8mmDrilld1.2" H 10850 4600 50  0001 C CNN
F 3 "" H 10850 4600 50  0000 C CNN
	1    10850 4600
	1    0    0    -1  
$EndComp
$Comp
L CONN_01X01 P8
U 1 1 5A69DC09
P 10850 4400
F 0 "P8" H 10850 4500 50  0000 C CNN
F 1 "CONN_01X01" V 10950 4400 50  0001 C CNN
F 2 "pcb:SolderWirePad_single_0-8mmDrilld1.2" H 10850 4400 50  0001 C CNN
F 3 "" H 10850 4400 50  0000 C CNN
	1    10850 4400
	1    0    0    -1  
$EndComp
$Comp
L CONN_01X01 P7
U 1 1 5A69DF44
P 10850 4200
F 0 "P7" H 10850 4300 50  0000 C CNN
F 1 "CONN_01X01" V 10950 4200 50  0001 C CNN
F 2 "pcb:SolderWirePad_single_0-8mmDrilld1.2" H 10850 4200 50  0001 C CNN
F 3 "" H 10850 4200 50  0000 C CNN
	1    10850 4200
	1    0    0    -1  
$EndComp
$Comp
L CONN_01X01 P6
U 1 1 5A69DF4A
P 10850 4000
F 0 "P6" H 10850 4100 50  0000 C CNN
F 1 "CONN_01X01" V 10950 4000 50  0001 C CNN
F 2 "pcb:SolderWirePad_single_0-8mmDrilld1.2" H 10850 4000 50  0001 C CNN
F 3 "" H 10850 4000 50  0000 C CNN
	1    10850 4000
	1    0    0    -1  
$EndComp
$Comp
L CONN_01X01 P5
U 1 1 5A69DF50
P 10850 3800
F 0 "P5" H 10850 3900 50  0000 C CNN
F 1 "CONN_01X01" V 10950 3800 50  0001 C CNN
F 2 "pcb:SolderWirePad_single_0-8mmDrilld1.2" H 10850 3800 50  0001 C CNN
F 3 "" H 10850 3800 50  0000 C CNN
	1    10850 3800
	1    0    0    -1  
$EndComp
$Comp
L CONN_01X01 P4
U 1 1 5A69DF56
P 10850 3600
F 0 "P4" H 10850 3700 50  0000 C CNN
F 1 "CONN_01X01" V 10950 3600 50  0001 C CNN
F 2 "pcb:SolderWirePad_single_0-8mmDrilld1.2" H 10850 3600 50  0001 C CNN
F 3 "" H 10850 3600 50  0000 C CNN
	1    10850 3600
	1    0    0    -1  
$EndComp
$Comp
L CONN_01X01 P3
U 1 1 5A69DF5C
P 10850 3400
F 0 "P3" H 10850 3500 50  0000 C CNN
F 1 "CONN_01X01" V 10950 3400 50  0001 C CNN
F 2 "pcb:SolderWirePad_single_0-8mmDrilld1.2" H 10850 3400 50  0001 C CNN
F 3 "" H 10850 3400 50  0000 C CNN
	1    10850 3400
	1    0    0    -1  
$EndComp
$Comp
L CONN_01X01 P2
U 1 1 5A69DF62
P 10850 3200
F 0 "P2" H 10850 3300 50  0000 C CNN
F 1 "CONN_01X01" V 10950 3200 50  0001 C CNN
F 2 "pcb:SolderWirePad_single_0-8mmDrilld1.2" H 10850 3200 50  0001 C CNN
F 3 "" H 10850 3200 50  0000 C CNN
	1    10850 3200
	1    0    0    -1  
$EndComp
$Comp
L CONN_01X01 P1
U 1 1 5A69DF68
P 10850 3000
F 0 "P1" H 10850 3100 50  0000 C CNN
F 1 "CONN_01X01" V 10950 3000 50  0001 C CNN
F 2 "pcb:SolderWirePad_single_0-8mmDrilld1.2" H 10850 3000 50  0001 C CNN
F 3 "" H 10850 3000 50  0000 C CNN
	1    10850 3000
	1    0    0    -1  
$EndComp
Wire Wire Line
	10550 3800 10650 3800
Wire Wire Line
	10650 4000 10550 4000
Wire Wire Line
	10650 4200 10550 4200
Wire Wire Line
	10550 4400 10650 4400
Wire Wire Line
	10650 4600 10550 4600
Wire Wire Line
	10650 4800 10550 4800
Wire Wire Line
	10650 5000 10550 5000
Wire Wire Line
	10550 5200 10650 5200
Wire Wire Line
	10650 5400 10550 5400
Wire Wire Line
	10550 5600 10650 5600
Wire Wire Line
	10650 5800 10550 5800
Wire Wire Line
	10350 3000 10650 3000
Wire Wire Line
	10650 3200 10500 3200
Wire Wire Line
	10500 3200 10500 3000
Connection ~ 10500 3000
Wire Wire Line
	10650 3600 10350 3600
Wire Wire Line
	10400 2900 10400 3000
Connection ~ 10400 3000
Wire Wire Line
	10100 3250 10400 3250
Wire Wire Line
	10400 3250 10400 3600
Connection ~ 10400 3600
$Comp
L CONN_01X01 P15
U 1 1 5A6A3127
P 10850 5800
F 0 "P15" H 10850 5900 50  0000 C CNN
F 1 "CONN_01X01" V 10950 5800 50  0001 C CNN
F 2 "pcb:SolderWirePad_single_0-8mmDrilld1.2" H 10850 5800 50  0001 C CNN
F 3 "" H 10850 5800 50  0000 C CNN
	1    10850 5800
	1    0    0    -1  
$EndComp
Wire Wire Line
	10400 3400 10650 3400
Connection ~ 10400 3400
$EndSCHEMATC
