G04 #@! TF.FileFunction,Legend,Top*
%FSLAX46Y46*%
G04 Gerber Fmt 4.6, Leading zero omitted, Abs format (unit mm)*
G04 Created by KiCad (PCBNEW 4.0.2+dfsg1-stable) date sam. 17 mars 2018 15:39:07 CET*
%MOMM*%
G01*
G04 APERTURE LIST*
%ADD10C,0.100000*%
%ADD11C,0.150000*%
%ADD12C,0.200000*%
G04 APERTURE END LIST*
D10*
D11*
X45928572Y-41661905D02*
X45471429Y-41661905D01*
X45700000Y-41661905D02*
X45700000Y-40861905D01*
X45623810Y-40976190D01*
X45547619Y-41052381D01*
X45471429Y-41090476D01*
X226961905Y-43161905D02*
X226961905Y-43542858D01*
X226161905Y-43542858D01*
X226923810Y-42590477D02*
X226961905Y-42666667D01*
X226961905Y-42819048D01*
X226923810Y-42895239D01*
X226847619Y-42933334D01*
X226542857Y-42933334D01*
X226466667Y-42895239D01*
X226428571Y-42819048D01*
X226428571Y-42666667D01*
X226466667Y-42590477D01*
X226542857Y-42552382D01*
X226619048Y-42552382D01*
X226695238Y-42933334D01*
X226428571Y-42323811D02*
X226428571Y-42019049D01*
X226961905Y-42209525D02*
X226276190Y-42209525D01*
X226200000Y-42171430D01*
X226161905Y-42095239D01*
X226161905Y-42019049D01*
X226428571Y-41866668D02*
X226428571Y-41561906D01*
X226161905Y-41752382D02*
X226847619Y-41752382D01*
X226923810Y-41714287D01*
X226961905Y-41638096D01*
X226961905Y-41561906D01*
X226961905Y-40685715D02*
X226161905Y-40685715D01*
X226542857Y-40685715D02*
X226542857Y-40228572D01*
X226961905Y-40228572D02*
X226161905Y-40228572D01*
X226961905Y-39504763D02*
X226542857Y-39504763D01*
X226466667Y-39542858D01*
X226428571Y-39619048D01*
X226428571Y-39771429D01*
X226466667Y-39847620D01*
X226923810Y-39504763D02*
X226961905Y-39580953D01*
X226961905Y-39771429D01*
X226923810Y-39847620D01*
X226847619Y-39885715D01*
X226771429Y-39885715D01*
X226695238Y-39847620D01*
X226657143Y-39771429D01*
X226657143Y-39580953D01*
X226619048Y-39504763D01*
X226428571Y-39123810D02*
X226961905Y-39123810D01*
X226504762Y-39123810D02*
X226466667Y-39085715D01*
X226428571Y-39009524D01*
X226428571Y-38895238D01*
X226466667Y-38819048D01*
X226542857Y-38780953D01*
X226961905Y-38780953D01*
X226961905Y-38057143D02*
X226161905Y-38057143D01*
X226923810Y-38057143D02*
X226961905Y-38133333D01*
X226961905Y-38285714D01*
X226923810Y-38361905D01*
X226885714Y-38400000D01*
X226809524Y-38438095D01*
X226580952Y-38438095D01*
X226504762Y-38400000D01*
X226466667Y-38361905D01*
X226428571Y-38285714D01*
X226428571Y-38133333D01*
X226466667Y-38057143D01*
X222509523Y-35142857D02*
X222623809Y-35180952D01*
X222661904Y-35219048D01*
X222699999Y-35295238D01*
X222699999Y-35409524D01*
X222661904Y-35485714D01*
X222623809Y-35523810D01*
X222547618Y-35561905D01*
X222242856Y-35561905D01*
X222242856Y-34761905D01*
X222509523Y-34761905D01*
X222585713Y-34800000D01*
X222623809Y-34838095D01*
X222661904Y-34914286D01*
X222661904Y-34990476D01*
X222623809Y-35066667D01*
X222585713Y-35104762D01*
X222509523Y-35142857D01*
X222242856Y-35142857D01*
X223385713Y-35561905D02*
X223385713Y-35142857D01*
X223347618Y-35066667D01*
X223271428Y-35028571D01*
X223119047Y-35028571D01*
X223042856Y-35066667D01*
X223385713Y-35523810D02*
X223309523Y-35561905D01*
X223119047Y-35561905D01*
X223042856Y-35523810D01*
X223004761Y-35447619D01*
X223004761Y-35371429D01*
X223042856Y-35295238D01*
X223119047Y-35257143D01*
X223309523Y-35257143D01*
X223385713Y-35219048D01*
X223766666Y-35028571D02*
X223766666Y-35561905D01*
X223766666Y-35104762D02*
X223804761Y-35066667D01*
X223880952Y-35028571D01*
X223995238Y-35028571D01*
X224071428Y-35066667D01*
X224109523Y-35142857D01*
X224109523Y-35561905D01*
X224833333Y-35561905D02*
X224833333Y-34761905D01*
X224833333Y-35523810D02*
X224757143Y-35561905D01*
X224604762Y-35561905D01*
X224528571Y-35523810D01*
X224490476Y-35485714D01*
X224452381Y-35409524D01*
X224452381Y-35180952D01*
X224490476Y-35104762D01*
X224528571Y-35066667D01*
X224604762Y-35028571D01*
X224757143Y-35028571D01*
X224833333Y-35066667D01*
X225328572Y-35561905D02*
X225252381Y-35523810D01*
X225214286Y-35485714D01*
X225176191Y-35409524D01*
X225176191Y-35180952D01*
X225214286Y-35104762D01*
X225252381Y-35066667D01*
X225328572Y-35028571D01*
X225442858Y-35028571D01*
X225519048Y-35066667D01*
X225557143Y-35104762D01*
X225595239Y-35180952D01*
X225595239Y-35409524D01*
X225557143Y-35485714D01*
X225519048Y-35523810D01*
X225442858Y-35561905D01*
X225328572Y-35561905D01*
X225938096Y-35561905D02*
X225938096Y-34761905D01*
X226204763Y-35333333D01*
X226471430Y-34761905D01*
X226471430Y-35561905D01*
X226852382Y-35561905D02*
X226852382Y-34761905D01*
X227233334Y-35561905D02*
X227233334Y-34761905D01*
X227423810Y-34761905D01*
X227538096Y-34800000D01*
X227614287Y-34876190D01*
X227652382Y-34952381D01*
X227690477Y-35104762D01*
X227690477Y-35219048D01*
X227652382Y-35371429D01*
X227614287Y-35447619D01*
X227538096Y-35523810D01*
X227423810Y-35561905D01*
X227233334Y-35561905D01*
X228033334Y-35561905D02*
X228033334Y-34761905D01*
X228947620Y-35028571D02*
X229138096Y-35561905D01*
X229328572Y-35028571D01*
X230052382Y-35561905D02*
X229595239Y-35561905D01*
X229823810Y-35561905D02*
X229823810Y-34761905D01*
X229747620Y-34876190D01*
X229671429Y-34952381D01*
X229595239Y-34990476D01*
X230395239Y-35485714D02*
X230433334Y-35523810D01*
X230395239Y-35561905D01*
X230357144Y-35523810D01*
X230395239Y-35485714D01*
X230395239Y-35561905D01*
X230928572Y-34761905D02*
X231004763Y-34761905D01*
X231080953Y-34800000D01*
X231119048Y-34838095D01*
X231157144Y-34914286D01*
X231195239Y-35066667D01*
X231195239Y-35257143D01*
X231157144Y-35409524D01*
X231119048Y-35485714D01*
X231080953Y-35523810D01*
X231004763Y-35561905D01*
X230928572Y-35561905D01*
X230852382Y-35523810D01*
X230814286Y-35485714D01*
X230776191Y-35409524D01*
X230738096Y-35257143D01*
X230738096Y-35066667D01*
X230776191Y-34914286D01*
X230814286Y-34838095D01*
X230852382Y-34800000D01*
X230928572Y-34761905D01*
X239211905Y-36161905D02*
X239288096Y-36161905D01*
X239364286Y-36200000D01*
X239402381Y-36238095D01*
X239440477Y-36314286D01*
X239478572Y-36466667D01*
X239478572Y-36657143D01*
X239440477Y-36809524D01*
X239402381Y-36885714D01*
X239364286Y-36923810D01*
X239288096Y-36961905D01*
X239211905Y-36961905D01*
X239135715Y-36923810D01*
X239097619Y-36885714D01*
X239059524Y-36809524D01*
X239021429Y-36657143D01*
X239021429Y-36466667D01*
X239059524Y-36314286D01*
X239097619Y-36238095D01*
X239135715Y-36200000D01*
X239211905Y-36161905D01*
X241978572Y-37061905D02*
X241521429Y-37061905D01*
X241750000Y-37061905D02*
X241750000Y-36261905D01*
X241673810Y-36376190D01*
X241597619Y-36452381D01*
X241521429Y-36490476D01*
X50561905Y-40961905D02*
X50638096Y-40961905D01*
X50714286Y-41000000D01*
X50752381Y-41038095D01*
X50790477Y-41114286D01*
X50828572Y-41266667D01*
X50828572Y-41457143D01*
X50790477Y-41609524D01*
X50752381Y-41685714D01*
X50714286Y-41723810D01*
X50638096Y-41761905D01*
X50561905Y-41761905D01*
X50485715Y-41723810D01*
X50447619Y-41685714D01*
X50409524Y-41609524D01*
X50371429Y-41457143D01*
X50371429Y-41266667D01*
X50409524Y-41114286D01*
X50447619Y-41038095D01*
X50485715Y-41000000D01*
X50561905Y-40961905D01*
X242921429Y-38078571D02*
X243492858Y-38078571D01*
X243150000Y-37735714D02*
X242921429Y-38764286D01*
X243416667Y-38421429D02*
X242845238Y-38421429D01*
X243188096Y-38764286D02*
X243416667Y-37735714D01*
X243721429Y-37888095D02*
X243759524Y-37850000D01*
X243835715Y-37811905D01*
X244026191Y-37811905D01*
X244102381Y-37850000D01*
X244140477Y-37888095D01*
X244178572Y-37964286D01*
X244178572Y-38040476D01*
X244140477Y-38154762D01*
X243683334Y-38611905D01*
X244178572Y-38611905D01*
X242921429Y-40028571D02*
X243492858Y-40028571D01*
X243150000Y-39685714D02*
X242921429Y-40714286D01*
X243416667Y-40371429D02*
X242845238Y-40371429D01*
X243188096Y-40714286D02*
X243416667Y-39685714D01*
X244178572Y-40561905D02*
X243721429Y-40561905D01*
X243950000Y-40561905D02*
X243950000Y-39761905D01*
X243873810Y-39876190D01*
X243797619Y-39952381D01*
X243721429Y-39990476D01*
X242821429Y-42078571D02*
X243392858Y-42078571D01*
X243050000Y-41735714D02*
X242821429Y-42764286D01*
X243316667Y-42421429D02*
X242745238Y-42421429D01*
X243088096Y-42764286D02*
X243316667Y-41735714D01*
X243811905Y-41811905D02*
X243888096Y-41811905D01*
X243964286Y-41850000D01*
X244002381Y-41888095D01*
X244040477Y-41964286D01*
X244078572Y-42116667D01*
X244078572Y-42307143D01*
X244040477Y-42459524D01*
X244002381Y-42535714D01*
X243964286Y-42573810D01*
X243888096Y-42611905D01*
X243811905Y-42611905D01*
X243735715Y-42573810D01*
X243697619Y-42535714D01*
X243659524Y-42459524D01*
X243621429Y-42307143D01*
X243621429Y-42116667D01*
X243659524Y-41964286D01*
X243697619Y-41888095D01*
X243735715Y-41850000D01*
X243811905Y-41811905D01*
X44771429Y-42528571D02*
X45342858Y-42528571D01*
X45000000Y-42185714D02*
X44771429Y-43214286D01*
X45266667Y-42871429D02*
X44695238Y-42871429D01*
X45038096Y-43214286D02*
X45266667Y-42185714D01*
X45571429Y-42338095D02*
X45609524Y-42300000D01*
X45685715Y-42261905D01*
X45876191Y-42261905D01*
X45952381Y-42300000D01*
X45990477Y-42338095D01*
X46028572Y-42414286D01*
X46028572Y-42490476D01*
X45990477Y-42604762D01*
X45533334Y-43061905D01*
X46028572Y-43061905D01*
X44771429Y-39828571D02*
X45342858Y-39828571D01*
X45000000Y-39485714D02*
X44771429Y-40514286D01*
X45266667Y-40171429D02*
X44695238Y-40171429D01*
X45038096Y-40514286D02*
X45266667Y-39485714D01*
X46028572Y-40361905D02*
X45571429Y-40361905D01*
X45800000Y-40361905D02*
X45800000Y-39561905D01*
X45723810Y-39676190D01*
X45647619Y-39752381D01*
X45571429Y-39790476D01*
X44671429Y-38228571D02*
X45242858Y-38228571D01*
X44900000Y-37885714D02*
X44671429Y-38914286D01*
X45166667Y-38571429D02*
X44595238Y-38571429D01*
X44938096Y-38914286D02*
X45166667Y-37885714D01*
X45661905Y-37961905D02*
X45738096Y-37961905D01*
X45814286Y-38000000D01*
X45852381Y-38038095D01*
X45890477Y-38114286D01*
X45928572Y-38266667D01*
X45928572Y-38457143D01*
X45890477Y-38609524D01*
X45852381Y-38685714D01*
X45814286Y-38723810D01*
X45738096Y-38761905D01*
X45661905Y-38761905D01*
X45585715Y-38723810D01*
X45547619Y-38685714D01*
X45509524Y-38609524D01*
X45471429Y-38457143D01*
X45471429Y-38266667D01*
X45509524Y-38114286D01*
X45547619Y-38038095D01*
X45585715Y-38000000D01*
X45661905Y-37961905D01*
D12*
X233400000Y-34750000D02*
X235300000Y-34750000D01*
X233395238Y-36052381D02*
X233395238Y-35052381D01*
X233871428Y-36052381D02*
X233871428Y-35052381D01*
X234442857Y-36052381D01*
X234442857Y-35052381D01*
X234776190Y-35052381D02*
X235347619Y-35052381D01*
X235061904Y-36052381D02*
X235061904Y-35052381D01*
X240171429Y-46285714D02*
X240171429Y-45523809D01*
X240552381Y-45904761D02*
X239790476Y-45904761D01*
X239552381Y-44571428D02*
X239552381Y-45047619D01*
X240028571Y-45095238D01*
X239980952Y-45047619D01*
X239933333Y-44952381D01*
X239933333Y-44714285D01*
X239980952Y-44619047D01*
X240028571Y-44571428D01*
X240123810Y-44523809D01*
X240361905Y-44523809D01*
X240457143Y-44571428D01*
X240504762Y-44619047D01*
X240552381Y-44714285D01*
X240552381Y-44952381D01*
X240504762Y-45047619D01*
X240457143Y-45095238D01*
X239552381Y-44238095D02*
X240552381Y-43904762D01*
X239552381Y-43571428D01*
X234800000Y-45592857D02*
X234752381Y-45688095D01*
X234752381Y-45830952D01*
X234800000Y-45973810D01*
X234895238Y-46069048D01*
X234990476Y-46116667D01*
X235180952Y-46164286D01*
X235323810Y-46164286D01*
X235514286Y-46116667D01*
X235609524Y-46069048D01*
X235704762Y-45973810D01*
X235752381Y-45830952D01*
X235752381Y-45735714D01*
X235704762Y-45592857D01*
X235657143Y-45545238D01*
X235323810Y-45545238D01*
X235323810Y-45735714D01*
X235085714Y-45116667D02*
X235752381Y-45116667D01*
X235180952Y-45116667D02*
X235133333Y-45069048D01*
X235085714Y-44973810D01*
X235085714Y-44830952D01*
X235133333Y-44735714D01*
X235228571Y-44688095D01*
X235752381Y-44688095D01*
X235752381Y-43783333D02*
X234752381Y-43783333D01*
X235704762Y-43783333D02*
X235752381Y-43878571D01*
X235752381Y-44069048D01*
X235704762Y-44164286D01*
X235657143Y-44211905D01*
X235561905Y-44259524D01*
X235276190Y-44259524D01*
X235180952Y-44211905D01*
X235133333Y-44164286D01*
X235085714Y-44069048D01*
X235085714Y-43878571D01*
X235133333Y-43783333D01*
D11*
X230973810Y-45830952D02*
X231011905Y-45716666D01*
X231011905Y-45526190D01*
X230973810Y-45450000D01*
X230935714Y-45411904D01*
X230859524Y-45373809D01*
X230783333Y-45373809D01*
X230707143Y-45411904D01*
X230669048Y-45450000D01*
X230630952Y-45526190D01*
X230592857Y-45678571D01*
X230554762Y-45754762D01*
X230516667Y-45792857D01*
X230440476Y-45830952D01*
X230364286Y-45830952D01*
X230288095Y-45792857D01*
X230250000Y-45754762D01*
X230211905Y-45678571D01*
X230211905Y-45488095D01*
X230250000Y-45373809D01*
X230973810Y-44688095D02*
X231011905Y-44764285D01*
X231011905Y-44916666D01*
X230973810Y-44992857D01*
X230935714Y-45030952D01*
X230859524Y-45069047D01*
X230630952Y-45069047D01*
X230554762Y-45030952D01*
X230516667Y-44992857D01*
X230478571Y-44916666D01*
X230478571Y-44764285D01*
X230516667Y-44688095D01*
X231011905Y-44230952D02*
X230973810Y-44307143D01*
X230897619Y-44345238D01*
X230211905Y-44345238D01*
X226623810Y-46102381D02*
X226661905Y-45988095D01*
X226661905Y-45797619D01*
X226623810Y-45721429D01*
X226585714Y-45683333D01*
X226509524Y-45645238D01*
X226433333Y-45645238D01*
X226357143Y-45683333D01*
X226319048Y-45721429D01*
X226280952Y-45797619D01*
X226242857Y-45950000D01*
X226204762Y-46026191D01*
X226166667Y-46064286D01*
X226090476Y-46102381D01*
X226014286Y-46102381D01*
X225938095Y-46064286D01*
X225900000Y-46026191D01*
X225861905Y-45950000D01*
X225861905Y-45759524D01*
X225900000Y-45645238D01*
X226661905Y-44959524D02*
X225861905Y-44959524D01*
X226623810Y-44959524D02*
X226661905Y-45035714D01*
X226661905Y-45188095D01*
X226623810Y-45264286D01*
X226585714Y-45302381D01*
X226509524Y-45340476D01*
X226280952Y-45340476D01*
X226204762Y-45302381D01*
X226166667Y-45264286D01*
X226128571Y-45188095D01*
X226128571Y-45035714D01*
X226166667Y-44959524D01*
X226661905Y-44235714D02*
X226242857Y-44235714D01*
X226166667Y-44273809D01*
X226128571Y-44349999D01*
X226128571Y-44502380D01*
X226166667Y-44578571D01*
X226623810Y-44235714D02*
X226661905Y-44311904D01*
X226661905Y-44502380D01*
X226623810Y-44578571D01*
X226547619Y-44616666D01*
X226471429Y-44616666D01*
X226395238Y-44578571D01*
X226357143Y-44502380D01*
X226357143Y-44311904D01*
X226319048Y-44235714D01*
X60023810Y-46152381D02*
X60061905Y-46038095D01*
X60061905Y-45847619D01*
X60023810Y-45771429D01*
X59985714Y-45733333D01*
X59909524Y-45695238D01*
X59833333Y-45695238D01*
X59757143Y-45733333D01*
X59719048Y-45771429D01*
X59680952Y-45847619D01*
X59642857Y-46000000D01*
X59604762Y-46076191D01*
X59566667Y-46114286D01*
X59490476Y-46152381D01*
X59414286Y-46152381D01*
X59338095Y-46114286D01*
X59300000Y-46076191D01*
X59261905Y-46000000D01*
X59261905Y-45809524D01*
X59300000Y-45695238D01*
X60061905Y-45009524D02*
X59261905Y-45009524D01*
X60023810Y-45009524D02*
X60061905Y-45085714D01*
X60061905Y-45238095D01*
X60023810Y-45314286D01*
X59985714Y-45352381D01*
X59909524Y-45390476D01*
X59680952Y-45390476D01*
X59604762Y-45352381D01*
X59566667Y-45314286D01*
X59528571Y-45238095D01*
X59528571Y-45085714D01*
X59566667Y-45009524D01*
X60061905Y-44285714D02*
X59642857Y-44285714D01*
X59566667Y-44323809D01*
X59528571Y-44399999D01*
X59528571Y-44552380D01*
X59566667Y-44628571D01*
X60023810Y-44285714D02*
X60061905Y-44361904D01*
X60061905Y-44552380D01*
X60023810Y-44628571D01*
X59947619Y-44666666D01*
X59871429Y-44666666D01*
X59795238Y-44628571D01*
X59757143Y-44552380D01*
X59757143Y-44361904D01*
X59719048Y-44285714D01*
X55823810Y-46080952D02*
X55861905Y-45966666D01*
X55861905Y-45776190D01*
X55823810Y-45700000D01*
X55785714Y-45661904D01*
X55709524Y-45623809D01*
X55633333Y-45623809D01*
X55557143Y-45661904D01*
X55519048Y-45700000D01*
X55480952Y-45776190D01*
X55442857Y-45928571D01*
X55404762Y-46004762D01*
X55366667Y-46042857D01*
X55290476Y-46080952D01*
X55214286Y-46080952D01*
X55138095Y-46042857D01*
X55100000Y-46004762D01*
X55061905Y-45928571D01*
X55061905Y-45738095D01*
X55100000Y-45623809D01*
X55823810Y-44938095D02*
X55861905Y-45014285D01*
X55861905Y-45166666D01*
X55823810Y-45242857D01*
X55785714Y-45280952D01*
X55709524Y-45319047D01*
X55480952Y-45319047D01*
X55404762Y-45280952D01*
X55366667Y-45242857D01*
X55328571Y-45166666D01*
X55328571Y-45014285D01*
X55366667Y-44938095D01*
X55861905Y-44480952D02*
X55823810Y-44557143D01*
X55747619Y-44595238D01*
X55061905Y-44595238D01*
D12*
X49800000Y-45742857D02*
X49752381Y-45838095D01*
X49752381Y-45980952D01*
X49800000Y-46123810D01*
X49895238Y-46219048D01*
X49990476Y-46266667D01*
X50180952Y-46314286D01*
X50323810Y-46314286D01*
X50514286Y-46266667D01*
X50609524Y-46219048D01*
X50704762Y-46123810D01*
X50752381Y-45980952D01*
X50752381Y-45885714D01*
X50704762Y-45742857D01*
X50657143Y-45695238D01*
X50323810Y-45695238D01*
X50323810Y-45885714D01*
X50085714Y-45266667D02*
X50752381Y-45266667D01*
X50180952Y-45266667D02*
X50133333Y-45219048D01*
X50085714Y-45123810D01*
X50085714Y-44980952D01*
X50133333Y-44885714D01*
X50228571Y-44838095D01*
X50752381Y-44838095D01*
X50752381Y-43933333D02*
X49752381Y-43933333D01*
X50704762Y-43933333D02*
X50752381Y-44028571D01*
X50752381Y-44219048D01*
X50704762Y-44314286D01*
X50657143Y-44361905D01*
X50561905Y-44409524D01*
X50276190Y-44409524D01*
X50180952Y-44361905D01*
X50133333Y-44314286D01*
X50085714Y-44219048D01*
X50085714Y-44028571D01*
X50133333Y-43933333D01*
X45757143Y-46128571D02*
X45757143Y-45519047D01*
X46061905Y-45823809D02*
X45452381Y-45823809D01*
X45261905Y-44757142D02*
X45261905Y-45138095D01*
X45642857Y-45176190D01*
X45604762Y-45138095D01*
X45566667Y-45061904D01*
X45566667Y-44871428D01*
X45604762Y-44795238D01*
X45642857Y-44757142D01*
X45719048Y-44719047D01*
X45909524Y-44719047D01*
X45985714Y-44757142D01*
X46023810Y-44795238D01*
X46061905Y-44871428D01*
X46061905Y-45061904D01*
X46023810Y-45138095D01*
X45985714Y-45176190D01*
X45261905Y-44490476D02*
X46061905Y-44223809D01*
X45261905Y-43957142D01*
D11*
X59378000Y-43610000D02*
X59378000Y-35990000D01*
X55822000Y-35990000D02*
X55822000Y-43610000D01*
X59378000Y-43610000D02*
X55822000Y-43610000D01*
X55822000Y-35990000D02*
X59378000Y-35990000D01*
X56689210Y-36498000D02*
G75*
G03X56689210Y-36498000I-359210J0D01*
G01*
X58235000Y-35990000D02*
X58235000Y-36752000D01*
X58235000Y-36752000D02*
X56965000Y-36752000D01*
X56965000Y-36752000D02*
X56965000Y-35990000D01*
X61200000Y-34700000D02*
X61900000Y-34700000D01*
X61900000Y-35900000D02*
X61200000Y-35900000D01*
X67150000Y-34400000D02*
X67850000Y-34400000D01*
X67850000Y-35600000D02*
X67150000Y-35600000D01*
X96250000Y-34400000D02*
X96950000Y-34400000D01*
X96950000Y-35600000D02*
X96250000Y-35600000D01*
X125650000Y-34400000D02*
X126350000Y-34400000D01*
X126350000Y-35600000D02*
X125650000Y-35600000D01*
X81850000Y-34500000D02*
X82550000Y-34500000D01*
X82550000Y-35700000D02*
X81850000Y-35700000D01*
X110950000Y-34500000D02*
X111650000Y-34500000D01*
X111650000Y-35700000D02*
X110950000Y-35700000D01*
X140050000Y-34500000D02*
X140750000Y-34500000D01*
X140750000Y-35700000D02*
X140050000Y-35700000D01*
X154950000Y-34600000D02*
X155650000Y-34600000D01*
X155650000Y-35800000D02*
X154950000Y-35800000D01*
X184050000Y-34600000D02*
X184750000Y-34600000D01*
X184750000Y-35800000D02*
X184050000Y-35800000D01*
X213150000Y-34600000D02*
X213850000Y-34600000D01*
X213850000Y-35800000D02*
X213150000Y-35800000D01*
X169550000Y-34500000D02*
X170250000Y-34500000D01*
X170250000Y-35700000D02*
X169550000Y-35700000D01*
X198750000Y-34500000D02*
X199450000Y-34500000D01*
X199450000Y-35700000D02*
X198750000Y-35700000D01*
X240850000Y-35700000D02*
X240150000Y-35700000D01*
X240150000Y-34500000D02*
X240850000Y-34500000D01*
X75000000Y-36325000D02*
X76000000Y-36325000D01*
X76000000Y-37675000D02*
X75000000Y-37675000D01*
X104100000Y-36325000D02*
X105100000Y-36325000D01*
X105100000Y-37675000D02*
X104100000Y-37675000D01*
X133400000Y-36325000D02*
X134400000Y-36325000D01*
X134400000Y-37675000D02*
X133400000Y-37675000D01*
X89600000Y-36225000D02*
X90600000Y-36225000D01*
X90600000Y-37575000D02*
X89600000Y-37575000D01*
X119000000Y-36125000D02*
X120000000Y-36125000D01*
X120000000Y-37475000D02*
X119000000Y-37475000D01*
X148100000Y-36225000D02*
X149100000Y-36225000D01*
X149100000Y-37575000D02*
X148100000Y-37575000D01*
X47650000Y-37325000D02*
X46650000Y-37325000D01*
X46650000Y-35975000D02*
X47650000Y-35975000D01*
X47650000Y-35775000D02*
X46650000Y-35775000D01*
X46650000Y-34425000D02*
X47650000Y-34425000D01*
X56800000Y-34675000D02*
X57800000Y-34675000D01*
X57800000Y-36025000D02*
X56800000Y-36025000D01*
X162500000Y-36225000D02*
X163500000Y-36225000D01*
X163500000Y-37575000D02*
X162500000Y-37575000D01*
X191900000Y-36125000D02*
X192900000Y-36125000D01*
X192900000Y-37475000D02*
X191900000Y-37475000D01*
X221100000Y-36125000D02*
X222100000Y-36125000D01*
X222100000Y-37475000D02*
X221100000Y-37475000D01*
X177200000Y-36125000D02*
X178200000Y-36125000D01*
X178200000Y-37475000D02*
X177200000Y-37475000D01*
X206600000Y-36125000D02*
X207600000Y-36125000D01*
X207600000Y-37475000D02*
X206600000Y-37475000D01*
X236825000Y-41250000D02*
X236825000Y-40250000D01*
X238175000Y-40250000D02*
X238175000Y-41250000D01*
X235075000Y-41250000D02*
X235075000Y-40250000D01*
X236425000Y-40250000D02*
X236425000Y-41250000D01*
X72799160Y-35349760D02*
X72750900Y-35349760D01*
X70000180Y-36050800D02*
X70000180Y-35349760D01*
X70000180Y-35349760D02*
X70249100Y-35349760D01*
X72799160Y-35349760D02*
X72999820Y-35349760D01*
X72999820Y-35349760D02*
X72999820Y-36050800D01*
X101899160Y-35349760D02*
X101850900Y-35349760D01*
X99100180Y-36050800D02*
X99100180Y-35349760D01*
X99100180Y-35349760D02*
X99349100Y-35349760D01*
X101899160Y-35349760D02*
X102099820Y-35349760D01*
X102099820Y-35349760D02*
X102099820Y-36050800D01*
X131199160Y-35349760D02*
X131150900Y-35349760D01*
X128400180Y-36050800D02*
X128400180Y-35349760D01*
X128400180Y-35349760D02*
X128649100Y-35349760D01*
X131199160Y-35349760D02*
X131399820Y-35349760D01*
X131399820Y-35349760D02*
X131399820Y-36050800D01*
X87399160Y-35349760D02*
X87350900Y-35349760D01*
X84600180Y-36050800D02*
X84600180Y-35349760D01*
X84600180Y-35349760D02*
X84849100Y-35349760D01*
X87399160Y-35349760D02*
X87599820Y-35349760D01*
X87599820Y-35349760D02*
X87599820Y-36050800D01*
X116599160Y-35349760D02*
X116550900Y-35349760D01*
X113800180Y-36050800D02*
X113800180Y-35349760D01*
X113800180Y-35349760D02*
X114049100Y-35349760D01*
X116599160Y-35349760D02*
X116799820Y-35349760D01*
X116799820Y-35349760D02*
X116799820Y-36050800D01*
X145799160Y-35449760D02*
X145750900Y-35449760D01*
X143000180Y-36150800D02*
X143000180Y-35449760D01*
X143000180Y-35449760D02*
X143249100Y-35449760D01*
X145799160Y-35449760D02*
X145999820Y-35449760D01*
X145999820Y-35449760D02*
X145999820Y-36150800D01*
X160399160Y-35349760D02*
X160350900Y-35349760D01*
X157600180Y-36050800D02*
X157600180Y-35349760D01*
X157600180Y-35349760D02*
X157849100Y-35349760D01*
X160399160Y-35349760D02*
X160599820Y-35349760D01*
X160599820Y-35349760D02*
X160599820Y-36050800D01*
X189599160Y-35349760D02*
X189550900Y-35349760D01*
X186800180Y-36050800D02*
X186800180Y-35349760D01*
X186800180Y-35349760D02*
X187049100Y-35349760D01*
X189599160Y-35349760D02*
X189799820Y-35349760D01*
X189799820Y-35349760D02*
X189799820Y-36050800D01*
X218799160Y-35349760D02*
X218750900Y-35349760D01*
X216000180Y-36050800D02*
X216000180Y-35349760D01*
X216000180Y-35349760D02*
X216249100Y-35349760D01*
X218799160Y-35349760D02*
X218999820Y-35349760D01*
X218999820Y-35349760D02*
X218999820Y-36050800D01*
X174999160Y-35349760D02*
X174950900Y-35349760D01*
X172200180Y-36050800D02*
X172200180Y-35349760D01*
X172200180Y-35349760D02*
X172449100Y-35349760D01*
X174999160Y-35349760D02*
X175199820Y-35349760D01*
X175199820Y-35349760D02*
X175199820Y-36050800D01*
X204199160Y-35349760D02*
X204150900Y-35349760D01*
X201400180Y-36050800D02*
X201400180Y-35349760D01*
X201400180Y-35349760D02*
X201649100Y-35349760D01*
X204199160Y-35349760D02*
X204399820Y-35349760D01*
X204399820Y-35349760D02*
X204399820Y-36050800D01*
X229472000Y-35890000D02*
X229472000Y-43510000D01*
X233028000Y-43510000D02*
X233028000Y-35890000D01*
X229472000Y-35890000D02*
X233028000Y-35890000D01*
X233028000Y-43510000D02*
X229472000Y-43510000D01*
X232879210Y-43002000D02*
G75*
G03X232879210Y-43002000I-359210J0D01*
G01*
X230615000Y-43510000D02*
X230615000Y-42748000D01*
X230615000Y-42748000D02*
X231885000Y-42748000D01*
X231885000Y-42748000D02*
X231885000Y-43510000D01*
X46195000Y-39239000D02*
X50005000Y-39239000D01*
X50005000Y-39239000D02*
X50005000Y-37461000D01*
X50005000Y-37461000D02*
X46195000Y-37461000D01*
X46195000Y-39239000D02*
X46195000Y-37461000D01*
X46195000Y-41239000D02*
X50005000Y-41239000D01*
X50005000Y-41239000D02*
X50005000Y-39461000D01*
X50005000Y-39461000D02*
X46195000Y-39461000D01*
X46195000Y-41239000D02*
X46195000Y-39461000D01*
X46195000Y-43239000D02*
X50005000Y-43239000D01*
X50005000Y-43239000D02*
X50005000Y-41461000D01*
X50005000Y-41461000D02*
X46195000Y-41461000D01*
X46195000Y-43239000D02*
X46195000Y-41461000D01*
X242405000Y-41311000D02*
X238595000Y-41311000D01*
X238595000Y-41311000D02*
X238595000Y-43089000D01*
X238595000Y-43089000D02*
X242405000Y-43089000D01*
X242405000Y-41311000D02*
X242405000Y-43089000D01*
X242405000Y-39311000D02*
X238595000Y-39311000D01*
X238595000Y-39311000D02*
X238595000Y-41089000D01*
X238595000Y-41089000D02*
X242405000Y-41089000D01*
X242405000Y-39311000D02*
X242405000Y-41089000D01*
X242405000Y-37311000D02*
X238595000Y-37311000D01*
X238595000Y-37311000D02*
X238595000Y-39089000D01*
X238595000Y-39089000D02*
X242405000Y-39089000D01*
X242405000Y-37311000D02*
X242405000Y-39089000D01*
X62716667Y-36935714D02*
X62678572Y-36973810D01*
X62564286Y-37011905D01*
X62488096Y-37011905D01*
X62373810Y-36973810D01*
X62297619Y-36897619D01*
X62259524Y-36821429D01*
X62221429Y-36669048D01*
X62221429Y-36554762D01*
X62259524Y-36402381D01*
X62297619Y-36326190D01*
X62373810Y-36250000D01*
X62488096Y-36211905D01*
X62564286Y-36211905D01*
X62678572Y-36250000D01*
X62716667Y-36288095D01*
X62983334Y-36211905D02*
X63516667Y-36211905D01*
X63173810Y-37011905D01*
X67833334Y-37057143D02*
X67785715Y-37104762D01*
X67642858Y-37152381D01*
X67547620Y-37152381D01*
X67404762Y-37104762D01*
X67309524Y-37009524D01*
X67261905Y-36914286D01*
X67214286Y-36723810D01*
X67214286Y-36580952D01*
X67261905Y-36390476D01*
X67309524Y-36295238D01*
X67404762Y-36200000D01*
X67547620Y-36152381D01*
X67642858Y-36152381D01*
X67785715Y-36200000D01*
X67833334Y-36247619D01*
X68785715Y-37152381D02*
X68214286Y-37152381D01*
X68500000Y-37152381D02*
X68500000Y-36152381D01*
X68404762Y-36295238D01*
X68309524Y-36390476D01*
X68214286Y-36438095D01*
X96433334Y-36857143D02*
X96385715Y-36904762D01*
X96242858Y-36952381D01*
X96147620Y-36952381D01*
X96004762Y-36904762D01*
X95909524Y-36809524D01*
X95861905Y-36714286D01*
X95814286Y-36523810D01*
X95814286Y-36380952D01*
X95861905Y-36190476D01*
X95909524Y-36095238D01*
X96004762Y-36000000D01*
X96147620Y-35952381D01*
X96242858Y-35952381D01*
X96385715Y-36000000D01*
X96433334Y-36047619D01*
X96814286Y-36047619D02*
X96861905Y-36000000D01*
X96957143Y-35952381D01*
X97195239Y-35952381D01*
X97290477Y-36000000D01*
X97338096Y-36047619D01*
X97385715Y-36142857D01*
X97385715Y-36238095D01*
X97338096Y-36380952D01*
X96766667Y-36952381D01*
X97385715Y-36952381D01*
X125833334Y-36957143D02*
X125785715Y-37004762D01*
X125642858Y-37052381D01*
X125547620Y-37052381D01*
X125404762Y-37004762D01*
X125309524Y-36909524D01*
X125261905Y-36814286D01*
X125214286Y-36623810D01*
X125214286Y-36480952D01*
X125261905Y-36290476D01*
X125309524Y-36195238D01*
X125404762Y-36100000D01*
X125547620Y-36052381D01*
X125642858Y-36052381D01*
X125785715Y-36100000D01*
X125833334Y-36147619D01*
X126166667Y-36052381D02*
X126785715Y-36052381D01*
X126452381Y-36433333D01*
X126595239Y-36433333D01*
X126690477Y-36480952D01*
X126738096Y-36528571D01*
X126785715Y-36623810D01*
X126785715Y-36861905D01*
X126738096Y-36957143D01*
X126690477Y-37004762D01*
X126595239Y-37052381D01*
X126309524Y-37052381D01*
X126214286Y-37004762D01*
X126166667Y-36957143D01*
X82033334Y-37157143D02*
X81985715Y-37204762D01*
X81842858Y-37252381D01*
X81747620Y-37252381D01*
X81604762Y-37204762D01*
X81509524Y-37109524D01*
X81461905Y-37014286D01*
X81414286Y-36823810D01*
X81414286Y-36680952D01*
X81461905Y-36490476D01*
X81509524Y-36395238D01*
X81604762Y-36300000D01*
X81747620Y-36252381D01*
X81842858Y-36252381D01*
X81985715Y-36300000D01*
X82033334Y-36347619D01*
X82890477Y-36585714D02*
X82890477Y-37252381D01*
X82652381Y-36204762D02*
X82414286Y-36919048D01*
X83033334Y-36919048D01*
X111133334Y-37057143D02*
X111085715Y-37104762D01*
X110942858Y-37152381D01*
X110847620Y-37152381D01*
X110704762Y-37104762D01*
X110609524Y-37009524D01*
X110561905Y-36914286D01*
X110514286Y-36723810D01*
X110514286Y-36580952D01*
X110561905Y-36390476D01*
X110609524Y-36295238D01*
X110704762Y-36200000D01*
X110847620Y-36152381D01*
X110942858Y-36152381D01*
X111085715Y-36200000D01*
X111133334Y-36247619D01*
X112038096Y-36152381D02*
X111561905Y-36152381D01*
X111514286Y-36628571D01*
X111561905Y-36580952D01*
X111657143Y-36533333D01*
X111895239Y-36533333D01*
X111990477Y-36580952D01*
X112038096Y-36628571D01*
X112085715Y-36723810D01*
X112085715Y-36961905D01*
X112038096Y-37057143D01*
X111990477Y-37104762D01*
X111895239Y-37152381D01*
X111657143Y-37152381D01*
X111561905Y-37104762D01*
X111514286Y-37057143D01*
X140233334Y-37057143D02*
X140185715Y-37104762D01*
X140042858Y-37152381D01*
X139947620Y-37152381D01*
X139804762Y-37104762D01*
X139709524Y-37009524D01*
X139661905Y-36914286D01*
X139614286Y-36723810D01*
X139614286Y-36580952D01*
X139661905Y-36390476D01*
X139709524Y-36295238D01*
X139804762Y-36200000D01*
X139947620Y-36152381D01*
X140042858Y-36152381D01*
X140185715Y-36200000D01*
X140233334Y-36247619D01*
X141090477Y-36152381D02*
X140900000Y-36152381D01*
X140804762Y-36200000D01*
X140757143Y-36247619D01*
X140661905Y-36390476D01*
X140614286Y-36580952D01*
X140614286Y-36961905D01*
X140661905Y-37057143D01*
X140709524Y-37104762D01*
X140804762Y-37152381D01*
X140995239Y-37152381D01*
X141090477Y-37104762D01*
X141138096Y-37057143D01*
X141185715Y-36961905D01*
X141185715Y-36723810D01*
X141138096Y-36628571D01*
X141090477Y-36580952D01*
X140995239Y-36533333D01*
X140804762Y-36533333D01*
X140709524Y-36580952D01*
X140661905Y-36628571D01*
X140614286Y-36723810D01*
X155133334Y-37057143D02*
X155085715Y-37104762D01*
X154942858Y-37152381D01*
X154847620Y-37152381D01*
X154704762Y-37104762D01*
X154609524Y-37009524D01*
X154561905Y-36914286D01*
X154514286Y-36723810D01*
X154514286Y-36580952D01*
X154561905Y-36390476D01*
X154609524Y-36295238D01*
X154704762Y-36200000D01*
X154847620Y-36152381D01*
X154942858Y-36152381D01*
X155085715Y-36200000D01*
X155133334Y-36247619D01*
X155704762Y-36580952D02*
X155609524Y-36533333D01*
X155561905Y-36485714D01*
X155514286Y-36390476D01*
X155514286Y-36342857D01*
X155561905Y-36247619D01*
X155609524Y-36200000D01*
X155704762Y-36152381D01*
X155895239Y-36152381D01*
X155990477Y-36200000D01*
X156038096Y-36247619D01*
X156085715Y-36342857D01*
X156085715Y-36390476D01*
X156038096Y-36485714D01*
X155990477Y-36533333D01*
X155895239Y-36580952D01*
X155704762Y-36580952D01*
X155609524Y-36628571D01*
X155561905Y-36676190D01*
X155514286Y-36771429D01*
X155514286Y-36961905D01*
X155561905Y-37057143D01*
X155609524Y-37104762D01*
X155704762Y-37152381D01*
X155895239Y-37152381D01*
X155990477Y-37104762D01*
X156038096Y-37057143D01*
X156085715Y-36961905D01*
X156085715Y-36771429D01*
X156038096Y-36676190D01*
X155990477Y-36628571D01*
X155895239Y-36580952D01*
X184233334Y-37057143D02*
X184185715Y-37104762D01*
X184042858Y-37152381D01*
X183947620Y-37152381D01*
X183804762Y-37104762D01*
X183709524Y-37009524D01*
X183661905Y-36914286D01*
X183614286Y-36723810D01*
X183614286Y-36580952D01*
X183661905Y-36390476D01*
X183709524Y-36295238D01*
X183804762Y-36200000D01*
X183947620Y-36152381D01*
X184042858Y-36152381D01*
X184185715Y-36200000D01*
X184233334Y-36247619D01*
X184709524Y-37152381D02*
X184900000Y-37152381D01*
X184995239Y-37104762D01*
X185042858Y-37057143D01*
X185138096Y-36914286D01*
X185185715Y-36723810D01*
X185185715Y-36342857D01*
X185138096Y-36247619D01*
X185090477Y-36200000D01*
X184995239Y-36152381D01*
X184804762Y-36152381D01*
X184709524Y-36200000D01*
X184661905Y-36247619D01*
X184614286Y-36342857D01*
X184614286Y-36580952D01*
X184661905Y-36676190D01*
X184709524Y-36723810D01*
X184804762Y-36771429D01*
X184995239Y-36771429D01*
X185090477Y-36723810D01*
X185138096Y-36676190D01*
X185185715Y-36580952D01*
X212857143Y-37057143D02*
X212809524Y-37104762D01*
X212666667Y-37152381D01*
X212571429Y-37152381D01*
X212428571Y-37104762D01*
X212333333Y-37009524D01*
X212285714Y-36914286D01*
X212238095Y-36723810D01*
X212238095Y-36580952D01*
X212285714Y-36390476D01*
X212333333Y-36295238D01*
X212428571Y-36200000D01*
X212571429Y-36152381D01*
X212666667Y-36152381D01*
X212809524Y-36200000D01*
X212857143Y-36247619D01*
X213809524Y-37152381D02*
X213238095Y-37152381D01*
X213523809Y-37152381D02*
X213523809Y-36152381D01*
X213428571Y-36295238D01*
X213333333Y-36390476D01*
X213238095Y-36438095D01*
X214428571Y-36152381D02*
X214523810Y-36152381D01*
X214619048Y-36200000D01*
X214666667Y-36247619D01*
X214714286Y-36342857D01*
X214761905Y-36533333D01*
X214761905Y-36771429D01*
X214714286Y-36961905D01*
X214666667Y-37057143D01*
X214619048Y-37104762D01*
X214523810Y-37152381D01*
X214428571Y-37152381D01*
X214333333Y-37104762D01*
X214285714Y-37057143D01*
X214238095Y-36961905D01*
X214190476Y-36771429D01*
X214190476Y-36533333D01*
X214238095Y-36342857D01*
X214285714Y-36247619D01*
X214333333Y-36200000D01*
X214428571Y-36152381D01*
X169257143Y-37057143D02*
X169209524Y-37104762D01*
X169066667Y-37152381D01*
X168971429Y-37152381D01*
X168828571Y-37104762D01*
X168733333Y-37009524D01*
X168685714Y-36914286D01*
X168638095Y-36723810D01*
X168638095Y-36580952D01*
X168685714Y-36390476D01*
X168733333Y-36295238D01*
X168828571Y-36200000D01*
X168971429Y-36152381D01*
X169066667Y-36152381D01*
X169209524Y-36200000D01*
X169257143Y-36247619D01*
X170209524Y-37152381D02*
X169638095Y-37152381D01*
X169923809Y-37152381D02*
X169923809Y-36152381D01*
X169828571Y-36295238D01*
X169733333Y-36390476D01*
X169638095Y-36438095D01*
X171161905Y-37152381D02*
X170590476Y-37152381D01*
X170876190Y-37152381D02*
X170876190Y-36152381D01*
X170780952Y-36295238D01*
X170685714Y-36390476D01*
X170590476Y-36438095D01*
X198457143Y-36957143D02*
X198409524Y-37004762D01*
X198266667Y-37052381D01*
X198171429Y-37052381D01*
X198028571Y-37004762D01*
X197933333Y-36909524D01*
X197885714Y-36814286D01*
X197838095Y-36623810D01*
X197838095Y-36480952D01*
X197885714Y-36290476D01*
X197933333Y-36195238D01*
X198028571Y-36100000D01*
X198171429Y-36052381D01*
X198266667Y-36052381D01*
X198409524Y-36100000D01*
X198457143Y-36147619D01*
X199409524Y-37052381D02*
X198838095Y-37052381D01*
X199123809Y-37052381D02*
X199123809Y-36052381D01*
X199028571Y-36195238D01*
X198933333Y-36290476D01*
X198838095Y-36338095D01*
X199790476Y-36147619D02*
X199838095Y-36100000D01*
X199933333Y-36052381D01*
X200171429Y-36052381D01*
X200266667Y-36100000D01*
X200314286Y-36147619D01*
X200361905Y-36242857D01*
X200361905Y-36338095D01*
X200314286Y-36480952D01*
X199742857Y-37052381D01*
X200361905Y-37052381D01*
X243435714Y-36114286D02*
X243473810Y-36152381D01*
X243511905Y-36266667D01*
X243511905Y-36342857D01*
X243473810Y-36457143D01*
X243397619Y-36533334D01*
X243321429Y-36571429D01*
X243169048Y-36609524D01*
X243054762Y-36609524D01*
X242902381Y-36571429D01*
X242826190Y-36533334D01*
X242750000Y-36457143D01*
X242711905Y-36342857D01*
X242711905Y-36266667D01*
X242750000Y-36152381D01*
X242788095Y-36114286D01*
X243511905Y-35352381D02*
X243511905Y-35809524D01*
X243511905Y-35580953D02*
X242711905Y-35580953D01*
X242826190Y-35657143D01*
X242902381Y-35733334D01*
X242940476Y-35809524D01*
X242711905Y-35085714D02*
X242711905Y-34590476D01*
X243016667Y-34857143D01*
X243016667Y-34742857D01*
X243054762Y-34666667D01*
X243092857Y-34628571D01*
X243169048Y-34590476D01*
X243359524Y-34590476D01*
X243435714Y-34628571D01*
X243473810Y-34666667D01*
X243511905Y-34742857D01*
X243511905Y-34971429D01*
X243473810Y-35047619D01*
X243435714Y-35085714D01*
X75433334Y-35852381D02*
X75100000Y-35376190D01*
X74861905Y-35852381D02*
X74861905Y-34852381D01*
X75242858Y-34852381D01*
X75338096Y-34900000D01*
X75385715Y-34947619D01*
X75433334Y-35042857D01*
X75433334Y-35185714D01*
X75385715Y-35280952D01*
X75338096Y-35328571D01*
X75242858Y-35376190D01*
X74861905Y-35376190D01*
X76385715Y-35852381D02*
X75814286Y-35852381D01*
X76100000Y-35852381D02*
X76100000Y-34852381D01*
X76004762Y-34995238D01*
X75909524Y-35090476D01*
X75814286Y-35138095D01*
X104433334Y-35852381D02*
X104100000Y-35376190D01*
X103861905Y-35852381D02*
X103861905Y-34852381D01*
X104242858Y-34852381D01*
X104338096Y-34900000D01*
X104385715Y-34947619D01*
X104433334Y-35042857D01*
X104433334Y-35185714D01*
X104385715Y-35280952D01*
X104338096Y-35328571D01*
X104242858Y-35376190D01*
X103861905Y-35376190D01*
X104814286Y-34947619D02*
X104861905Y-34900000D01*
X104957143Y-34852381D01*
X105195239Y-34852381D01*
X105290477Y-34900000D01*
X105338096Y-34947619D01*
X105385715Y-35042857D01*
X105385715Y-35138095D01*
X105338096Y-35280952D01*
X104766667Y-35852381D01*
X105385715Y-35852381D01*
X133733334Y-35852381D02*
X133400000Y-35376190D01*
X133161905Y-35852381D02*
X133161905Y-34852381D01*
X133542858Y-34852381D01*
X133638096Y-34900000D01*
X133685715Y-34947619D01*
X133733334Y-35042857D01*
X133733334Y-35185714D01*
X133685715Y-35280952D01*
X133638096Y-35328571D01*
X133542858Y-35376190D01*
X133161905Y-35376190D01*
X134066667Y-34852381D02*
X134685715Y-34852381D01*
X134352381Y-35233333D01*
X134495239Y-35233333D01*
X134590477Y-35280952D01*
X134638096Y-35328571D01*
X134685715Y-35423810D01*
X134685715Y-35661905D01*
X134638096Y-35757143D01*
X134590477Y-35804762D01*
X134495239Y-35852381D01*
X134209524Y-35852381D01*
X134114286Y-35804762D01*
X134066667Y-35757143D01*
X89833334Y-35852381D02*
X89500000Y-35376190D01*
X89261905Y-35852381D02*
X89261905Y-34852381D01*
X89642858Y-34852381D01*
X89738096Y-34900000D01*
X89785715Y-34947619D01*
X89833334Y-35042857D01*
X89833334Y-35185714D01*
X89785715Y-35280952D01*
X89738096Y-35328571D01*
X89642858Y-35376190D01*
X89261905Y-35376190D01*
X90690477Y-35185714D02*
X90690477Y-35852381D01*
X90452381Y-34804762D02*
X90214286Y-35519048D01*
X90833334Y-35519048D01*
X119333334Y-35752381D02*
X119000000Y-35276190D01*
X118761905Y-35752381D02*
X118761905Y-34752381D01*
X119142858Y-34752381D01*
X119238096Y-34800000D01*
X119285715Y-34847619D01*
X119333334Y-34942857D01*
X119333334Y-35085714D01*
X119285715Y-35180952D01*
X119238096Y-35228571D01*
X119142858Y-35276190D01*
X118761905Y-35276190D01*
X120238096Y-34752381D02*
X119761905Y-34752381D01*
X119714286Y-35228571D01*
X119761905Y-35180952D01*
X119857143Y-35133333D01*
X120095239Y-35133333D01*
X120190477Y-35180952D01*
X120238096Y-35228571D01*
X120285715Y-35323810D01*
X120285715Y-35561905D01*
X120238096Y-35657143D01*
X120190477Y-35704762D01*
X120095239Y-35752381D01*
X119857143Y-35752381D01*
X119761905Y-35704762D01*
X119714286Y-35657143D01*
X148433334Y-35752381D02*
X148100000Y-35276190D01*
X147861905Y-35752381D02*
X147861905Y-34752381D01*
X148242858Y-34752381D01*
X148338096Y-34800000D01*
X148385715Y-34847619D01*
X148433334Y-34942857D01*
X148433334Y-35085714D01*
X148385715Y-35180952D01*
X148338096Y-35228571D01*
X148242858Y-35276190D01*
X147861905Y-35276190D01*
X149290477Y-34752381D02*
X149100000Y-34752381D01*
X149004762Y-34800000D01*
X148957143Y-34847619D01*
X148861905Y-34990476D01*
X148814286Y-35180952D01*
X148814286Y-35561905D01*
X148861905Y-35657143D01*
X148909524Y-35704762D01*
X149004762Y-35752381D01*
X149195239Y-35752381D01*
X149290477Y-35704762D01*
X149338096Y-35657143D01*
X149385715Y-35561905D01*
X149385715Y-35323810D01*
X149338096Y-35228571D01*
X149290477Y-35180952D01*
X149195239Y-35133333D01*
X149004762Y-35133333D01*
X148909524Y-35180952D01*
X148861905Y-35228571D01*
X148814286Y-35323810D01*
X49816667Y-37011905D02*
X49550000Y-36630952D01*
X49359524Y-37011905D02*
X49359524Y-36211905D01*
X49664286Y-36211905D01*
X49740477Y-36250000D01*
X49778572Y-36288095D01*
X49816667Y-36364286D01*
X49816667Y-36478571D01*
X49778572Y-36554762D01*
X49740477Y-36592857D01*
X49664286Y-36630952D01*
X49359524Y-36630952D01*
X50083334Y-36211905D02*
X50616667Y-36211905D01*
X50273810Y-37011905D01*
X49816667Y-35461905D02*
X49550000Y-35080952D01*
X49359524Y-35461905D02*
X49359524Y-34661905D01*
X49664286Y-34661905D01*
X49740477Y-34700000D01*
X49778572Y-34738095D01*
X49816667Y-34814286D01*
X49816667Y-34928571D01*
X49778572Y-35004762D01*
X49740477Y-35042857D01*
X49664286Y-35080952D01*
X49359524Y-35080952D01*
X50273810Y-35004762D02*
X50197619Y-34966667D01*
X50159524Y-34928571D01*
X50121429Y-34852381D01*
X50121429Y-34814286D01*
X50159524Y-34738095D01*
X50197619Y-34700000D01*
X50273810Y-34661905D01*
X50426191Y-34661905D01*
X50502381Y-34700000D01*
X50540477Y-34738095D01*
X50578572Y-34814286D01*
X50578572Y-34852381D01*
X50540477Y-34928571D01*
X50502381Y-34966667D01*
X50426191Y-35004762D01*
X50273810Y-35004762D01*
X50197619Y-35042857D01*
X50159524Y-35080952D01*
X50121429Y-35157143D01*
X50121429Y-35309524D01*
X50159524Y-35385714D01*
X50197619Y-35423810D01*
X50273810Y-35461905D01*
X50426191Y-35461905D01*
X50502381Y-35423810D01*
X50540477Y-35385714D01*
X50578572Y-35309524D01*
X50578572Y-35157143D01*
X50540477Y-35080952D01*
X50502381Y-35042857D01*
X50426191Y-35004762D01*
X162357143Y-35752381D02*
X162023809Y-35276190D01*
X161785714Y-35752381D02*
X161785714Y-34752381D01*
X162166667Y-34752381D01*
X162261905Y-34800000D01*
X162309524Y-34847619D01*
X162357143Y-34942857D01*
X162357143Y-35085714D01*
X162309524Y-35180952D01*
X162261905Y-35228571D01*
X162166667Y-35276190D01*
X161785714Y-35276190D01*
X163309524Y-35752381D02*
X162738095Y-35752381D01*
X163023809Y-35752381D02*
X163023809Y-34752381D01*
X162928571Y-34895238D01*
X162833333Y-34990476D01*
X162738095Y-35038095D01*
X163928571Y-34752381D02*
X164023810Y-34752381D01*
X164119048Y-34800000D01*
X164166667Y-34847619D01*
X164214286Y-34942857D01*
X164261905Y-35133333D01*
X164261905Y-35371429D01*
X164214286Y-35561905D01*
X164166667Y-35657143D01*
X164119048Y-35704762D01*
X164023810Y-35752381D01*
X163928571Y-35752381D01*
X163833333Y-35704762D01*
X163785714Y-35657143D01*
X163738095Y-35561905D01*
X163690476Y-35371429D01*
X163690476Y-35133333D01*
X163738095Y-34942857D01*
X163785714Y-34847619D01*
X163833333Y-34800000D01*
X163928571Y-34752381D01*
X191757143Y-35652381D02*
X191423809Y-35176190D01*
X191185714Y-35652381D02*
X191185714Y-34652381D01*
X191566667Y-34652381D01*
X191661905Y-34700000D01*
X191709524Y-34747619D01*
X191757143Y-34842857D01*
X191757143Y-34985714D01*
X191709524Y-35080952D01*
X191661905Y-35128571D01*
X191566667Y-35176190D01*
X191185714Y-35176190D01*
X192709524Y-35652381D02*
X192138095Y-35652381D01*
X192423809Y-35652381D02*
X192423809Y-34652381D01*
X192328571Y-34795238D01*
X192233333Y-34890476D01*
X192138095Y-34938095D01*
X193661905Y-35652381D02*
X193090476Y-35652381D01*
X193376190Y-35652381D02*
X193376190Y-34652381D01*
X193280952Y-34795238D01*
X193185714Y-34890476D01*
X193090476Y-34938095D01*
X224457143Y-37252381D02*
X224123809Y-36776190D01*
X223885714Y-37252381D02*
X223885714Y-36252381D01*
X224266667Y-36252381D01*
X224361905Y-36300000D01*
X224409524Y-36347619D01*
X224457143Y-36442857D01*
X224457143Y-36585714D01*
X224409524Y-36680952D01*
X224361905Y-36728571D01*
X224266667Y-36776190D01*
X223885714Y-36776190D01*
X225409524Y-37252381D02*
X224838095Y-37252381D01*
X225123809Y-37252381D02*
X225123809Y-36252381D01*
X225028571Y-36395238D01*
X224933333Y-36490476D01*
X224838095Y-36538095D01*
X225790476Y-36347619D02*
X225838095Y-36300000D01*
X225933333Y-36252381D01*
X226171429Y-36252381D01*
X226266667Y-36300000D01*
X226314286Y-36347619D01*
X226361905Y-36442857D01*
X226361905Y-36538095D01*
X226314286Y-36680952D01*
X225742857Y-37252381D01*
X226361905Y-37252381D01*
X177057143Y-35752381D02*
X176723809Y-35276190D01*
X176485714Y-35752381D02*
X176485714Y-34752381D01*
X176866667Y-34752381D01*
X176961905Y-34800000D01*
X177009524Y-34847619D01*
X177057143Y-34942857D01*
X177057143Y-35085714D01*
X177009524Y-35180952D01*
X176961905Y-35228571D01*
X176866667Y-35276190D01*
X176485714Y-35276190D01*
X178009524Y-35752381D02*
X177438095Y-35752381D01*
X177723809Y-35752381D02*
X177723809Y-34752381D01*
X177628571Y-34895238D01*
X177533333Y-34990476D01*
X177438095Y-35038095D01*
X178342857Y-34752381D02*
X178961905Y-34752381D01*
X178628571Y-35133333D01*
X178771429Y-35133333D01*
X178866667Y-35180952D01*
X178914286Y-35228571D01*
X178961905Y-35323810D01*
X178961905Y-35561905D01*
X178914286Y-35657143D01*
X178866667Y-35704762D01*
X178771429Y-35752381D01*
X178485714Y-35752381D01*
X178390476Y-35704762D01*
X178342857Y-35657143D01*
X206457143Y-35652381D02*
X206123809Y-35176190D01*
X205885714Y-35652381D02*
X205885714Y-34652381D01*
X206266667Y-34652381D01*
X206361905Y-34700000D01*
X206409524Y-34747619D01*
X206457143Y-34842857D01*
X206457143Y-34985714D01*
X206409524Y-35080952D01*
X206361905Y-35128571D01*
X206266667Y-35176190D01*
X205885714Y-35176190D01*
X207409524Y-35652381D02*
X206838095Y-35652381D01*
X207123809Y-35652381D02*
X207123809Y-34652381D01*
X207028571Y-34795238D01*
X206933333Y-34890476D01*
X206838095Y-34938095D01*
X208266667Y-34985714D02*
X208266667Y-35652381D01*
X208028571Y-34604762D02*
X207790476Y-35319048D01*
X208409524Y-35319048D01*
M02*
