G04 #@! TF.FileFunction,Soldermask,Top*
%FSLAX46Y46*%
G04 Gerber Fmt 4.6, Leading zero omitted, Abs format (unit mm)*
G04 Created by KiCad (PCBNEW 4.0.2+dfsg1-stable) date mer. 21 mars 2018 16:08:27 CET*
%MOMM*%
G01*
G04 APERTURE LIST*
%ADD10C,0.100000*%
%ADD11R,1.670000X0.806400*%
%ADD12R,1.600000X1.150000*%
%ADD13R,1.600000X1.300000*%
%ADD14R,1.300000X1.600000*%
%ADD15R,1.200100X1.200100*%
%ADD16C,2.899360*%
%ADD17R,1.670000X1.365200*%
G04 APERTURE END LIST*
D10*
D11*
X64133000Y-52579000D03*
X64133000Y-53214000D03*
X64133000Y-53874400D03*
X64133000Y-54534800D03*
X64133000Y-55169800D03*
X64133000Y-55830200D03*
X64133000Y-56490600D03*
X64133000Y-57125600D03*
X64133000Y-57786000D03*
X64133000Y-58421000D03*
X69467000Y-58421000D03*
X69467000Y-57786000D03*
X69467000Y-57125600D03*
X69467000Y-56490600D03*
X69467000Y-55830200D03*
X69467000Y-55169800D03*
X69467000Y-54534800D03*
X69467000Y-53874400D03*
X69467000Y-53214000D03*
X69467000Y-52579000D03*
D12*
X243650000Y-50250000D03*
X245550000Y-50250000D03*
D11*
X222767000Y-64821000D03*
X222767000Y-64186000D03*
X222767000Y-63525600D03*
X222767000Y-62865200D03*
X222767000Y-62230200D03*
X222767000Y-61569800D03*
X222767000Y-60909400D03*
X222767000Y-60274400D03*
X222767000Y-59614000D03*
X222767000Y-58979000D03*
X217433000Y-58979000D03*
X217433000Y-59614000D03*
X217433000Y-60274400D03*
X217433000Y-60909400D03*
X217433000Y-61569800D03*
X217433000Y-62230200D03*
X217433000Y-62865200D03*
X217433000Y-63525600D03*
X217433000Y-64186000D03*
X217433000Y-64821000D03*
D12*
X217100000Y-66400000D03*
X215200000Y-66400000D03*
X211150000Y-66700000D03*
X209250000Y-66700000D03*
X182050000Y-66700000D03*
X180150000Y-66700000D03*
X152650000Y-66700000D03*
X150750000Y-66700000D03*
X196450000Y-66600000D03*
X194550000Y-66600000D03*
X167350000Y-66600000D03*
X165450000Y-66600000D03*
X138250000Y-66600000D03*
X136350000Y-66600000D03*
X123350000Y-66500000D03*
X121450000Y-66500000D03*
X94250000Y-66500000D03*
X92350000Y-66500000D03*
X65150000Y-66500000D03*
X63250000Y-66500000D03*
X108750000Y-66600000D03*
X106850000Y-66600000D03*
X79550000Y-66600000D03*
X77650000Y-66600000D03*
X40050000Y-63850000D03*
X38150000Y-63850000D03*
D13*
X201100000Y-64700000D03*
X203300000Y-64700000D03*
X172000000Y-64700000D03*
X174200000Y-64700000D03*
X142700000Y-64700000D03*
X144900000Y-64700000D03*
X186500000Y-64800000D03*
X188700000Y-64800000D03*
X157100000Y-64900000D03*
X159300000Y-64900000D03*
X128000000Y-64800000D03*
X130200000Y-64800000D03*
X229950000Y-60950000D03*
X227750000Y-60950000D03*
X229950000Y-62600000D03*
X227750000Y-62600000D03*
X219300000Y-66350000D03*
X221500000Y-66350000D03*
X113600000Y-64800000D03*
X115800000Y-64800000D03*
X84200000Y-64900000D03*
X86400000Y-64900000D03*
X55000000Y-64900000D03*
X57200000Y-64900000D03*
X98900000Y-64900000D03*
X101100000Y-64900000D03*
X69500000Y-64900000D03*
X71700000Y-64900000D03*
D14*
X40200000Y-62050000D03*
X40200000Y-59850000D03*
X41950000Y-62050000D03*
X41950000Y-59850000D03*
D15*
X207150000Y-64699240D03*
X205250000Y-64699240D03*
X206200000Y-66698220D03*
X178050000Y-64699240D03*
X176150000Y-64699240D03*
X177100000Y-66698220D03*
X148750000Y-64699240D03*
X146850000Y-64699240D03*
X147800000Y-66698220D03*
X192550000Y-64699240D03*
X190650000Y-64699240D03*
X191600000Y-66698220D03*
X163350000Y-64699240D03*
X161450000Y-64699240D03*
X162400000Y-66698220D03*
X134150000Y-64599240D03*
X132250000Y-64599240D03*
X133200000Y-66598220D03*
X119550000Y-64699240D03*
X117650000Y-64699240D03*
X118600000Y-66698220D03*
X90350000Y-64699240D03*
X88450000Y-64699240D03*
X89400000Y-66698220D03*
X61150000Y-64699240D03*
X59250000Y-64699240D03*
X60200000Y-66698220D03*
X104950000Y-64699240D03*
X103050000Y-64699240D03*
X104000000Y-66698220D03*
X75750000Y-64699240D03*
X73850000Y-64699240D03*
X74800000Y-66698220D03*
D11*
X43783000Y-59079000D03*
X43783000Y-59714000D03*
X43783000Y-60374400D03*
X43783000Y-61034800D03*
X43783000Y-61669800D03*
X43783000Y-62330200D03*
X43783000Y-62990600D03*
X43783000Y-63625600D03*
X43783000Y-64286000D03*
X43783000Y-64921000D03*
X49117000Y-64921000D03*
X49117000Y-64286000D03*
X49117000Y-63625600D03*
X49117000Y-62990600D03*
X49117000Y-62330200D03*
X49117000Y-61669800D03*
X49117000Y-61034800D03*
X49117000Y-60374400D03*
X49117000Y-59714000D03*
X49117000Y-59079000D03*
D16*
X229700000Y-56550000D03*
X225100000Y-56500000D03*
X220000000Y-56600000D03*
X215800000Y-56600000D03*
X221550000Y-68650000D03*
X36950000Y-56850000D03*
X40050000Y-56850000D03*
X44900000Y-56650000D03*
X49200000Y-56600000D03*
X43850000Y-68100000D03*
D17*
X225950000Y-67920000D03*
X225950000Y-66650000D03*
X225950000Y-65380000D03*
X227950000Y-67920000D03*
X227950000Y-66650000D03*
X227950000Y-65380000D03*
X229950000Y-67920000D03*
X229950000Y-66650000D03*
X229950000Y-65380000D03*
X37150000Y-66780000D03*
X37150000Y-68050000D03*
X37150000Y-69320000D03*
X39200000Y-66780000D03*
X39200000Y-68050000D03*
X39200000Y-69320000D03*
X41250000Y-66780000D03*
X41250000Y-68050000D03*
X41250000Y-69320000D03*
X252900000Y-47130000D03*
X252900000Y-48400000D03*
X252900000Y-49670000D03*
D12*
X73850000Y-50350000D03*
X75750000Y-50350000D03*
X100350000Y-50350000D03*
X102250000Y-50350000D03*
X126850000Y-50450000D03*
X128750000Y-50450000D03*
X87050000Y-50350000D03*
X88950000Y-50350000D03*
X113550000Y-50350000D03*
X115450000Y-50350000D03*
X140050000Y-50450000D03*
X141950000Y-50450000D03*
X73900000Y-51850000D03*
X75800000Y-51850000D03*
X153350000Y-50350000D03*
X155250000Y-50350000D03*
X179850000Y-50450000D03*
X181750000Y-50450000D03*
X206350000Y-50350000D03*
X208250000Y-50350000D03*
X166550000Y-50350000D03*
X168450000Y-50350000D03*
X193050000Y-50450000D03*
X194950000Y-50450000D03*
X219650000Y-50350000D03*
X221550000Y-50350000D03*
D17*
X255000000Y-47130000D03*
X255000000Y-48400000D03*
X255000000Y-49670000D03*
D13*
X83600000Y-52050000D03*
X81400000Y-52050000D03*
X110100000Y-52050000D03*
X107900000Y-52050000D03*
X136700000Y-52050000D03*
X134500000Y-52050000D03*
X96800000Y-52050000D03*
X94600000Y-52050000D03*
X123400000Y-52050000D03*
X121200000Y-52050000D03*
X149900000Y-52050000D03*
X147700000Y-52050000D03*
X163300000Y-52050000D03*
X161100000Y-52050000D03*
X189800000Y-51950000D03*
X187600000Y-51950000D03*
X216300000Y-52050000D03*
X214100000Y-52050000D03*
X176400000Y-52050000D03*
X174200000Y-52050000D03*
X202900000Y-52050000D03*
X200700000Y-52050000D03*
X229400000Y-52150000D03*
X227200000Y-52150000D03*
D15*
X77650000Y-52250760D03*
X79550000Y-52250760D03*
X78600000Y-50251780D03*
X104150000Y-52250760D03*
X106050000Y-52250760D03*
X105100000Y-50251780D03*
X130650000Y-52250760D03*
X132550000Y-52250760D03*
X131600000Y-50251780D03*
X90850000Y-52250760D03*
X92750000Y-52250760D03*
X91800000Y-50251780D03*
X117350000Y-52250760D03*
X119250000Y-52250760D03*
X118300000Y-50251780D03*
X143850000Y-52250760D03*
X145750000Y-52250760D03*
X144800000Y-50251780D03*
X157150000Y-52250760D03*
X159050000Y-52250760D03*
X158100000Y-50251780D03*
X183650000Y-52250760D03*
X185550000Y-52250760D03*
X184600000Y-50251780D03*
X210150000Y-52250760D03*
X212050000Y-52250760D03*
X211100000Y-50251780D03*
X170350000Y-52250760D03*
X172250000Y-52250760D03*
X171300000Y-50251780D03*
X196850000Y-52250760D03*
X198750000Y-52250760D03*
X197800000Y-50251780D03*
X223450000Y-52250760D03*
X225350000Y-52250760D03*
X224400000Y-50251780D03*
D16*
X69350000Y-60450000D03*
D12*
X233000000Y-50300000D03*
X234900000Y-50300000D03*
D13*
X242600000Y-52150000D03*
X240400000Y-52150000D03*
D15*
X236600000Y-52250760D03*
X238500000Y-52250760D03*
X237550000Y-50251780D03*
D12*
X73850000Y-50350000D03*
X75750000Y-50350000D03*
X100350000Y-50350000D03*
X102250000Y-50350000D03*
X126850000Y-50450000D03*
X128750000Y-50450000D03*
X87050000Y-50350000D03*
X88950000Y-50350000D03*
X113550000Y-50350000D03*
X115450000Y-50350000D03*
X140050000Y-50450000D03*
X141950000Y-50450000D03*
X73900000Y-51850000D03*
X75800000Y-51850000D03*
X153350000Y-50350000D03*
X155250000Y-50350000D03*
X179850000Y-50450000D03*
X181750000Y-50450000D03*
X206350000Y-50350000D03*
X208250000Y-50350000D03*
X166550000Y-50350000D03*
X168450000Y-50350000D03*
X193050000Y-50450000D03*
X194950000Y-50450000D03*
X219650000Y-50350000D03*
X221550000Y-50350000D03*
D17*
X64450000Y-49820000D03*
X64450000Y-48550000D03*
X64450000Y-47280000D03*
X62400000Y-49820000D03*
X62400000Y-48550000D03*
X62400000Y-47280000D03*
X60350000Y-49820000D03*
X60350000Y-48550000D03*
X60350000Y-47280000D03*
X250800000Y-47130000D03*
X250800000Y-48400000D03*
X250800000Y-49670000D03*
D13*
X83600000Y-52050000D03*
X81400000Y-52050000D03*
X110100000Y-52050000D03*
X107900000Y-52050000D03*
X136700000Y-52050000D03*
X134500000Y-52050000D03*
X96800000Y-52050000D03*
X94600000Y-52050000D03*
X123400000Y-52050000D03*
X121200000Y-52050000D03*
X149900000Y-52050000D03*
X147700000Y-52050000D03*
D14*
X61600000Y-58100000D03*
X61600000Y-55900000D03*
X60000000Y-58100000D03*
X60000000Y-55900000D03*
D13*
X69650000Y-50250000D03*
X67450000Y-50250000D03*
X163300000Y-52050000D03*
X161100000Y-52050000D03*
X189800000Y-51950000D03*
X187600000Y-51950000D03*
X216300000Y-52050000D03*
X214100000Y-52050000D03*
X176400000Y-52050000D03*
X174200000Y-52050000D03*
X202900000Y-52050000D03*
X200700000Y-52050000D03*
D14*
X254300000Y-54650000D03*
X254300000Y-56850000D03*
X255850000Y-54650000D03*
X255850000Y-56850000D03*
D13*
X229400000Y-52150000D03*
X227200000Y-52150000D03*
D15*
X77650000Y-52250760D03*
X79550000Y-52250760D03*
X78600000Y-50251780D03*
X104150000Y-52250760D03*
X106050000Y-52250760D03*
X105100000Y-50251780D03*
X130650000Y-52250760D03*
X132550000Y-52250760D03*
X131600000Y-50251780D03*
X90850000Y-52250760D03*
X92750000Y-52250760D03*
X91800000Y-50251780D03*
X117350000Y-52250760D03*
X119250000Y-52250760D03*
X118300000Y-50251780D03*
X143850000Y-52250760D03*
X145750000Y-52250760D03*
X144800000Y-50251780D03*
X157150000Y-52250760D03*
X159050000Y-52250760D03*
X158100000Y-50251780D03*
X183650000Y-52250760D03*
X185550000Y-52250760D03*
X184600000Y-50251780D03*
X210150000Y-52250760D03*
X212050000Y-52250760D03*
X211100000Y-50251780D03*
X170350000Y-52250760D03*
X172250000Y-52250760D03*
X171300000Y-50251780D03*
X196850000Y-52250760D03*
X198750000Y-52250760D03*
X197800000Y-50251780D03*
D11*
X251917000Y-57671000D03*
X251917000Y-57036000D03*
X251917000Y-56375600D03*
X251917000Y-55715200D03*
X251917000Y-55080200D03*
X251917000Y-54419800D03*
X251917000Y-53759400D03*
X251917000Y-53124400D03*
X251917000Y-52464000D03*
X251917000Y-51829000D03*
X246583000Y-51829000D03*
X246583000Y-52464000D03*
X246583000Y-53124400D03*
X246583000Y-53759400D03*
X246583000Y-54419800D03*
X246583000Y-55080200D03*
X246583000Y-55715200D03*
X246583000Y-56375600D03*
X246583000Y-57036000D03*
X246583000Y-57671000D03*
D15*
X223450000Y-52250760D03*
X225350000Y-52250760D03*
X224400000Y-50251780D03*
D16*
X66300000Y-60450000D03*
X60300000Y-60550000D03*
X63300000Y-60500000D03*
X67300000Y-47900000D03*
X249600000Y-60300000D03*
X246650000Y-60250000D03*
X255500000Y-60300000D03*
X252550000Y-60300000D03*
X247300000Y-48000000D03*
D12*
X233000000Y-50300000D03*
X234900000Y-50300000D03*
D13*
X242600000Y-52150000D03*
X240400000Y-52150000D03*
D15*
X236600000Y-52250760D03*
X238500000Y-52250760D03*
X237550000Y-50251780D03*
M02*
