G04 #@! TF.FileFunction,Copper,L3,Inr,Signal*
%FSLAX46Y46*%
G04 Gerber Fmt 4.6, Leading zero omitted, Abs format (unit mm)*
G04 Created by KiCad (PCBNEW 4.0.2+dfsg1-stable) date mer. 21 mars 2018 16:08:27 CET*
%MOMM*%
G01*
G04 APERTURE LIST*
%ADD10C,0.100000*%
%ADD11C,2.499360*%
%ADD12C,0.600000*%
%ADD13C,0.500000*%
%ADD14C,0.250000*%
G04 APERTURE END LIST*
D10*
D11*
X229700000Y-56550000D03*
X225100000Y-56500000D03*
X220000000Y-56600000D03*
X215800000Y-56600000D03*
X221550000Y-68650000D03*
X36950000Y-56850000D03*
X40050000Y-56850000D03*
X44900000Y-56650000D03*
X49200000Y-56600000D03*
X43850000Y-68100000D03*
X69350000Y-60450000D03*
X66300000Y-60450000D03*
X60300000Y-60550000D03*
X63300000Y-60500000D03*
X67300000Y-47900000D03*
X249600000Y-60300000D03*
X246650000Y-60250000D03*
X255500000Y-60300000D03*
X252550000Y-60300000D03*
X247300000Y-48000000D03*
D12*
X47400000Y-60300000D03*
X46975000Y-60575000D03*
X229950000Y-67920000D03*
X61600000Y-58100000D03*
X64450000Y-49820000D03*
X65600000Y-54800000D03*
X69700000Y-50250000D03*
X243650000Y-50250000D03*
X250500000Y-54600000D03*
X211150000Y-66700000D03*
X217100000Y-66400000D03*
X45300000Y-61300000D03*
X215200000Y-66400000D03*
X61750000Y-66500000D03*
X47600000Y-62350000D03*
X38150000Y-63850000D03*
X37150000Y-69320000D03*
X227950000Y-65380000D03*
X75750000Y-50350000D03*
X62400000Y-47280000D03*
X65900000Y-53900000D03*
X248550000Y-54450000D03*
X219250000Y-61350000D03*
X76100000Y-66600000D03*
X90700000Y-66600000D03*
X105300000Y-66700000D03*
X119900000Y-66700000D03*
X134700000Y-66600000D03*
X163701780Y-66698220D03*
X192901780Y-66698220D03*
X149200000Y-66700000D03*
X178500000Y-66700000D03*
X207598220Y-66698220D03*
X88950000Y-50350000D03*
X102250000Y-50350000D03*
X115450000Y-50350000D03*
X128750000Y-50450000D03*
X141950000Y-50450000D03*
X155250000Y-50350000D03*
X168450000Y-50350000D03*
X181750000Y-50450000D03*
X194950000Y-50450000D03*
X208250000Y-50350000D03*
X221550000Y-50350000D03*
X234900000Y-50300000D03*
X88950000Y-50350000D03*
X102250000Y-50350000D03*
X115450000Y-50350000D03*
X128750000Y-50450000D03*
X141950000Y-50450000D03*
X155250000Y-50350000D03*
X168450000Y-50350000D03*
X181750000Y-50450000D03*
X194950000Y-50450000D03*
X208250000Y-50350000D03*
X221550000Y-50350000D03*
X234900000Y-50300000D03*
X220650000Y-58650000D03*
X203300000Y-64700000D03*
X220650000Y-59600000D03*
X188700000Y-64800000D03*
X216000000Y-60250000D03*
X174200000Y-64700000D03*
X220300000Y-62550000D03*
X159300000Y-64900000D03*
X219600000Y-63050000D03*
X144900000Y-64700000D03*
X130200000Y-64800000D03*
X218950000Y-64350000D03*
X225000000Y-62500000D03*
X225000000Y-63400000D03*
X45350000Y-66500000D03*
X115800000Y-64800000D03*
X86400000Y-64900000D03*
X50700000Y-64650000D03*
X50650000Y-61150000D03*
X57200000Y-64900000D03*
X50550000Y-65550000D03*
X101100000Y-64900000D03*
X50700000Y-63550000D03*
X71700000Y-64900000D03*
X40200000Y-59850000D03*
X45200000Y-58750000D03*
X225950000Y-66650000D03*
X224200000Y-61650000D03*
X62750000Y-55250000D03*
X64450000Y-48550000D03*
X227950000Y-66650000D03*
X224200000Y-60750000D03*
X62750000Y-57000000D03*
X62400000Y-48550000D03*
X229950000Y-66650000D03*
X225750000Y-59850000D03*
X65650000Y-57250000D03*
X60350000Y-48550000D03*
X37150000Y-68050000D03*
X45400000Y-62400000D03*
X254950000Y-48400000D03*
X253200000Y-54400000D03*
X42000000Y-63500000D03*
X39200000Y-68050000D03*
X253300000Y-53300000D03*
X252900000Y-48400000D03*
X42250000Y-64500000D03*
X41250000Y-68050000D03*
X253000000Y-50950000D03*
X250800000Y-48400000D03*
X66050000Y-58050000D03*
X81400000Y-52050000D03*
X81400000Y-52050000D03*
X66550000Y-57350000D03*
X107900000Y-52050000D03*
X107900000Y-52050000D03*
X65950000Y-52950000D03*
X134500000Y-52050000D03*
X134500000Y-52050000D03*
X67350000Y-58050000D03*
X94600000Y-52050000D03*
X94600000Y-52050000D03*
X66100000Y-56450000D03*
X121200000Y-52050000D03*
X121200000Y-52050000D03*
X66850000Y-52050000D03*
X147700000Y-52050000D03*
X147700000Y-52050000D03*
X62100000Y-53950000D03*
X60000000Y-55900000D03*
X253400000Y-51800000D03*
X161100000Y-52050000D03*
X161100000Y-52050000D03*
X248900000Y-52650000D03*
X187600000Y-51950000D03*
X187600000Y-51950000D03*
X248450000Y-55400000D03*
X214100000Y-52050000D03*
X214100000Y-52050000D03*
X249600000Y-52000000D03*
X174200000Y-52050000D03*
X174200000Y-52050000D03*
X248200000Y-53550000D03*
X200700000Y-52050000D03*
X200700000Y-52050000D03*
X254300000Y-56850000D03*
X248150000Y-56400000D03*
X227200000Y-52150000D03*
X227200000Y-52150000D03*
X250500000Y-57450000D03*
X248150000Y-57650000D03*
X240400000Y-52150000D03*
X240400000Y-52150000D03*
D13*
X66300000Y-60450000D02*
X66300000Y-60400000D01*
X66300000Y-60400000D02*
X63600000Y-57700000D01*
X61600000Y-58100000D02*
X63200000Y-58100000D01*
X64400000Y-56000000D02*
X65600000Y-54800000D01*
X64400000Y-56900000D02*
X64400000Y-56000000D01*
X63200000Y-58100000D02*
X63600000Y-57700000D01*
X63600000Y-57700000D02*
X64400000Y-56900000D01*
D14*
X243650000Y-50250000D02*
X249100000Y-50250000D01*
X250500000Y-51650000D02*
X250500000Y-54600000D01*
X249100000Y-50250000D02*
X250500000Y-51650000D01*
D13*
X248550000Y-54450000D02*
X248750000Y-54450000D01*
X248750000Y-54450000D02*
X249350000Y-55050000D01*
X249350000Y-55050000D02*
X249350000Y-57800000D01*
X246650000Y-60250000D02*
X246650000Y-60200000D01*
X246650000Y-60200000D02*
X247750000Y-59100000D01*
X248050000Y-59100000D02*
X249350000Y-57800000D01*
X247750000Y-59100000D02*
X248050000Y-59100000D01*
D14*
X214650000Y-62900000D02*
X214650000Y-59350000D01*
X214650000Y-59350000D02*
X215700000Y-58300000D01*
X216750000Y-58300000D02*
X215700000Y-58300000D01*
X218800000Y-58300000D02*
X216750000Y-58300000D01*
X220300000Y-58300000D02*
X220650000Y-58650000D01*
X218800000Y-58300000D02*
X220300000Y-58300000D01*
X210600000Y-64700000D02*
X203300000Y-64700000D01*
X211500000Y-64700000D02*
X212850000Y-64700000D01*
X211500000Y-64700000D02*
X210600000Y-64700000D01*
X212850000Y-64700000D02*
X214650000Y-62900000D01*
X208050000Y-65400000D02*
X213300000Y-65400000D01*
X213300000Y-65400000D02*
X215325000Y-63375000D01*
X215325000Y-63375000D02*
X215325000Y-59775000D01*
X220025000Y-59025000D02*
X216900000Y-59025000D01*
X220650000Y-59600000D02*
X220600000Y-59600000D01*
X220600000Y-59600000D02*
X220025000Y-59025000D01*
X216900000Y-59025000D02*
X216075000Y-59025000D01*
X215325000Y-59775000D02*
X216075000Y-59025000D01*
X207000000Y-65400000D02*
X208050000Y-65400000D01*
X188700000Y-64800000D02*
X193300000Y-64800000D01*
X206300000Y-66100000D02*
X207000000Y-65400000D01*
X194600000Y-66100000D02*
X206300000Y-66100000D01*
X193300000Y-64800000D02*
X194600000Y-66100000D01*
X207600000Y-65900000D02*
X213900000Y-65900000D01*
X213900000Y-65900000D02*
X216000000Y-63800000D01*
X216000000Y-60250000D02*
X216000000Y-63800000D01*
X174200000Y-64700000D02*
X177700000Y-64700000D01*
X177700000Y-64700000D02*
X179700000Y-66700000D01*
X179700000Y-66700000D02*
X191900000Y-66700000D01*
X191900000Y-66700000D02*
X192600000Y-66000000D01*
X192600000Y-66000000D02*
X193300000Y-66000000D01*
X193300000Y-66000000D02*
X194000000Y-66700000D01*
X194000000Y-66700000D02*
X206600000Y-66700000D01*
X206600000Y-66700000D02*
X207400000Y-65900000D01*
X207400000Y-65900000D02*
X207600000Y-65900000D01*
X53450000Y-66500000D02*
X52550000Y-66500000D01*
X52550000Y-66500000D02*
X50700000Y-64650000D01*
X73150000Y-64900000D02*
X72100000Y-65950000D01*
X72100000Y-65950000D02*
X62500000Y-65950000D01*
X62500000Y-65950000D02*
X62200000Y-65650000D01*
X62200000Y-65650000D02*
X61200000Y-65650000D01*
X61200000Y-65650000D02*
X60350000Y-66500000D01*
X60350000Y-66500000D02*
X54800000Y-66500000D01*
X86400000Y-64900000D02*
X73150000Y-64900000D01*
X53450000Y-66500000D02*
X54800000Y-66500000D01*
X55600000Y-64900000D02*
X53400000Y-64900000D01*
X50650000Y-62150000D02*
X50650000Y-61150000D01*
X53400000Y-64900000D02*
X50650000Y-62150000D01*
X55600000Y-64900000D02*
X57200000Y-64900000D01*
X55000000Y-65800000D02*
X52950000Y-65800000D01*
X52950000Y-65800000D02*
X50700000Y-63550000D01*
X71400000Y-64900000D02*
X61700000Y-64900000D01*
X61700000Y-64900000D02*
X60700000Y-64900000D01*
X60700000Y-64900000D02*
X59800000Y-65800000D01*
X59800000Y-65800000D02*
X55000000Y-65800000D01*
X71700000Y-64900000D02*
X71400000Y-64900000D01*
X225950000Y-66650000D02*
X225950000Y-62200000D01*
X225400000Y-61650000D02*
X224200000Y-61650000D01*
X225950000Y-62200000D02*
X225400000Y-61650000D01*
X224200000Y-60750000D02*
X225550000Y-60750000D01*
X227450000Y-66650000D02*
X227950000Y-66650000D01*
X226950000Y-66150000D02*
X227450000Y-66650000D01*
X226950000Y-62150000D02*
X226950000Y-66150000D01*
X225550000Y-60750000D02*
X226950000Y-62150000D01*
X229950000Y-66650000D02*
X229300000Y-66650000D01*
X228450000Y-59850000D02*
X225750000Y-59850000D01*
X228850000Y-60250000D02*
X228450000Y-59850000D01*
X228850000Y-66200000D02*
X228850000Y-60250000D01*
X229300000Y-66650000D02*
X228850000Y-66200000D01*
X67850000Y-58750000D02*
X69250000Y-57350000D01*
X69250000Y-57350000D02*
X69950000Y-56650000D01*
X66150000Y-58150000D02*
X66050000Y-58050000D01*
X66950000Y-58950000D02*
X66150000Y-58150000D01*
X67650000Y-58950000D02*
X66950000Y-58950000D01*
X67850000Y-58750000D02*
X67650000Y-58950000D01*
X67850000Y-58750000D02*
X69250000Y-57350000D01*
X69250000Y-57350000D02*
X69950000Y-56650000D01*
X66150000Y-58150000D02*
X66050000Y-58050000D01*
X66950000Y-58950000D02*
X66150000Y-58150000D01*
X67650000Y-58950000D02*
X66950000Y-58950000D01*
X67850000Y-58750000D02*
X67650000Y-58950000D01*
X69950000Y-53250000D02*
X70150000Y-53050000D01*
X69950000Y-56650000D02*
X69950000Y-53250000D01*
X71050000Y-52350000D02*
X70850000Y-52350000D01*
X70850000Y-52350000D02*
X70150000Y-53050000D01*
X81400000Y-52050000D02*
X81250000Y-52050000D01*
X80950000Y-52350000D02*
X71050000Y-52350000D01*
X71050000Y-52350000D02*
X70950000Y-52350000D01*
X81250000Y-52050000D02*
X80950000Y-52350000D01*
X69950000Y-53250000D02*
X70150000Y-53050000D01*
X69950000Y-56650000D02*
X69950000Y-53250000D01*
X71050000Y-52350000D02*
X70850000Y-52350000D01*
X70850000Y-52350000D02*
X70150000Y-53050000D01*
X81400000Y-52050000D02*
X81250000Y-52050000D01*
X80950000Y-52350000D02*
X71050000Y-52350000D01*
X71050000Y-52350000D02*
X70950000Y-52350000D01*
X81250000Y-52050000D02*
X80950000Y-52350000D01*
X66550000Y-57350000D02*
X68150000Y-55750000D01*
X68150000Y-53050000D02*
X68350000Y-52850000D01*
X68150000Y-55750000D02*
X68150000Y-53050000D01*
X71150000Y-51150000D02*
X70050000Y-51150000D01*
X70050000Y-51150000D02*
X68350000Y-52850000D01*
X107900000Y-52050000D02*
X95950000Y-52050000D01*
X79850000Y-51150000D02*
X71150000Y-51150000D01*
X71150000Y-51150000D02*
X71050000Y-51150000D01*
X80450000Y-50550000D02*
X79850000Y-51150000D01*
X82450000Y-50550000D02*
X80450000Y-50550000D01*
X83250000Y-51350000D02*
X82450000Y-50550000D01*
X93650000Y-51350000D02*
X83250000Y-51350000D01*
X93850000Y-51150000D02*
X93650000Y-51350000D01*
X95050000Y-51150000D02*
X93850000Y-51150000D01*
X95950000Y-52050000D02*
X95050000Y-51150000D01*
X66550000Y-57350000D02*
X68150000Y-55750000D01*
X68150000Y-53050000D02*
X68350000Y-52850000D01*
X68150000Y-55750000D02*
X68150000Y-53050000D01*
X71150000Y-51150000D02*
X70050000Y-51150000D01*
X70050000Y-51150000D02*
X68350000Y-52850000D01*
X107900000Y-52050000D02*
X95950000Y-52050000D01*
X79850000Y-51150000D02*
X71150000Y-51150000D01*
X71150000Y-51150000D02*
X71050000Y-51150000D01*
X80450000Y-50550000D02*
X79850000Y-51150000D01*
X82450000Y-50550000D02*
X80450000Y-50550000D01*
X83250000Y-51350000D02*
X82450000Y-50550000D01*
X93650000Y-51350000D02*
X83250000Y-51350000D01*
X93850000Y-51150000D02*
X93650000Y-51350000D01*
X95050000Y-51150000D02*
X93850000Y-51150000D01*
X95950000Y-52050000D02*
X95050000Y-51150000D01*
X67350000Y-58050000D02*
X69150000Y-56250000D01*
X69150000Y-53050000D02*
X69550000Y-52650000D01*
X69150000Y-56250000D02*
X69150000Y-53050000D01*
X70950000Y-51750000D02*
X70450000Y-51750000D01*
X70450000Y-51750000D02*
X69550000Y-52650000D01*
X80750000Y-51750000D02*
X70950000Y-51750000D01*
X67350000Y-58050000D02*
X69150000Y-56250000D01*
X69150000Y-53050000D02*
X69550000Y-52650000D01*
X69150000Y-56250000D02*
X69150000Y-53050000D01*
X70950000Y-51750000D02*
X70450000Y-51750000D01*
X70450000Y-51750000D02*
X69550000Y-52650000D01*
X80750000Y-51750000D02*
X70950000Y-51750000D01*
X94600000Y-52050000D02*
X82550000Y-52050000D01*
X81150000Y-51350000D02*
X80750000Y-51750000D01*
X81850000Y-51350000D02*
X81150000Y-51350000D01*
X82550000Y-52050000D02*
X81850000Y-51350000D01*
X94600000Y-52050000D02*
X82550000Y-52050000D01*
X81150000Y-51350000D02*
X80750000Y-51750000D01*
X81850000Y-51350000D02*
X81150000Y-51350000D01*
X82550000Y-52050000D02*
X81850000Y-51350000D01*
X247450000Y-52950000D02*
X247450000Y-52750000D01*
X247450000Y-52750000D02*
X246350000Y-51650000D01*
X248450000Y-55400000D02*
X247700000Y-55400000D01*
X247450000Y-55150000D02*
X247450000Y-52950000D01*
X247700000Y-55400000D02*
X247450000Y-55150000D01*
X214100000Y-52050000D02*
X214250000Y-52050000D01*
X241750000Y-51650000D02*
X246350000Y-51650000D01*
X241050000Y-50950000D02*
X241750000Y-51650000D01*
X239850000Y-50950000D02*
X241050000Y-50950000D01*
X238850000Y-51950000D02*
X239850000Y-50950000D01*
X228050000Y-51950000D02*
X238850000Y-51950000D01*
X227550000Y-51450000D02*
X228050000Y-51950000D01*
X226950000Y-51450000D02*
X227550000Y-51450000D01*
X225950000Y-52450000D02*
X226950000Y-51450000D01*
X214650000Y-52450000D02*
X225950000Y-52450000D01*
X214250000Y-52050000D02*
X214650000Y-52450000D01*
X214100000Y-52050000D02*
X214250000Y-52050000D01*
X241750000Y-51650000D02*
X246350000Y-51650000D01*
X241050000Y-50950000D02*
X241750000Y-51650000D01*
X239850000Y-50950000D02*
X241050000Y-50950000D01*
X238850000Y-51950000D02*
X239850000Y-50950000D01*
X228050000Y-51950000D02*
X238850000Y-51950000D01*
X227550000Y-51450000D02*
X228050000Y-51950000D01*
X226950000Y-51450000D02*
X227550000Y-51450000D01*
X225950000Y-52450000D02*
X226950000Y-51450000D01*
X214650000Y-52450000D02*
X225950000Y-52450000D01*
X214250000Y-52050000D02*
X214650000Y-52450000D01*
X248200000Y-53550000D02*
X248200000Y-52650000D01*
X248200000Y-52650000D02*
X246700000Y-51150000D01*
X242350000Y-51150000D02*
X246700000Y-51150000D01*
X241450000Y-50250000D02*
X242350000Y-51150000D01*
X200700000Y-52050000D02*
X212950000Y-52050000D01*
X239250000Y-50250000D02*
X241450000Y-50250000D01*
X238350000Y-51150000D02*
X239250000Y-50250000D01*
X228250000Y-51150000D02*
X238350000Y-51150000D01*
X227950000Y-50850000D02*
X228250000Y-51150000D01*
X226550000Y-50850000D02*
X227950000Y-50850000D01*
X226050000Y-51350000D02*
X226550000Y-50850000D01*
X213650000Y-51350000D02*
X226050000Y-51350000D01*
X212950000Y-52050000D02*
X213650000Y-51350000D01*
X241450000Y-50250000D02*
X242350000Y-51150000D01*
X200700000Y-52050000D02*
X212950000Y-52050000D01*
X239250000Y-50250000D02*
X241450000Y-50250000D01*
X238350000Y-51150000D02*
X239250000Y-50250000D01*
X228250000Y-51150000D02*
X238350000Y-51150000D01*
X227950000Y-50850000D02*
X228250000Y-51150000D01*
X226550000Y-50850000D02*
X227950000Y-50850000D01*
X226050000Y-51350000D02*
X226550000Y-50850000D01*
X213650000Y-51350000D02*
X226050000Y-51350000D01*
X212950000Y-52050000D02*
X213650000Y-51350000D01*
X248150000Y-56400000D02*
X247600000Y-56400000D01*
X246800000Y-55600000D02*
X246800000Y-53300000D01*
X247600000Y-56400000D02*
X246800000Y-55600000D01*
X245650000Y-52150000D02*
X245450000Y-52150000D01*
X227200000Y-52150000D02*
X227350000Y-52150000D01*
X241450000Y-52150000D02*
X245450000Y-52150000D01*
X240750000Y-51450000D02*
X241450000Y-52150000D01*
X240150000Y-51450000D02*
X240750000Y-51450000D01*
X239050000Y-52550000D02*
X240150000Y-51450000D01*
X227750000Y-52550000D02*
X239050000Y-52550000D01*
X227350000Y-52150000D02*
X227750000Y-52550000D01*
X245650000Y-52150000D02*
X245450000Y-52150000D01*
X246800000Y-53300000D02*
X245650000Y-52150000D01*
X227200000Y-52150000D02*
X227350000Y-52150000D01*
X241450000Y-52150000D02*
X245450000Y-52150000D01*
X240750000Y-51450000D02*
X241450000Y-52150000D01*
X240150000Y-51450000D02*
X240750000Y-51450000D01*
X239050000Y-52550000D02*
X240150000Y-51450000D01*
X227750000Y-52550000D02*
X239050000Y-52550000D01*
X227350000Y-52150000D02*
X227750000Y-52550000D01*
X248150000Y-57650000D02*
X247300000Y-57650000D01*
X246150000Y-56500000D02*
X246150000Y-53650000D01*
X247300000Y-57650000D02*
X246150000Y-56500000D01*
X246150000Y-53650000D02*
X245150000Y-52650000D01*
X240550000Y-52150000D02*
X241050000Y-52650000D01*
X241050000Y-52650000D02*
X245150000Y-52650000D01*
X240400000Y-52150000D02*
X240550000Y-52150000D01*
X240550000Y-52150000D02*
X241050000Y-52650000D01*
X241050000Y-52650000D02*
X245150000Y-52650000D01*
X240400000Y-52150000D02*
X240550000Y-52150000D01*
M02*
